"HealthTopic","Population","Indicator","Unit","Time","RegionCode","RegionName","NumValue","TxtValue"
"Antimicrobial resistance","Acinetobacter spp.|Combined resistance (fluoroquinolones, aminoglycosides and carbapenems)","Total tested isolates","N","2012","AT","Austria",0.000000000,""
"Antimicrobial resistance","Acinetobacter spp.|Combined resistance (fluoroquinolones, aminoglycosides and carbapenems)","Total tested isolates","N","2012","BE","Belgium",0.000000000,""
"Antimicrobial resistance","Acinetobacter spp.|Combined resistance (fluoroquinolones, aminoglycosides and carbapenems)","Total tested isolates","N","2012","BG","Bulgaria",58.000000000,""
"Antimicrobial resistance","Acinetobacter spp.|Combined resistance (fluoroquinolones, aminoglycosides and carbapenems)","Total tested isolates","N","2012","CY","Cyprus",23.000000000,""
"Antimicrobial resistance","Acinetobacter spp.|Combined resistance (fluoroquinolones, aminoglycosides and carbapenems)","Total tested isolates","N","2012","CZ","Czechia",0.000000000,""
"Antimicrobial resistance","Acinetobacter spp.|Combined resistance (fluoroquinolones, aminoglycosides and carbapenems)","Total tested isolates","N","2012","DE","Germany",119.000000000,""
"Antimicrobial resistance","Acinetobacter spp.|Combined resistance (fluoroquinolones, aminoglycosides and carbapenems)","Total tested isolates","N","2012","DK","Denmark",58.000000000,""
"Antimicrobial resistance","Acinetobacter spp.|Combined resistance (fluoroquinolones, aminoglycosides and carbapenems)","Total tested isolates","N","2012","EE","Estonia",0.000000000,""
"Antimicrobial resistance","Acinetobacter spp.|Combined resistance (fluoroquinolones, aminoglycosides and carbapenems)","Total tested isolates","N","2012","EL","Greece",1203.000000000,""
"Antimicrobial resistance","Acinetobacter spp.|Combined resistance (fluoroquinolones, aminoglycosides and carbapenems)","Total tested isolates","N","2012","ES","Spain",0.000000000,""
"Antimicrobial resistance","Acinetobacter spp.|Combined resistance (fluoroquinolones, aminoglycosides and carbapenems)","Total tested isolates","N","2012","FI","Finland",0.000000000,""
"Antimicrobial resistance","Acinetobacter spp.|Combined resistance (fluoroquinolones, aminoglycosides and carbapenems)","Total tested isolates","N","2012","FR","France",272.000000000,""
"Antimicrobial resistance","Acinetobacter spp.|Combined resistance (fluoroquinolones, aminoglycosides and carbapenems)","Total tested isolates","N","2012","HR","Croatia",0.000000000,""
"Antimicrobial resistance","Acinetobacter spp.|Combined resistance (fluoroquinolones, aminoglycosides and carbapenems)","Total tested isolates","N","2012","HU","Hungary",394.000000000,""
"Antimicrobial resistance","Acinetobacter spp.|Combined resistance (fluoroquinolones, aminoglycosides and carbapenems)","Total tested isolates","N","2012","IE","Ireland",0.000000000,""
"Antimicrobial resistance","Acinetobacter spp.|Combined resistance (fluoroquinolones, aminoglycosides and carbapenems)","Total tested isolates","N","2012","IS","Iceland",2.000000000,""
"Antimicrobial resistance","Acinetobacter spp.|Combined resistance (fluoroquinolones, aminoglycosides and carbapenems)","Total tested isolates","N","2012","IT","Italy",217.000000000,""
"Antimicrobial resistance","Acinetobacter spp.|Combined resistance (fluoroquinolones, aminoglycosides and carbapenems)","Total tested isolates","N","2012","LT","Lithuania",0.000000000,""
"Antimicrobial resistance","Acinetobacter spp.|Combined resistance (fluoroquinolones, aminoglycosides and carbapenems)","Total tested isolates","N","2012","LU","Luxembourg",5.000000000,""
"Antimicrobial resistance","Acinetobacter spp.|Combined resistance (fluoroquinolones, aminoglycosides and carbapenems)","Total tested isolates","N","2012","LV","Latvia",0.000000000,""
"Antimicrobial resistance","Acinetobacter spp.|Combined resistance (fluoroquinolones, aminoglycosides and carbapenems)","Total tested isolates","N","2012","MT","Malta",5.000000000,""
"Antimicrobial resistance","Acinetobacter spp.|Combined resistance (fluoroquinolones, aminoglycosides and carbapenems)","Total tested isolates","N","2012","NL","Netherlands",84.000000000,""
"Antimicrobial resistance","Acinetobacter spp.|Combined resistance (fluoroquinolones, aminoglycosides and carbapenems)","Total tested isolates","N","2012","NO","Norway",25.000000000,""
"Antimicrobial resistance","Acinetobacter spp.|Combined resistance (fluoroquinolones, aminoglycosides and carbapenems)","Total tested isolates","N","2012","PL","Poland",206.000000000,""
"Antimicrobial resistance","Acinetobacter spp.|Combined resistance (fluoroquinolones, aminoglycosides and carbapenems)","Total tested isolates","N","2012","PT","Portugal",168.000000000,""
"Antimicrobial resistance","Acinetobacter spp.|Combined resistance (fluoroquinolones, aminoglycosides and carbapenems)","Total tested isolates","N","2012","RO","Romania",54.000000000,""
"Antimicrobial resistance","Acinetobacter spp.|Combined resistance (fluoroquinolones, aminoglycosides and carbapenems)","Total tested isolates","N","2012","SE","Sweden",0.000000000,""
"Antimicrobial resistance","Acinetobacter spp.|Combined resistance (fluoroquinolones, aminoglycosides and carbapenems)","Total tested isolates","N","2012","SI","Slovenia",25.000000000,""
"Antimicrobial resistance","Acinetobacter spp.|Combined resistance (fluoroquinolones, aminoglycosides and carbapenems)","Total tested isolates","N","2012","SK","Slovakia",0.000000000,""
"Antimicrobial resistance","Acinetobacter spp.|Combined resistance (fluoroquinolones, aminoglycosides and carbapenems)","Total tested isolates","N","2012","UK","United Kingdom",79.000000000,""
"Antimicrobial resistance","Acinetobacter spp.|Combined resistance (fluoroquinolones, aminoglycosides and carbapenems)","Total tested isolates","N","2013","AT","Austria",51.000000000,""
"Antimicrobial resistance","Acinetobacter spp.|Combined resistance (fluoroquinolones, aminoglycosides and carbapenems)","Total tested isolates","N","2013","BE","Belgium",1.000000000,""
"Antimicrobial resistance","Acinetobacter spp.|Combined resistance (fluoroquinolones, aminoglycosides and carbapenems)","Total tested isolates","N","2013","BG","Bulgaria",86.000000000,""
"Antimicrobial resistance","Acinetobacter spp.|Combined resistance (fluoroquinolones, aminoglycosides and carbapenems)","Total tested isolates","N","2013","CY","Cyprus",33.000000000,""
"Antimicrobial resistance","Acinetobacter spp.|Combined resistance (fluoroquinolones, aminoglycosides and carbapenems)","Total tested isolates","N","2013","CZ","Czechia",91.000000000,""
"Antimicrobial resistance","Acinetobacter spp.|Combined resistance (fluoroquinolones, aminoglycosides and carbapenems)","Total tested isolates","N","2013","DE","Germany",174.000000000,""
"Antimicrobial resistance","Acinetobacter spp.|Combined resistance (fluoroquinolones, aminoglycosides and carbapenems)","Total tested isolates","N","2013","DK","Denmark",57.000000000,""
"Antimicrobial resistance","Acinetobacter spp.|Combined resistance (fluoroquinolones, aminoglycosides and carbapenems)","Total tested isolates","N","2013","EE","Estonia",0.000000000,""
"Antimicrobial resistance","Acinetobacter spp.|Combined resistance (fluoroquinolones, aminoglycosides and carbapenems)","Total tested isolates","N","2013","EL","Greece",809.000000000,""
"Antimicrobial resistance","Acinetobacter spp.|Combined resistance (fluoroquinolones, aminoglycosides and carbapenems)","Total tested isolates","N","2013","ES","Spain",71.000000000,""
"Antimicrobial resistance","Acinetobacter spp.|Combined resistance (fluoroquinolones, aminoglycosides and carbapenems)","Total tested isolates","N","2013","FI","Finland",34.000000000,""
"Antimicrobial resistance","Acinetobacter spp.|Combined resistance (fluoroquinolones, aminoglycosides and carbapenems)","Total tested isolates","N","2013","FR","France",389.000000000,""
"Antimicrobial resistance","Acinetobacter spp.|Combined resistance (fluoroquinolones, aminoglycosides and carbapenems)","Total tested isolates","N","2013","HR","Croatia",111.000000000,""
"Antimicrobial resistance","Acinetobacter spp.|Combined resistance (fluoroquinolones, aminoglycosides and carbapenems)","Total tested isolates","N","2013","HU","Hungary",465.000000000,""
"Antimicrobial resistance","Acinetobacter spp.|Combined resistance (fluoroquinolones, aminoglycosides and carbapenems)","Total tested isolates","N","2013","IE","Ireland",84.000000000,""
"Antimicrobial resistance","Acinetobacter spp.|Combined resistance (fluoroquinolones, aminoglycosides and carbapenems)","Total tested isolates","N","2013","IS","Iceland",0.000000000,""
"Antimicrobial resistance","Acinetobacter spp.|Combined resistance (fluoroquinolones, aminoglycosides and carbapenems)","Total tested isolates","N","2013","IT","Italy",444.000000000,""
"Antimicrobial resistance","Acinetobacter spp.|Combined resistance (fluoroquinolones, aminoglycosides and carbapenems)","Total tested isolates","N","2013","LT","Lithuania",0.000000000,""
"Antimicrobial resistance","Acinetobacter spp.|Combined resistance (fluoroquinolones, aminoglycosides and carbapenems)","Total tested isolates","N","2013","LU","Luxembourg",1.000000000,""
"Antimicrobial resistance","Acinetobacter spp.|Combined resistance (fluoroquinolones, aminoglycosides and carbapenems)","Total tested isolates","N","2013","LV","Latvia",0.000000000,""
"Antimicrobial resistance","Acinetobacter spp.|Combined resistance (fluoroquinolones, aminoglycosides and carbapenems)","Total tested isolates","N","2013","MT","Malta",7.000000000,""
"Antimicrobial resistance","Acinetobacter spp.|Combined resistance (fluoroquinolones, aminoglycosides and carbapenems)","Total tested isolates","N","2013","NL","Netherlands",94.000000000,""
"Antimicrobial resistance","Acinetobacter spp.|Combined resistance (fluoroquinolones, aminoglycosides and carbapenems)","Total tested isolates","N","2013","NO","Norway",36.000000000,""
"Antimicrobial resistance","Acinetobacter spp.|Combined resistance (fluoroquinolones, aminoglycosides and carbapenems)","Total tested isolates","N","2013","PL","Poland",184.000000000,""
"Antimicrobial resistance","Acinetobacter spp.|Combined resistance (fluoroquinolones, aminoglycosides and carbapenems)","Total tested isolates","N","2013","PT","Portugal",222.000000000,""
"Antimicrobial resistance","Acinetobacter spp.|Combined resistance (fluoroquinolones, aminoglycosides and carbapenems)","Total tested isolates","N","2013","RO","Romania",137.000000000,""
"Antimicrobial resistance","Acinetobacter spp.|Combined resistance (fluoroquinolones, aminoglycosides and carbapenems)","Total tested isolates","N","2013","SE","Sweden",71.000000000,""
"Antimicrobial resistance","Acinetobacter spp.|Combined resistance (fluoroquinolones, aminoglycosides and carbapenems)","Total tested isolates","N","2013","SI","Slovenia",25.000000000,""
"Antimicrobial resistance","Acinetobacter spp.|Combined resistance (fluoroquinolones, aminoglycosides and carbapenems)","Total tested isolates","N","2013","SK","Slovakia",141.000000000,""
"Antimicrobial resistance","Acinetobacter spp.|Combined resistance (fluoroquinolones, aminoglycosides and carbapenems)","Total tested isolates","N","2013","UK","United Kingdom",149.000000000,""
"Antimicrobial resistance","Acinetobacter spp.|Combined resistance (fluoroquinolones, aminoglycosides and carbapenems)","Total tested isolates","N","2014","AT","Austria",74.000000000,""
"Antimicrobial resistance","Acinetobacter spp.|Combined resistance (fluoroquinolones, aminoglycosides and carbapenems)","Total tested isolates","N","2014","BE","Belgium",2.000000000,""
"Antimicrobial resistance","Acinetobacter spp.|Combined resistance (fluoroquinolones, aminoglycosides and carbapenems)","Total tested isolates","N","2014","BG","Bulgaria",85.000000000,""
"Antimicrobial resistance","Acinetobacter spp.|Combined resistance (fluoroquinolones, aminoglycosides and carbapenems)","Total tested isolates","N","2014","CY","Cyprus",57.000000000,""
"Antimicrobial resistance","Acinetobacter spp.|Combined resistance (fluoroquinolones, aminoglycosides and carbapenems)","Total tested isolates","N","2014","CZ","Czechia",59.000000000,""
"Antimicrobial resistance","Acinetobacter spp.|Combined resistance (fluoroquinolones, aminoglycosides and carbapenems)","Total tested isolates","N","2014","DE","Germany",188.000000000,""
"Antimicrobial resistance","Acinetobacter spp.|Combined resistance (fluoroquinolones, aminoglycosides and carbapenems)","Total tested isolates","N","2014","DK","Denmark",49.000000000,""
"Antimicrobial resistance","Acinetobacter spp.|Combined resistance (fluoroquinolones, aminoglycosides and carbapenems)","Total tested isolates","N","2014","EE","Estonia",0.000000000,""
"Antimicrobial resistance","Acinetobacter spp.|Combined resistance (fluoroquinolones, aminoglycosides and carbapenems)","Total tested isolates","N","2014","EL","Greece",793.000000000,""
"Antimicrobial resistance","Acinetobacter spp.|Combined resistance (fluoroquinolones, aminoglycosides and carbapenems)","Total tested isolates","N","2014","ES","Spain",78.000000000,""
"Antimicrobial resistance","Acinetobacter spp.|Combined resistance (fluoroquinolones, aminoglycosides and carbapenems)","Total tested isolates","N","2014","FI","Finland",30.000000000,""
"Antimicrobial resistance","Acinetobacter spp.|Combined resistance (fluoroquinolones, aminoglycosides and carbapenems)","Total tested isolates","N","2014","FR","France",391.000000000,""
"Antimicrobial resistance","Acinetobacter spp.|Combined resistance (fluoroquinolones, aminoglycosides and carbapenems)","Total tested isolates","N","2014","HR","Croatia",162.000000000,""
"Antimicrobial resistance","Acinetobacter spp.|Combined resistance (fluoroquinolones, aminoglycosides and carbapenems)","Total tested isolates","N","2014","HU","Hungary",438.000000000,""
"Antimicrobial resistance","Acinetobacter spp.|Combined resistance (fluoroquinolones, aminoglycosides and carbapenems)","Total tested isolates","N","2014","IE","Ireland",79.000000000,""
"Antimicrobial resistance","Acinetobacter spp.|Combined resistance (fluoroquinolones, aminoglycosides and carbapenems)","Total tested isolates","N","2014","IS","Iceland",3.000000000,""
"Antimicrobial resistance","Acinetobacter spp.|Combined resistance (fluoroquinolones, aminoglycosides and carbapenems)","Total tested isolates","N","2014","IT","Italy",437.000000000,""
"Antimicrobial resistance","Acinetobacter spp.|Combined resistance (fluoroquinolones, aminoglycosides and carbapenems)","Total tested isolates","N","2014","LT","Lithuania",65.000000000,""
"Antimicrobial resistance","Acinetobacter spp.|Combined resistance (fluoroquinolones, aminoglycosides and carbapenems)","Total tested isolates","N","2014","LU","Luxembourg",6.000000000,""
"Antimicrobial resistance","Acinetobacter spp.|Combined resistance (fluoroquinolones, aminoglycosides and carbapenems)","Total tested isolates","N","2014","LV","Latvia",52.000000000,""
"Antimicrobial resistance","Acinetobacter spp.|Combined resistance (fluoroquinolones, aminoglycosides and carbapenems)","Total tested isolates","N","2014","MT","Malta",10.000000000,""
"Antimicrobial resistance","Acinetobacter spp.|Combined resistance (fluoroquinolones, aminoglycosides and carbapenems)","Total tested isolates","N","2014","NL","Netherlands",90.000000000,""
"Antimicrobial resistance","Acinetobacter spp.|Combined resistance (fluoroquinolones, aminoglycosides and carbapenems)","Total tested isolates","N","2014","NO","Norway",33.000000000,""
"Antimicrobial resistance","Acinetobacter spp.|Combined resistance (fluoroquinolones, aminoglycosides and carbapenems)","Total tested isolates","N","2014","PL","Poland",184.000000000,""
"Antimicrobial resistance","Acinetobacter spp.|Combined resistance (fluoroquinolones, aminoglycosides and carbapenems)","Total tested isolates","N","2014","PT","Portugal",260.000000000,""
"Antimicrobial resistance","Acinetobacter spp.|Combined resistance (fluoroquinolones, aminoglycosides and carbapenems)","Total tested isolates","N","2014","RO","Romania",121.000000000,""
"Antimicrobial resistance","Acinetobacter spp.|Combined resistance (fluoroquinolones, aminoglycosides and carbapenems)","Total tested isolates","N","2014","SE","Sweden",36.000000000,""
"Antimicrobial resistance","Acinetobacter spp.|Combined resistance (fluoroquinolones, aminoglycosides and carbapenems)","Total tested isolates","N","2014","SI","Slovenia",34.000000000,""
"Antimicrobial resistance","Acinetobacter spp.|Combined resistance (fluoroquinolones, aminoglycosides and carbapenems)","Total tested isolates","N","2014","SK","Slovakia",160.000000000,""
"Antimicrobial resistance","Acinetobacter spp.|Combined resistance (fluoroquinolones, aminoglycosides and carbapenems)","Total tested isolates","N","2014","UK","United Kingdom",119.000000000,""
"Antimicrobial resistance","Acinetobacter spp.|Combined resistance (fluoroquinolones, aminoglycosides and carbapenems)","Total tested isolates","N","2015","AT","Austria",61.000000000,""
"Antimicrobial resistance","Acinetobacter spp.|Combined resistance (fluoroquinolones, aminoglycosides and carbapenems)","Total tested isolates","N","2015","BE","Belgium",13.000000000,""
"Antimicrobial resistance","Acinetobacter spp.|Combined resistance (fluoroquinolones, aminoglycosides and carbapenems)","Total tested isolates","N","2015","BG","Bulgaria",112.000000000,""
"Antimicrobial resistance","Acinetobacter spp.|Combined resistance (fluoroquinolones, aminoglycosides and carbapenems)","Total tested isolates","N","2015","CY","Cyprus",59.000000000,""
"Antimicrobial resistance","Acinetobacter spp.|Combined resistance (fluoroquinolones, aminoglycosides and carbapenems)","Total tested isolates","N","2015","CZ","Czechia",60.000000000,""
"Antimicrobial resistance","Acinetobacter spp.|Combined resistance (fluoroquinolones, aminoglycosides and carbapenems)","Total tested isolates","N","2015","DE","Germany",328.000000000,""
"Antimicrobial resistance","Acinetobacter spp.|Combined resistance (fluoroquinolones, aminoglycosides and carbapenems)","Total tested isolates","N","2015","DK","Denmark",60.000000000,""
"Antimicrobial resistance","Acinetobacter spp.|Combined resistance (fluoroquinolones, aminoglycosides and carbapenems)","Total tested isolates","N","2015","EE","Estonia",1.000000000,""
"Antimicrobial resistance","Acinetobacter spp.|Combined resistance (fluoroquinolones, aminoglycosides and carbapenems)","Total tested isolates","N","2015","EL","Greece",943.000000000,""
"Antimicrobial resistance","Acinetobacter spp.|Combined resistance (fluoroquinolones, aminoglycosides and carbapenems)","Total tested isolates","N","2015","ES","Spain",94.000000000,""
"Antimicrobial resistance","Acinetobacter spp.|Combined resistance (fluoroquinolones, aminoglycosides and carbapenems)","Total tested isolates","N","2015","FI","Finland",42.000000000,""
"Antimicrobial resistance","Acinetobacter spp.|Combined resistance (fluoroquinolones, aminoglycosides and carbapenems)","Total tested isolates","N","2015","FR","France",424.000000000,""
"Antimicrobial resistance","Acinetobacter spp.|Combined resistance (fluoroquinolones, aminoglycosides and carbapenems)","Total tested isolates","N","2015","HR","Croatia",193.000000000,""
"Antimicrobial resistance","Acinetobacter spp.|Combined resistance (fluoroquinolones, aminoglycosides and carbapenems)","Total tested isolates","N","2015","HU","Hungary",462.000000000,""
"Antimicrobial resistance","Acinetobacter spp.|Combined resistance (fluoroquinolones, aminoglycosides and carbapenems)","Total tested isolates","N","2015","IE","Ireland",75.000000000,""
"Antimicrobial resistance","Acinetobacter spp.|Combined resistance (fluoroquinolones, aminoglycosides and carbapenems)","Total tested isolates","N","2015","IS","Iceland",6.000000000,""
"Antimicrobial resistance","Acinetobacter spp.|Combined resistance (fluoroquinolones, aminoglycosides and carbapenems)","Total tested isolates","N","2015","IT","Italy",650.000000000,""
"Antimicrobial resistance","Acinetobacter spp.|Combined resistance (fluoroquinolones, aminoglycosides and carbapenems)","Total tested isolates","N","2015","LT","Lithuania",73.000000000,""
"Antimicrobial resistance","Acinetobacter spp.|Combined resistance (fluoroquinolones, aminoglycosides and carbapenems)","Total tested isolates","N","2015","LU","Luxembourg",7.000000000,""
"Antimicrobial resistance","Acinetobacter spp.|Combined resistance (fluoroquinolones, aminoglycosides and carbapenems)","Total tested isolates","N","2015","LV","Latvia",60.000000000,""
"Antimicrobial resistance","Acinetobacter spp.|Combined resistance (fluoroquinolones, aminoglycosides and carbapenems)","Total tested isolates","N","2015","MT","Malta",15.000000000,""
"Antimicrobial resistance","Acinetobacter spp.|Combined resistance (fluoroquinolones, aminoglycosides and carbapenems)","Total tested isolates","N","2015","NL","Netherlands",94.000000000,""
"Antimicrobial resistance","Acinetobacter spp.|Combined resistance (fluoroquinolones, aminoglycosides and carbapenems)","Total tested isolates","N","2015","NO","Norway",32.000000000,""
"Antimicrobial resistance","Acinetobacter spp.|Combined resistance (fluoroquinolones, aminoglycosides and carbapenems)","Total tested isolates","N","2015","PL","Poland",240.000000000,""
"Antimicrobial resistance","Acinetobacter spp.|Combined resistance (fluoroquinolones, aminoglycosides and carbapenems)","Total tested isolates","N","2015","PT","Portugal",302.000000000,""
"Antimicrobial resistance","Acinetobacter spp.|Combined resistance (fluoroquinolones, aminoglycosides and carbapenems)","Total tested isolates","N","2015","RO","Romania",186.000000000,""
"Antimicrobial resistance","Acinetobacter spp.|Combined resistance (fluoroquinolones, aminoglycosides and carbapenems)","Total tested isolates","N","2015","SE","Sweden",26.000000000,""
"Antimicrobial resistance","Acinetobacter spp.|Combined resistance (fluoroquinolones, aminoglycosides and carbapenems)","Total tested isolates","N","2015","SI","Slovenia",31.000000000,""
"Antimicrobial resistance","Acinetobacter spp.|Combined resistance (fluoroquinolones, aminoglycosides and carbapenems)","Total tested isolates","N","2015","SK","Slovakia",142.000000000,""
"Antimicrobial resistance","Acinetobacter spp.|Combined resistance (fluoroquinolones, aminoglycosides and carbapenems)","Total tested isolates","N","2015","UK","United Kingdom",131.000000000,""
"Antimicrobial resistance","Acinetobacter spp.|Combined resistance (fluoroquinolones, aminoglycosides and carbapenems)","Total tested isolates","N","2016","AT","Austria",81.000000000,""
"Antimicrobial resistance","Acinetobacter spp.|Combined resistance (fluoroquinolones, aminoglycosides and carbapenems)","Total tested isolates","N","2016","BE","Belgium",64.000000000,""
"Antimicrobial resistance","Acinetobacter spp.|Combined resistance (fluoroquinolones, aminoglycosides and carbapenems)","Total tested isolates","N","2016","BG","Bulgaria",76.000000000,""
"Antimicrobial resistance","Acinetobacter spp.|Combined resistance (fluoroquinolones, aminoglycosides and carbapenems)","Total tested isolates","N","2016","CY","Cyprus",28.000000000,""
"Antimicrobial resistance","Acinetobacter spp.|Combined resistance (fluoroquinolones, aminoglycosides and carbapenems)","Total tested isolates","N","2016","CZ","Czechia",57.000000000,""
"Antimicrobial resistance","Acinetobacter spp.|Combined resistance (fluoroquinolones, aminoglycosides and carbapenems)","Total tested isolates","N","2016","DE","Germany",435.000000000,""
"Antimicrobial resistance","Acinetobacter spp.|Combined resistance (fluoroquinolones, aminoglycosides and carbapenems)","Total tested isolates","N","2016","DK","Denmark",67.000000000,""
"Antimicrobial resistance","Acinetobacter spp.|Combined resistance (fluoroquinolones, aminoglycosides and carbapenems)","Total tested isolates","N","2016","EE","Estonia",5.000000000,""
"Antimicrobial resistance","Acinetobacter spp.|Combined resistance (fluoroquinolones, aminoglycosides and carbapenems)","Total tested isolates","N","2016","EL","Greece",838.000000000,""
"Antimicrobial resistance","Acinetobacter spp.|Combined resistance (fluoroquinolones, aminoglycosides and carbapenems)","Total tested isolates","N","2016","ES","Spain",106.000000000,""
"Antimicrobial resistance","Acinetobacter spp.|Combined resistance (fluoroquinolones, aminoglycosides and carbapenems)","Total tested isolates","N","2016","FI","Finland",28.000000000,""
"Antimicrobial resistance","Acinetobacter spp.|Combined resistance (fluoroquinolones, aminoglycosides and carbapenems)","Total tested isolates","N","2016","FR","France",447.000000000,""
"Antimicrobial resistance","Acinetobacter spp.|Combined resistance (fluoroquinolones, aminoglycosides and carbapenems)","Total tested isolates","N","2016","HR","Croatia",175.000000000,""
"Antimicrobial resistance","Acinetobacter spp.|Combined resistance (fluoroquinolones, aminoglycosides and carbapenems)","Total tested isolates","N","2016","HU","Hungary",397.000000000,""
"Antimicrobial resistance","Acinetobacter spp.|Combined resistance (fluoroquinolones, aminoglycosides and carbapenems)","Total tested isolates","N","2016","IE","Ireland",61.000000000,""
"Antimicrobial resistance","Acinetobacter spp.|Combined resistance (fluoroquinolones, aminoglycosides and carbapenems)","Total tested isolates","N","2016","IS","Iceland",3.000000000,""
"Antimicrobial resistance","Acinetobacter spp.|Combined resistance (fluoroquinolones, aminoglycosides and carbapenems)","Total tested isolates","N","2016","IT","Italy",692.000000000,""
"Antimicrobial resistance","Acinetobacter spp.|Combined resistance (fluoroquinolones, aminoglycosides and carbapenems)","Total tested isolates","N","2016","LT","Lithuania",87.000000000,""
"Antimicrobial resistance","Acinetobacter spp.|Combined resistance (fluoroquinolones, aminoglycosides and carbapenems)","Total tested isolates","N","2016","LU","Luxembourg",8.000000000,""
"Antimicrobial resistance","Acinetobacter spp.|Combined resistance (fluoroquinolones, aminoglycosides and carbapenems)","Total tested isolates","N","2016","LV","Latvia",67.000000000,""
"Antimicrobial resistance","Acinetobacter spp.|Combined resistance (fluoroquinolones, aminoglycosides and carbapenems)","Total tested isolates","N","2016","MT","Malta",7.000000000,""
"Antimicrobial resistance","Acinetobacter spp.|Combined resistance (fluoroquinolones, aminoglycosides and carbapenems)","Total tested isolates","N","2016","NL","Netherlands",128.000000000,""
"Antimicrobial resistance","Acinetobacter spp.|Combined resistance (fluoroquinolones, aminoglycosides and carbapenems)","Total tested isolates","N","2016","NO","Norway",32.000000000,""
"Antimicrobial resistance","Acinetobacter spp.|Combined resistance (fluoroquinolones, aminoglycosides and carbapenems)","Total tested isolates","N","2016","PL","Poland",383.000000000,""
"Antimicrobial resistance","Acinetobacter spp.|Combined resistance (fluoroquinolones, aminoglycosides and carbapenems)","Total tested isolates","N","2016","PT","Portugal",206.000000000,""
"Antimicrobial resistance","Acinetobacter spp.|Combined resistance (fluoroquinolones, aminoglycosides and carbapenems)","Total tested isolates","N","2016","RO","Romania",152.000000000,""
"Antimicrobial resistance","Acinetobacter spp.|Combined resistance (fluoroquinolones, aminoglycosides and carbapenems)","Total tested isolates","N","2016","SE","Sweden",84.000000000,""
"Antimicrobial resistance","Acinetobacter spp.|Combined resistance (fluoroquinolones, aminoglycosides and carbapenems)","Total tested isolates","N","2016","SI","Slovenia",60.000000000,""
"Antimicrobial resistance","Acinetobacter spp.|Combined resistance (fluoroquinolones, aminoglycosides and carbapenems)","Total tested isolates","N","2016","SK","Slovakia",109.000000000,""
"Antimicrobial resistance","Acinetobacter spp.|Combined resistance (fluoroquinolones, aminoglycosides and carbapenems)","Total tested isolates","N","2016","UK","United Kingdom",558.000000000,""
"Antimicrobial resistance","Acinetobacter spp.|Combined resistance (fluoroquinolones, aminoglycosides and carbapenems)","Total tested isolates","N","2017","AT","Austria",74.000000000,""
"Antimicrobial resistance","Acinetobacter spp.|Combined resistance (fluoroquinolones, aminoglycosides and carbapenems)","Total tested isolates","N","2017","BE","Belgium",98.000000000,""
"Antimicrobial resistance","Acinetobacter spp.|Combined resistance (fluoroquinolones, aminoglycosides and carbapenems)","Total tested isolates","N","2017","BG","Bulgaria",92.000000000,""
"Antimicrobial resistance","Acinetobacter spp.|Combined resistance (fluoroquinolones, aminoglycosides and carbapenems)","Total tested isolates","N","2017","CY","Cyprus",50.000000000,""
"Antimicrobial resistance","Acinetobacter spp.|Combined resistance (fluoroquinolones, aminoglycosides and carbapenems)","Total tested isolates","N","2017","CZ","Czechia",55.000000000,""
"Antimicrobial resistance","Acinetobacter spp.|Combined resistance (fluoroquinolones, aminoglycosides and carbapenems)","Total tested isolates","N","2017","DE","Germany",495.000000000,""
"Antimicrobial resistance","Acinetobacter spp.|Combined resistance (fluoroquinolones, aminoglycosides and carbapenems)","Total tested isolates","N","2017","DK","Denmark",66.000000000,""
"Antimicrobial resistance","Acinetobacter spp.|Combined resistance (fluoroquinolones, aminoglycosides and carbapenems)","Total tested isolates","N","2017","EE","Estonia",9.000000000,""
"Antimicrobial resistance","Acinetobacter spp.|Combined resistance (fluoroquinolones, aminoglycosides and carbapenems)","Total tested isolates","N","2017","EL","Greece",1059.000000000,""
"Antimicrobial resistance","Acinetobacter spp.|Combined resistance (fluoroquinolones, aminoglycosides and carbapenems)","Total tested isolates","N","2017","ES","Spain",92.000000000,""
"Antimicrobial resistance","Acinetobacter spp.|Combined resistance (fluoroquinolones, aminoglycosides and carbapenems)","Total tested isolates","N","2017","FI","Finland",36.000000000,""
"Antimicrobial resistance","Acinetobacter spp.|Combined resistance (fluoroquinolones, aminoglycosides and carbapenems)","Total tested isolates","N","2017","FR","France",468.000000000,""
"Antimicrobial resistance","Acinetobacter spp.|Combined resistance (fluoroquinolones, aminoglycosides and carbapenems)","Total tested isolates","N","2017","HR","Croatia",203.000000000,""
"Antimicrobial resistance","Acinetobacter spp.|Combined resistance (fluoroquinolones, aminoglycosides and carbapenems)","Total tested isolates","N","2017","HU","Hungary",352.000000000,""
"Antimicrobial resistance","Acinetobacter spp.|Combined resistance (fluoroquinolones, aminoglycosides and carbapenems)","Total tested isolates","N","2017","IE","Ireland",59.000000000,""
"Antimicrobial resistance","Acinetobacter spp.|Combined resistance (fluoroquinolones, aminoglycosides and carbapenems)","Total tested isolates","N","2017","IS","Iceland",6.000000000,""
"Antimicrobial resistance","Acinetobacter spp.|Combined resistance (fluoroquinolones, aminoglycosides and carbapenems)","Total tested isolates","N","2017","IT","Italy",763.000000000,""
"Antimicrobial resistance","Acinetobacter spp.|Combined resistance (fluoroquinolones, aminoglycosides and carbapenems)","Total tested isolates","N","2017","LT","Lithuania",85.000000000,""
"Antimicrobial resistance","Acinetobacter spp.|Combined resistance (fluoroquinolones, aminoglycosides and carbapenems)","Total tested isolates","N","2017","LU","Luxembourg",8.000000000,""
"Antimicrobial resistance","Acinetobacter spp.|Combined resistance (fluoroquinolones, aminoglycosides and carbapenems)","Total tested isolates","N","2017","LV","Latvia",4.000000000,""
"Antimicrobial resistance","Acinetobacter spp.|Combined resistance (fluoroquinolones, aminoglycosides and carbapenems)","Total tested isolates","N","2017","MT","Malta",9.000000000,""
"Antimicrobial resistance","Acinetobacter spp.|Combined resistance (fluoroquinolones, aminoglycosides and carbapenems)","Total tested isolates","N","2017","NL","Netherlands",129.000000000,""
"Antimicrobial resistance","Acinetobacter spp.|Combined resistance (fluoroquinolones, aminoglycosides and carbapenems)","Total tested isolates","N","2017","NO","Norway",31.000000000,""
"Antimicrobial resistance","Acinetobacter spp.|Combined resistance (fluoroquinolones, aminoglycosides and carbapenems)","Total tested isolates","N","2017","PL","Poland",333.000000000,""
"Antimicrobial resistance","Acinetobacter spp.|Combined resistance (fluoroquinolones, aminoglycosides and carbapenems)","Total tested isolates","N","2017","PT","Portugal",166.000000000,""
"Antimicrobial resistance","Acinetobacter spp.|Combined resistance (fluoroquinolones, aminoglycosides and carbapenems)","Total tested isolates","N","2017","RO","Romania",182.000000000,""
"Antimicrobial resistance","Acinetobacter spp.|Combined resistance (fluoroquinolones, aminoglycosides and carbapenems)","Total tested isolates","N","2017","SE","Sweden",51.000000000,""
"Antimicrobial resistance","Acinetobacter spp.|Combined resistance (fluoroquinolones, aminoglycosides and carbapenems)","Total tested isolates","N","2017","SI","Slovenia",36.000000000,""
"Antimicrobial resistance","Acinetobacter spp.|Combined resistance (fluoroquinolones, aminoglycosides and carbapenems)","Total tested isolates","N","2017","SK","Slovakia",119.000000000,""
"Antimicrobial resistance","Acinetobacter spp.|Combined resistance (fluoroquinolones, aminoglycosides and carbapenems)","Total tested isolates","N","2017","UK","United Kingdom",746.000000000,""
"Antimicrobial resistance","Acinetobacter spp.|Combined resistance (fluoroquinolones, aminoglycosides and carbapenems)","Total tested isolates","N","2018","AT","Austria",88.000000000,""
"Antimicrobial resistance","Acinetobacter spp.|Combined resistance (fluoroquinolones, aminoglycosides and carbapenems)","Total tested isolates","N","2018","BE","Belgium",120.000000000,""
"Antimicrobial resistance","Acinetobacter spp.|Combined resistance (fluoroquinolones, aminoglycosides and carbapenems)","Total tested isolates","N","2018","BG","Bulgaria",110.000000000,""
"Antimicrobial resistance","Acinetobacter spp.|Combined resistance (fluoroquinolones, aminoglycosides and carbapenems)","Total tested isolates","N","2018","CY","Cyprus",55.000000000,""
"Antimicrobial resistance","Acinetobacter spp.|Combined resistance (fluoroquinolones, aminoglycosides and carbapenems)","Total tested isolates","N","2018","CZ","Czechia",91.000000000,""
"Antimicrobial resistance","Acinetobacter spp.|Combined resistance (fluoroquinolones, aminoglycosides and carbapenems)","Total tested isolates","N","2018","DE","Germany",498.000000000,""
"Antimicrobial resistance","Acinetobacter spp.|Combined resistance (fluoroquinolones, aminoglycosides and carbapenems)","Total tested isolates","N","2018","DK","Denmark",46.000000000,""
"Antimicrobial resistance","Acinetobacter spp.|Combined resistance (fluoroquinolones, aminoglycosides and carbapenems)","Total tested isolates","N","2018","EE","Estonia",11.000000000,""
"Antimicrobial resistance","Acinetobacter spp.|Combined resistance (fluoroquinolones, aminoglycosides and carbapenems)","Total tested isolates","N","2018","EL","Greece",995.000000000,""
"Antimicrobial resistance","Acinetobacter spp.|Combined resistance (fluoroquinolones, aminoglycosides and carbapenems)","Total tested isolates","N","2018","ES","Spain",81.000000000,""
"Antimicrobial resistance","Acinetobacter spp.|Combined resistance (fluoroquinolones, aminoglycosides and carbapenems)","Total tested isolates","N","2018","FI","Finland",27.000000000,""
"Antimicrobial resistance","Acinetobacter spp.|Combined resistance (fluoroquinolones, aminoglycosides and carbapenems)","Total tested isolates","N","2018","FR","France",470.000000000,""
"Antimicrobial resistance","Acinetobacter spp.|Combined resistance (fluoroquinolones, aminoglycosides and carbapenems)","Total tested isolates","N","2018","HR","Croatia",153.000000000,""
"Antimicrobial resistance","Acinetobacter spp.|Combined resistance (fluoroquinolones, aminoglycosides and carbapenems)","Total tested isolates","N","2018","HU","Hungary",341.000000000,""
"Antimicrobial resistance","Acinetobacter spp.|Combined resistance (fluoroquinolones, aminoglycosides and carbapenems)","Total tested isolates","N","2018","IE","Ireland",55.000000000,""
"Antimicrobial resistance","Acinetobacter spp.|Combined resistance (fluoroquinolones, aminoglycosides and carbapenems)","Total tested isolates","N","2018","IS","Iceland",2.000000000,""
"Antimicrobial resistance","Acinetobacter spp.|Combined resistance (fluoroquinolones, aminoglycosides and carbapenems)","Total tested isolates","N","2018","IT","Italy",1351.000000000,""
"Antimicrobial resistance","Acinetobacter spp.|Combined resistance (fluoroquinolones, aminoglycosides and carbapenems)","Total tested isolates","N","2018","LT","Lithuania",87.000000000,""
"Antimicrobial resistance","Acinetobacter spp.|Combined resistance (fluoroquinolones, aminoglycosides and carbapenems)","Total tested isolates","N","2018","LU","Luxembourg",6.000000000,""
"Antimicrobial resistance","Acinetobacter spp.|Combined resistance (fluoroquinolones, aminoglycosides and carbapenems)","Total tested isolates","N","2018","LV","Latvia",44.000000000,""
"Antimicrobial resistance","Acinetobacter spp.|Combined resistance (fluoroquinolones, aminoglycosides and carbapenems)","Total tested isolates","N","2018","MT","Malta",8.000000000,""
"Antimicrobial resistance","Acinetobacter spp.|Combined resistance (fluoroquinolones, aminoglycosides and carbapenems)","Total tested isolates","N","2018","NL","Netherlands",147.000000000,""
"Antimicrobial resistance","Acinetobacter spp.|Combined resistance (fluoroquinolones, aminoglycosides and carbapenems)","Total tested isolates","N","2018","NO","Norway",32.000000000,""
"Antimicrobial resistance","Acinetobacter spp.|Combined resistance (fluoroquinolones, aminoglycosides and carbapenems)","Total tested isolates","N","2018","PL","Poland",251.000000000,""
"Antimicrobial resistance","Acinetobacter spp.|Combined resistance (fluoroquinolones, aminoglycosides and carbapenems)","Total tested isolates","N","2018","PT","Portugal",123.000000000,""
"Antimicrobial resistance","Acinetobacter spp.|Combined resistance (fluoroquinolones, aminoglycosides and carbapenems)","Total tested isolates","N","2018","RO","Romania",210.000000000,""
"Antimicrobial resistance","Acinetobacter spp.|Combined resistance (fluoroquinolones, aminoglycosides and carbapenems)","Total tested isolates","N","2018","SE","Sweden",54.000000000,""
"Antimicrobial resistance","Acinetobacter spp.|Combined resistance (fluoroquinolones, aminoglycosides and carbapenems)","Total tested isolates","N","2018","SI","Slovenia",39.000000000,""
"Antimicrobial resistance","Acinetobacter spp.|Combined resistance (fluoroquinolones, aminoglycosides and carbapenems)","Total tested isolates","N","2018","SK","Slovakia",139.000000000,""
"Antimicrobial resistance","Acinetobacter spp.|Combined resistance (fluoroquinolones, aminoglycosides and carbapenems)","Total tested isolates","N","2018","UK","United Kingdom",676.000000000,""
"Antimicrobial resistance","Acinetobacter spp.|Combined resistance (fluoroquinolones, aminoglycosides and carbapenems)","Total tested isolates","N","2019","AT","Austria",81.000000000,""
"Antimicrobial resistance","Acinetobacter spp.|Combined resistance (fluoroquinolones, aminoglycosides and carbapenems)","Total tested isolates","N","2019","BE","Belgium",84.000000000,""
"Antimicrobial resistance","Acinetobacter spp.|Combined resistance (fluoroquinolones, aminoglycosides and carbapenems)","Total tested isolates","N","2019","BG","Bulgaria",132.000000000,""
"Antimicrobial resistance","Acinetobacter spp.|Combined resistance (fluoroquinolones, aminoglycosides and carbapenems)","Total tested isolates","N","2019","CY","Cyprus",32.000000000,""
"Antimicrobial resistance","Acinetobacter spp.|Combined resistance (fluoroquinolones, aminoglycosides and carbapenems)","Total tested isolates","N","2019","CZ","Czechia",95.000000000,""
"Antimicrobial resistance","Acinetobacter spp.|Combined resistance (fluoroquinolones, aminoglycosides and carbapenems)","Total tested isolates","N","2019","DE","Germany",425.000000000,""
"Antimicrobial resistance","Acinetobacter spp.|Combined resistance (fluoroquinolones, aminoglycosides and carbapenems)","Total tested isolates","N","2019","DK","Denmark",72.000000000,""
"Antimicrobial resistance","Acinetobacter spp.|Combined resistance (fluoroquinolones, aminoglycosides and carbapenems)","Total tested isolates","N","2019","EE","Estonia",8.000000000,""
"Antimicrobial resistance","Acinetobacter spp.|Combined resistance (fluoroquinolones, aminoglycosides and carbapenems)","Total tested isolates","N","2019","EL","Greece",187.000000000,""
"Antimicrobial resistance","Acinetobacter spp.|Combined resistance (fluoroquinolones, aminoglycosides and carbapenems)","Total tested isolates","N","2019","ES","Spain",82.000000000,""
"Antimicrobial resistance","Acinetobacter spp.|Combined resistance (fluoroquinolones, aminoglycosides and carbapenems)","Total tested isolates","N","2019","FI","Finland",42.000000000,""
"Antimicrobial resistance","Acinetobacter spp.|Combined resistance (fluoroquinolones, aminoglycosides and carbapenems)","Total tested isolates","N","2019","FR","France",458.000000000,""
"Antimicrobial resistance","Acinetobacter spp.|Combined resistance (fluoroquinolones, aminoglycosides and carbapenems)","Total tested isolates","N","2019","HR","Croatia",139.000000000,""
"Antimicrobial resistance","Acinetobacter spp.|Combined resistance (fluoroquinolones, aminoglycosides and carbapenems)","Total tested isolates","N","2019","HU","Hungary",410.000000000,""
"Antimicrobial resistance","Acinetobacter spp.|Combined resistance (fluoroquinolones, aminoglycosides and carbapenems)","Total tested isolates","N","2019","IE","Ireland",53.000000000,""
"Antimicrobial resistance","Acinetobacter spp.|Combined resistance (fluoroquinolones, aminoglycosides and carbapenems)","Total tested isolates","N","2019","IS","Iceland",3.000000000,""
"Antimicrobial resistance","Acinetobacter spp.|Combined resistance (fluoroquinolones, aminoglycosides and carbapenems)","Total tested isolates","N","2019","IT","Italy",1569.000000000,""
"Antimicrobial resistance","Acinetobacter spp.|Combined resistance (fluoroquinolones, aminoglycosides and carbapenems)","Total tested isolates","N","2019","LT","Lithuania",107.000000000,""
"Antimicrobial resistance","Acinetobacter spp.|Combined resistance (fluoroquinolones, aminoglycosides and carbapenems)","Total tested isolates","N","2019","LU","Luxembourg",8.000000000,""
"Antimicrobial resistance","Acinetobacter spp.|Combined resistance (fluoroquinolones, aminoglycosides and carbapenems)","Total tested isolates","N","2019","LV","Latvia",22.000000000,""
"Antimicrobial resistance","Acinetobacter spp.|Combined resistance (fluoroquinolones, aminoglycosides and carbapenems)","Total tested isolates","N","2019","MT","Malta",14.000000000,""
"Antimicrobial resistance","Acinetobacter spp.|Combined resistance (fluoroquinolones, aminoglycosides and carbapenems)","Total tested isolates","N","2019","NL","Netherlands",122.000000000,""
"Antimicrobial resistance","Acinetobacter spp.|Combined resistance (fluoroquinolones, aminoglycosides and carbapenems)","Total tested isolates","N","2019","NO","Norway",23.000000000,""
"Antimicrobial resistance","Acinetobacter spp.|Combined resistance (fluoroquinolones, aminoglycosides and carbapenems)","Total tested isolates","N","2019","PL","Poland",299.000000000,""
"Antimicrobial resistance","Acinetobacter spp.|Combined resistance (fluoroquinolones, aminoglycosides and carbapenems)","Total tested isolates","N","2019","PT","Portugal",83.000000000,""
"Antimicrobial resistance","Acinetobacter spp.|Combined resistance (fluoroquinolones, aminoglycosides and carbapenems)","Total tested isolates","N","2019","RO","Romania",236.000000000,""
"Antimicrobial resistance","Acinetobacter spp.|Combined resistance (fluoroquinolones, aminoglycosides and carbapenems)","Total tested isolates","N","2019","SE","Sweden",112.000000000,""
"Antimicrobial resistance","Acinetobacter spp.|Combined resistance (fluoroquinolones, aminoglycosides and carbapenems)","Total tested isolates","N","2019","SI","Slovenia",40.000000000,""
"Antimicrobial resistance","Acinetobacter spp.|Combined resistance (fluoroquinolones, aminoglycosides and carbapenems)","Total tested isolates","N","2019","SK","Slovakia",93.000000000,""
"Antimicrobial resistance","Acinetobacter spp.|Combined resistance (fluoroquinolones, aminoglycosides and carbapenems)","Total tested isolates","N","2019","UK","United Kingdom",670.000000000,""
"Antimicrobial resistance","Acinetobacter spp.|Combined resistance (fluoroquinolones, aminoglycosides and carbapenems)","Total tested isolates","N","2020","AT","Austria",66.000000000,""
"Antimicrobial resistance","Acinetobacter spp.|Combined resistance (fluoroquinolones, aminoglycosides and carbapenems)","Total tested isolates","N","2020","BE","Belgium",127.000000000,""
"Antimicrobial resistance","Acinetobacter spp.|Combined resistance (fluoroquinolones, aminoglycosides and carbapenems)","Total tested isolates","N","2020","BG","Bulgaria",129.000000000,""
"Antimicrobial resistance","Acinetobacter spp.|Combined resistance (fluoroquinolones, aminoglycosides and carbapenems)","Total tested isolates","N","2020","CY","Cyprus",113.000000000,""
"Antimicrobial resistance","Acinetobacter spp.|Combined resistance (fluoroquinolones, aminoglycosides and carbapenems)","Total tested isolates","N","2020","CZ","Czechia",82.000000000,""
"Antimicrobial resistance","Acinetobacter spp.|Combined resistance (fluoroquinolones, aminoglycosides and carbapenems)","Total tested isolates","N","2020","DE","Germany",527.000000000,""
"Antimicrobial resistance","Acinetobacter spp.|Combined resistance (fluoroquinolones, aminoglycosides and carbapenems)","Total tested isolates","N","2020","DK","Denmark",63.000000000,""
"Antimicrobial resistance","Acinetobacter spp.|Combined resistance (fluoroquinolones, aminoglycosides and carbapenems)","Total tested isolates","N","2020","EE","Estonia",5.000000000,""
"Antimicrobial resistance","Acinetobacter spp.|Combined resistance (fluoroquinolones, aminoglycosides and carbapenems)","Total tested isolates","N","2020","EL","Greece",715.000000000,""
"Antimicrobial resistance","Acinetobacter spp.|Combined resistance (fluoroquinolones, aminoglycosides and carbapenems)","Total tested isolates","N","2020","ES","Spain",91.000000000,""
"Antimicrobial resistance","Acinetobacter spp.|Combined resistance (fluoroquinolones, aminoglycosides and carbapenems)","Total tested isolates","N","2020","FI","Finland",36.000000000,""
"Antimicrobial resistance","Acinetobacter spp.|Combined resistance (fluoroquinolones, aminoglycosides and carbapenems)","Total tested isolates","N","2020","FR","France",628.000000000,""
"Antimicrobial resistance","Acinetobacter spp.|Combined resistance (fluoroquinolones, aminoglycosides and carbapenems)","Total tested isolates","N","2020","HR","Croatia",224.000000000,""
"Antimicrobial resistance","Acinetobacter spp.|Combined resistance (fluoroquinolones, aminoglycosides and carbapenems)","Total tested isolates","N","2020","HU","Hungary",529.000000000,""
"Antimicrobial resistance","Acinetobacter spp.|Combined resistance (fluoroquinolones, aminoglycosides and carbapenems)","Total tested isolates","N","2020","IE","Ireland",31.000000000,""
"Antimicrobial resistance","Acinetobacter spp.|Combined resistance (fluoroquinolones, aminoglycosides and carbapenems)","Total tested isolates","N","2020","IS","Iceland",3.000000000,""
"Antimicrobial resistance","Acinetobacter spp.|Combined resistance (fluoroquinolones, aminoglycosides and carbapenems)","Total tested isolates","N","2020","IT","Italy",2451.000000000,""
"Antimicrobial resistance","Acinetobacter spp.|Combined resistance (fluoroquinolones, aminoglycosides and carbapenems)","Total tested isolates","N","2020","LT","Lithuania",150.000000000,""
"Antimicrobial resistance","Acinetobacter spp.|Combined resistance (fluoroquinolones, aminoglycosides and carbapenems)","Total tested isolates","N","2020","LU","Luxembourg",7.000000000,""
"Antimicrobial resistance","Acinetobacter spp.|Combined resistance (fluoroquinolones, aminoglycosides and carbapenems)","Total tested isolates","N","2020","LV","Latvia",50.000000000,""
"Antimicrobial resistance","Acinetobacter spp.|Combined resistance (fluoroquinolones, aminoglycosides and carbapenems)","Total tested isolates","N","2020","MT","Malta",7.000000000,""
"Antimicrobial resistance","Acinetobacter spp.|Combined resistance (fluoroquinolones, aminoglycosides and carbapenems)","Total tested isolates","N","2020","NL","Netherlands",139.000000000,""
"Antimicrobial resistance","Acinetobacter spp.|Combined resistance (fluoroquinolones, aminoglycosides and carbapenems)","Total tested isolates","N","2020","NO","Norway",30.000000000,""
"Antimicrobial resistance","Acinetobacter spp.|Combined resistance (fluoroquinolones, aminoglycosides and carbapenems)","Total tested isolates","N","2020","PL","Poland",355.000000000,""
"Antimicrobial resistance","Acinetobacter spp.|Combined resistance (fluoroquinolones, aminoglycosides and carbapenems)","Total tested isolates","N","2020","PT","Portugal",101.000000000,""
"Antimicrobial resistance","Acinetobacter spp.|Combined resistance (fluoroquinolones, aminoglycosides and carbapenems)","Total tested isolates","N","2020","RO","Romania",251.000000000,""
"Antimicrobial resistance","Acinetobacter spp.|Combined resistance (fluoroquinolones, aminoglycosides and carbapenems)","Total tested isolates","N","2020","SE","Sweden",125.000000000,""
"Antimicrobial resistance","Acinetobacter spp.|Combined resistance (fluoroquinolones, aminoglycosides and carbapenems)","Total tested isolates","N","2020","SI","Slovenia",36.000000000,""
"Antimicrobial resistance","Acinetobacter spp.|Combined resistance (fluoroquinolones, aminoglycosides and carbapenems)","Total tested isolates","N","2020","SK","Slovakia",91.000000000,""
