"HealthTopic","Population","Indicator","Unit","Time","RegionCode","RegionName","NumValue","TxtValue"
"Antimicrobial resistance","Escherichia coli|Aminoglycosides","Total tested isolates","N","2000","AT","Austria",0.000000000,""
"Antimicrobial resistance","Escherichia coli|Aminoglycosides","Total tested isolates","N","2000","BE","Belgium",0.000000000,""
"Antimicrobial resistance","Escherichia coli|Aminoglycosides","Total tested isolates","N","2000","DE","Germany",180.000000000,""
"Antimicrobial resistance","Escherichia coli|Aminoglycosides","Total tested isolates","N","2000","DK","Denmark",0.000000000,""
"Antimicrobial resistance","Escherichia coli|Aminoglycosides","Total tested isolates","N","2000","EE","Estonia",1.000000000,""
"Antimicrobial resistance","Escherichia coli|Aminoglycosides","Total tested isolates","N","2000","EL","Greece",358.000000000,""
"Antimicrobial resistance","Escherichia coli|Aminoglycosides","Total tested isolates","N","2000","ES","Spain",0.000000000,""
"Antimicrobial resistance","Escherichia coli|Aminoglycosides","Total tested isolates","N","2000","FI","Finland",0.000000000,""
"Antimicrobial resistance","Escherichia coli|Aminoglycosides","Total tested isolates","N","2000","IE","Ireland",0.000000000,""
"Antimicrobial resistance","Escherichia coli|Aminoglycosides","Total tested isolates","N","2000","IS","Iceland",0.000000000,""
"Antimicrobial resistance","Escherichia coli|Aminoglycosides","Total tested isolates","N","2000","IT","Italy",0.000000000,""
"Antimicrobial resistance","Escherichia coli|Aminoglycosides","Total tested isolates","N","2000","LU","Luxembourg",0.000000000,""
"Antimicrobial resistance","Escherichia coli|Aminoglycosides","Total tested isolates","N","2000","NL","Netherlands",1242.000000000,""
"Antimicrobial resistance","Escherichia coli|Aminoglycosides","Total tested isolates","N","2000","NO","Norway",710.000000000,""
"Antimicrobial resistance","Escherichia coli|Aminoglycosides","Total tested isolates","N","2000","PT","Portugal",0.000000000,""
"Antimicrobial resistance","Escherichia coli|Aminoglycosides","Total tested isolates","N","2000","SE","Sweden",0.000000000,""
"Antimicrobial resistance","Escherichia coli|Aminoglycosides","Total tested isolates","N","2000","UK","United Kingdom",0.000000000,""
"Antimicrobial resistance","Escherichia coli|Aminoglycosides","Total tested isolates","N","2001","AT","Austria",260.000000000,""
"Antimicrobial resistance","Escherichia coli|Aminoglycosides","Total tested isolates","N","2001","BE","Belgium",141.000000000,""
"Antimicrobial resistance","Escherichia coli|Aminoglycosides","Total tested isolates","N","2001","BG","Bulgaria",95.000000000,""
"Antimicrobial resistance","Escherichia coli|Aminoglycosides","Total tested isolates","N","2001","CZ","Czechia",1176.000000000,""
"Antimicrobial resistance","Escherichia coli|Aminoglycosides","Total tested isolates","N","2001","DE","Germany",1255.000000000,""
"Antimicrobial resistance","Escherichia coli|Aminoglycosides","Total tested isolates","N","2001","DK","Denmark",0.000000000,""
"Antimicrobial resistance","Escherichia coli|Aminoglycosides","Total tested isolates","N","2001","EE","Estonia",51.000000000,""
"Antimicrobial resistance","Escherichia coli|Aminoglycosides","Total tested isolates","N","2001","EL","Greece",569.000000000,""
"Antimicrobial resistance","Escherichia coli|Aminoglycosides","Total tested isolates","N","2001","ES","Spain",1655.000000000,""
"Antimicrobial resistance","Escherichia coli|Aminoglycosides","Total tested isolates","N","2001","FI","Finland",1121.000000000,""
"Antimicrobial resistance","Escherichia coli|Aminoglycosides","Total tested isolates","N","2001","FR","France",0.000000000,""
"Antimicrobial resistance","Escherichia coli|Aminoglycosides","Total tested isolates","N","2001","HR","Croatia",182.000000000,""
"Antimicrobial resistance","Escherichia coli|Aminoglycosides","Total tested isolates","N","2001","HU","Hungary",244.000000000,""
"Antimicrobial resistance","Escherichia coli|Aminoglycosides","Total tested isolates","N","2001","IE","Ireland",0.000000000,""
"Antimicrobial resistance","Escherichia coli|Aminoglycosides","Total tested isolates","N","2001","IS","Iceland",85.000000000,""
"Antimicrobial resistance","Escherichia coli|Aminoglycosides","Total tested isolates","N","2001","IT","Italy",0.000000000,""
"Antimicrobial resistance","Escherichia coli|Aminoglycosides","Total tested isolates","N","2001","LU","Luxembourg",193.000000000,""
"Antimicrobial resistance","Escherichia coli|Aminoglycosides","Total tested isolates","N","2001","MT","Malta",65.000000000,""
"Antimicrobial resistance","Escherichia coli|Aminoglycosides","Total tested isolates","N","2001","NL","Netherlands",1790.000000000,""
"Antimicrobial resistance","Escherichia coli|Aminoglycosides","Total tested isolates","N","2001","NO","Norway",793.000000000,""
"Antimicrobial resistance","Escherichia coli|Aminoglycosides","Total tested isolates","N","2001","PL","Poland",100.000000000,""
"Antimicrobial resistance","Escherichia coli|Aminoglycosides","Total tested isolates","N","2001","PT","Portugal",418.000000000,""
"Antimicrobial resistance","Escherichia coli|Aminoglycosides","Total tested isolates","N","2001","SE","Sweden",1239.000000000,""
"Antimicrobial resistance","Escherichia coli|Aminoglycosides","Total tested isolates","N","2001","SI","Slovenia",398.000000000,""
"Antimicrobial resistance","Escherichia coli|Aminoglycosides","Total tested isolates","N","2001","SK","Slovakia",45.000000000,""
"Antimicrobial resistance","Escherichia coli|Aminoglycosides","Total tested isolates","N","2001","UK","United Kingdom",1355.000000000,""
"Antimicrobial resistance","Escherichia coli|Aminoglycosides","Total tested isolates","N","2002","AT","Austria",475.000000000,""
"Antimicrobial resistance","Escherichia coli|Aminoglycosides","Total tested isolates","N","2002","BE","Belgium",846.000000000,""
"Antimicrobial resistance","Escherichia coli|Aminoglycosides","Total tested isolates","N","2002","BG","Bulgaria",132.000000000,""
"Antimicrobial resistance","Escherichia coli|Aminoglycosides","Total tested isolates","N","2002","CZ","Czechia",1587.000000000,""
"Antimicrobial resistance","Escherichia coli|Aminoglycosides","Total tested isolates","N","2002","DE","Germany",1065.000000000,""
"Antimicrobial resistance","Escherichia coli|Aminoglycosides","Total tested isolates","N","2002","DK","Denmark",0.000000000,""
"Antimicrobial resistance","Escherichia coli|Aminoglycosides","Total tested isolates","N","2002","EE","Estonia",67.000000000,""
"Antimicrobial resistance","Escherichia coli|Aminoglycosides","Total tested isolates","N","2002","EL","Greece",553.000000000,""
"Antimicrobial resistance","Escherichia coli|Aminoglycosides","Total tested isolates","N","2002","ES","Spain",2475.000000000,""
"Antimicrobial resistance","Escherichia coli|Aminoglycosides","Total tested isolates","N","2002","FI","Finland",1194.000000000,""
"Antimicrobial resistance","Escherichia coli|Aminoglycosides","Total tested isolates","N","2002","FR","France",2495.000000000,""
"Antimicrobial resistance","Escherichia coli|Aminoglycosides","Total tested isolates","N","2002","HR","Croatia",490.000000000,""
"Antimicrobial resistance","Escherichia coli|Aminoglycosides","Total tested isolates","N","2002","HU","Hungary",346.000000000,""
"Antimicrobial resistance","Escherichia coli|Aminoglycosides","Total tested isolates","N","2002","IE","Ireland",726.000000000,""
"Antimicrobial resistance","Escherichia coli|Aminoglycosides","Total tested isolates","N","2002","IS","Iceland",82.000000000,""
"Antimicrobial resistance","Escherichia coli|Aminoglycosides","Total tested isolates","N","2002","IT","Italy",611.000000000,""
"Antimicrobial resistance","Escherichia coli|Aminoglycosides","Total tested isolates","N","2002","LU","Luxembourg",193.000000000,""
"Antimicrobial resistance","Escherichia coli|Aminoglycosides","Total tested isolates","N","2002","MT","Malta",74.000000000,""
"Antimicrobial resistance","Escherichia coli|Aminoglycosides","Total tested isolates","N","2002","NL","Netherlands",2367.000000000,""
"Antimicrobial resistance","Escherichia coli|Aminoglycosides","Total tested isolates","N","2002","NO","Norway",990.000000000,""
"Antimicrobial resistance","Escherichia coli|Aminoglycosides","Total tested isolates","N","2002","PL","Poland",133.000000000,""
"Antimicrobial resistance","Escherichia coli|Aminoglycosides","Total tested isolates","N","2002","PT","Portugal",444.000000000,""
"Antimicrobial resistance","Escherichia coli|Aminoglycosides","Total tested isolates","N","2002","RO","Romania",25.000000000,""
"Antimicrobial resistance","Escherichia coli|Aminoglycosides","Total tested isolates","N","2002","SE","Sweden",1581.000000000,""
"Antimicrobial resistance","Escherichia coli|Aminoglycosides","Total tested isolates","N","2002","SI","Slovenia",409.000000000,""
"Antimicrobial resistance","Escherichia coli|Aminoglycosides","Total tested isolates","N","2002","SK","Slovakia",215.000000000,""
"Antimicrobial resistance","Escherichia coli|Aminoglycosides","Total tested isolates","N","2002","UK","United Kingdom",1906.000000000,""
"Antimicrobial resistance","Escherichia coli|Aminoglycosides","Total tested isolates","N","2003","AT","Austria",982.000000000,""
"Antimicrobial resistance","Escherichia coli|Aminoglycosides","Total tested isolates","N","2003","BE","Belgium",1093.000000000,""
"Antimicrobial resistance","Escherichia coli|Aminoglycosides","Total tested isolates","N","2003","BG","Bulgaria",158.000000000,""
"Antimicrobial resistance","Escherichia coli|Aminoglycosides","Total tested isolates","N","2003","CY","Cyprus",19.000000000,""
"Antimicrobial resistance","Escherichia coli|Aminoglycosides","Total tested isolates","N","2003","CZ","Czechia",1765.000000000,""
"Antimicrobial resistance","Escherichia coli|Aminoglycosides","Total tested isolates","N","2003","DE","Germany",990.000000000,""
"Antimicrobial resistance","Escherichia coli|Aminoglycosides","Total tested isolates","N","2003","DK","Denmark",0.000000000,""
"Antimicrobial resistance","Escherichia coli|Aminoglycosides","Total tested isolates","N","2003","EE","Estonia",98.000000000,""
"Antimicrobial resistance","Escherichia coli|Aminoglycosides","Total tested isolates","N","2003","EL","Greece",1054.000000000,""
"Antimicrobial resistance","Escherichia coli|Aminoglycosides","Total tested isolates","N","2003","ES","Spain",2639.000000000,""
"Antimicrobial resistance","Escherichia coli|Aminoglycosides","Total tested isolates","N","2003","FI","Finland",1218.000000000,""
"Antimicrobial resistance","Escherichia coli|Aminoglycosides","Total tested isolates","N","2003","FR","France",2265.000000000,""
"Antimicrobial resistance","Escherichia coli|Aminoglycosides","Total tested isolates","N","2003","HR","Croatia",570.000000000,""
"Antimicrobial resistance","Escherichia coli|Aminoglycosides","Total tested isolates","N","2003","HU","Hungary",839.000000000,""
"Antimicrobial resistance","Escherichia coli|Aminoglycosides","Total tested isolates","N","2003","IE","Ireland",968.000000000,""
"Antimicrobial resistance","Escherichia coli|Aminoglycosides","Total tested isolates","N","2003","IS","Iceland",98.000000000,""
"Antimicrobial resistance","Escherichia coli|Aminoglycosides","Total tested isolates","N","2003","IT","Italy",923.000000000,""
"Antimicrobial resistance","Escherichia coli|Aminoglycosides","Total tested isolates","N","2003","LU","Luxembourg",227.000000000,""
"Antimicrobial resistance","Escherichia coli|Aminoglycosides","Total tested isolates","N","2003","MT","Malta",91.000000000,""
"Antimicrobial resistance","Escherichia coli|Aminoglycosides","Total tested isolates","N","2003","NL","Netherlands",2099.000000000,""
"Antimicrobial resistance","Escherichia coli|Aminoglycosides","Total tested isolates","N","2003","NO","Norway",1120.000000000,""
"Antimicrobial resistance","Escherichia coli|Aminoglycosides","Total tested isolates","N","2003","PL","Poland",123.000000000,""
"Antimicrobial resistance","Escherichia coli|Aminoglycosides","Total tested isolates","N","2003","PT","Portugal",792.000000000,""
"Antimicrobial resistance","Escherichia coli|Aminoglycosides","Total tested isolates","N","2003","RO","Romania",48.000000000,""
"Antimicrobial resistance","Escherichia coli|Aminoglycosides","Total tested isolates","N","2003","SE","Sweden",2819.000000000,""
"Antimicrobial resistance","Escherichia coli|Aminoglycosides","Total tested isolates","N","2003","SI","Slovenia",401.000000000,""
"Antimicrobial resistance","Escherichia coli|Aminoglycosides","Total tested isolates","N","2003","SK","Slovakia",237.000000000,""
"Antimicrobial resistance","Escherichia coli|Aminoglycosides","Total tested isolates","N","2003","UK","United Kingdom",2195.000000000,""
"Antimicrobial resistance","Escherichia coli|Aminoglycosides","Total tested isolates","N","2004","AT","Austria",1834.000000000,""
"Antimicrobial resistance","Escherichia coli|Aminoglycosides","Total tested isolates","N","2004","BE","Belgium",1256.000000000,""
"Antimicrobial resistance","Escherichia coli|Aminoglycosides","Total tested isolates","N","2004","BG","Bulgaria",160.000000000,""
"Antimicrobial resistance","Escherichia coli|Aminoglycosides","Total tested isolates","N","2004","CY","Cyprus",46.000000000,""
"Antimicrobial resistance","Escherichia coli|Aminoglycosides","Total tested isolates","N","2004","CZ","Czechia",1966.000000000,""
"Antimicrobial resistance","Escherichia coli|Aminoglycosides","Total tested isolates","N","2004","DE","Germany",1214.000000000,""
"Antimicrobial resistance","Escherichia coli|Aminoglycosides","Total tested isolates","N","2004","DK","Denmark",0.000000000,""
"Antimicrobial resistance","Escherichia coli|Aminoglycosides","Total tested isolates","N","2004","EE","Estonia",166.000000000,""
"Antimicrobial resistance","Escherichia coli|Aminoglycosides","Total tested isolates","N","2004","EL","Greece",1128.000000000,""
"Antimicrobial resistance","Escherichia coli|Aminoglycosides","Total tested isolates","N","2004","ES","Spain",3463.000000000,""
"Antimicrobial resistance","Escherichia coli|Aminoglycosides","Total tested isolates","N","2004","FI","Finland",1599.000000000,""
"Antimicrobial resistance","Escherichia coli|Aminoglycosides","Total tested isolates","N","2004","FR","France",5385.000000000,""
"Antimicrobial resistance","Escherichia coli|Aminoglycosides","Total tested isolates","N","2004","HR","Croatia",535.000000000,""
"Antimicrobial resistance","Escherichia coli|Aminoglycosides","Total tested isolates","N","2004","HU","Hungary",966.000000000,""
"Antimicrobial resistance","Escherichia coli|Aminoglycosides","Total tested isolates","N","2004","IE","Ireland",1214.000000000,""
"Antimicrobial resistance","Escherichia coli|Aminoglycosides","Total tested isolates","N","2004","IS","Iceland",118.000000000,""
"Antimicrobial resistance","Escherichia coli|Aminoglycosides","Total tested isolates","N","2004","IT","Italy",641.000000000,""
"Antimicrobial resistance","Escherichia coli|Aminoglycosides","Total tested isolates","N","2004","LU","Luxembourg",216.000000000,""
"Antimicrobial resistance","Escherichia coli|Aminoglycosides","Total tested isolates","N","2004","MT","Malta",91.000000000,""
"Antimicrobial resistance","Escherichia coli|Aminoglycosides","Total tested isolates","N","2004","NL","Netherlands",1944.000000000,""
"Antimicrobial resistance","Escherichia coli|Aminoglycosides","Total tested isolates","N","2004","NO","Norway",1189.000000000,""
"Antimicrobial resistance","Escherichia coli|Aminoglycosides","Total tested isolates","N","2004","PL","Poland",191.000000000,""
"Antimicrobial resistance","Escherichia coli|Aminoglycosides","Total tested isolates","N","2004","PT","Portugal",759.000000000,""
"Antimicrobial resistance","Escherichia coli|Aminoglycosides","Total tested isolates","N","2004","RO","Romania",44.000000000,""
"Antimicrobial resistance","Escherichia coli|Aminoglycosides","Total tested isolates","N","2004","SE","Sweden",3314.000000000,""
"Antimicrobial resistance","Escherichia coli|Aminoglycosides","Total tested isolates","N","2004","SI","Slovenia",573.000000000,""
"Antimicrobial resistance","Escherichia coli|Aminoglycosides","Total tested isolates","N","2004","SK","Slovakia",280.000000000,""
"Antimicrobial resistance","Escherichia coli|Aminoglycosides","Total tested isolates","N","2004","UK","United Kingdom",1985.000000000,""
"Antimicrobial resistance","Escherichia coli|Aminoglycosides","Total tested isolates","N","2005","AT","Austria",2048.000000000,""
"Antimicrobial resistance","Escherichia coli|Aminoglycosides","Total tested isolates","N","2005","BE","Belgium",1274.000000000,""
"Antimicrobial resistance","Escherichia coli|Aminoglycosides","Total tested isolates","N","2005","BG","Bulgaria",188.000000000,""
"Antimicrobial resistance","Escherichia coli|Aminoglycosides","Total tested isolates","N","2005","CY","Cyprus",75.000000000,""
"Antimicrobial resistance","Escherichia coli|Aminoglycosides","Total tested isolates","N","2005","CZ","Czechia",2234.000000000,""
"Antimicrobial resistance","Escherichia coli|Aminoglycosides","Total tested isolates","N","2005","DE","Germany",959.000000000,""
"Antimicrobial resistance","Escherichia coli|Aminoglycosides","Total tested isolates","N","2005","DK","Denmark",1283.000000000,""
"Antimicrobial resistance","Escherichia coli|Aminoglycosides","Total tested isolates","N","2005","EE","Estonia",154.000000000,""
"Antimicrobial resistance","Escherichia coli|Aminoglycosides","Total tested isolates","N","2005","EL","Greece",1139.000000000,""
"Antimicrobial resistance","Escherichia coli|Aminoglycosides","Total tested isolates","N","2005","ES","Spain",2991.000000000,""
"Antimicrobial resistance","Escherichia coli|Aminoglycosides","Total tested isolates","N","2005","FI","Finland",1760.000000000,""
"Antimicrobial resistance","Escherichia coli|Aminoglycosides","Total tested isolates","N","2005","FR","France",6056.000000000,""
"Antimicrobial resistance","Escherichia coli|Aminoglycosides","Total tested isolates","N","2005","HR","Croatia",637.000000000,""
"Antimicrobial resistance","Escherichia coli|Aminoglycosides","Total tested isolates","N","2005","HU","Hungary",1039.000000000,""
"Antimicrobial resistance","Escherichia coli|Aminoglycosides","Total tested isolates","N","2005","IE","Ireland",1409.000000000,""
"Antimicrobial resistance","Escherichia coli|Aminoglycosides","Total tested isolates","N","2005","IS","Iceland",130.000000000,""
"Antimicrobial resistance","Escherichia coli|Aminoglycosides","Total tested isolates","N","2005","IT","Italy",1089.000000000,""
"Antimicrobial resistance","Escherichia coli|Aminoglycosides","Total tested isolates","N","2005","LU","Luxembourg",188.000000000,""
"Antimicrobial resistance","Escherichia coli|Aminoglycosides","Total tested isolates","N","2005","LV","Latvia",0.000000000,""
"Antimicrobial resistance","Escherichia coli|Aminoglycosides","Total tested isolates","N","2005","MT","Malta",85.000000000,""
"Antimicrobial resistance","Escherichia coli|Aminoglycosides","Total tested isolates","N","2005","NL","Netherlands",2193.000000000,""
"Antimicrobial resistance","Escherichia coli|Aminoglycosides","Total tested isolates","N","2005","NO","Norway",1329.000000000,""
"Antimicrobial resistance","Escherichia coli|Aminoglycosides","Total tested isolates","N","2005","PL","Poland",175.000000000,""
"Antimicrobial resistance","Escherichia coli|Aminoglycosides","Total tested isolates","N","2005","PT","Portugal",1170.000000000,""
"Antimicrobial resistance","Escherichia coli|Aminoglycosides","Total tested isolates","N","2005","RO","Romania",81.000000000,""
"Antimicrobial resistance","Escherichia coli|Aminoglycosides","Total tested isolates","N","2005","SE","Sweden",3190.000000000,""
"Antimicrobial resistance","Escherichia coli|Aminoglycosides","Total tested isolates","N","2005","SI","Slovenia",657.000000000,""
"Antimicrobial resistance","Escherichia coli|Aminoglycosides","Total tested isolates","N","2005","SK","Slovakia",97.000000000,""
"Antimicrobial resistance","Escherichia coli|Aminoglycosides","Total tested isolates","N","2005","UK","United Kingdom",2052.000000000,""
"Antimicrobial resistance","Escherichia coli|Aminoglycosides","Total tested isolates","N","2006","AT","Austria",2472.000000000,""
"Antimicrobial resistance","Escherichia coli|Aminoglycosides","Total tested isolates","N","2006","BE","Belgium",1112.000000000,""
"Antimicrobial resistance","Escherichia coli|Aminoglycosides","Total tested isolates","N","2006","BG","Bulgaria",188.000000000,""
"Antimicrobial resistance","Escherichia coli|Aminoglycosides","Total tested isolates","N","2006","CY","Cyprus",90.000000000,""
"Antimicrobial resistance","Escherichia coli|Aminoglycosides","Total tested isolates","N","2006","CZ","Czechia",2153.000000000,""
"Antimicrobial resistance","Escherichia coli|Aminoglycosides","Total tested isolates","N","2006","DE","Germany",850.000000000,""
"Antimicrobial resistance","Escherichia coli|Aminoglycosides","Total tested isolates","N","2006","DK","Denmark",2721.000000000,""
"Antimicrobial resistance","Escherichia coli|Aminoglycosides","Total tested isolates","N","2006","EE","Estonia",213.000000000,""
"Antimicrobial resistance","Escherichia coli|Aminoglycosides","Total tested isolates","N","2006","EL","Greece",1249.000000000,""
"Antimicrobial resistance","Escherichia coli|Aminoglycosides","Total tested isolates","N","2006","ES","Spain",3361.000000000,""
"Antimicrobial resistance","Escherichia coli|Aminoglycosides","Total tested isolates","N","2006","FI","Finland",1794.000000000,""
"Antimicrobial resistance","Escherichia coli|Aminoglycosides","Total tested isolates","N","2006","FR","France",6712.000000000,""
"Antimicrobial resistance","Escherichia coli|Aminoglycosides","Total tested isolates","N","2006","HR","Croatia",777.000000000,""
"Antimicrobial resistance","Escherichia coli|Aminoglycosides","Total tested isolates","N","2006","HU","Hungary",1125.000000000,""
"Antimicrobial resistance","Escherichia coli|Aminoglycosides","Total tested isolates","N","2006","IE","Ireland",1631.000000000,""
"Antimicrobial resistance","Escherichia coli|Aminoglycosides","Total tested isolates","N","2006","IS","Iceland",130.000000000,""
"Antimicrobial resistance","Escherichia coli|Aminoglycosides","Total tested isolates","N","2006","IT","Italy",853.000000000,""
"Antimicrobial resistance","Escherichia coli|Aminoglycosides","Total tested isolates","N","2006","LT","Lithuania",171.000000000,""
"Antimicrobial resistance","Escherichia coli|Aminoglycosides","Total tested isolates","N","2006","LU","Luxembourg",167.000000000,""
"Antimicrobial resistance","Escherichia coli|Aminoglycosides","Total tested isolates","N","2006","LV","Latvia",62.000000000,""
"Antimicrobial resistance","Escherichia coli|Aminoglycosides","Total tested isolates","N","2006","MT","Malta",94.000000000,""
"Antimicrobial resistance","Escherichia coli|Aminoglycosides","Total tested isolates","N","2006","NL","Netherlands",2838.000000000,""
"Antimicrobial resistance","Escherichia coli|Aminoglycosides","Total tested isolates","N","2006","NO","Norway",1570.000000000,""
"Antimicrobial resistance","Escherichia coli|Aminoglycosides","Total tested isolates","N","2006","PL","Poland",205.000000000,""
"Antimicrobial resistance","Escherichia coli|Aminoglycosides","Total tested isolates","N","2006","PT","Portugal",1330.000000000,""
"Antimicrobial resistance","Escherichia coli|Aminoglycosides","Total tested isolates","N","2006","RO","Romania",40.000000000,""
"Antimicrobial resistance","Escherichia coli|Aminoglycosides","Total tested isolates","N","2006","SE","Sweden",3521.000000000,""
"Antimicrobial resistance","Escherichia coli|Aminoglycosides","Total tested isolates","N","2006","SI","Slovenia",717.000000000,""
"Antimicrobial resistance","Escherichia coli|Aminoglycosides","Total tested isolates","N","2006","SK","Slovakia",0.000000000,""
"Antimicrobial resistance","Escherichia coli|Aminoglycosides","Total tested isolates","N","2006","UK","United Kingdom",2076.000000000,""
"Antimicrobial resistance","Escherichia coli|Aminoglycosides","Total tested isolates","N","2007","AT","Austria",2539.000000000,""
"Antimicrobial resistance","Escherichia coli|Aminoglycosides","Total tested isolates","N","2007","BE","Belgium",1091.000000000,""
"Antimicrobial resistance","Escherichia coli|Aminoglycosides","Total tested isolates","N","2007","BG","Bulgaria",125.000000000,""
"Antimicrobial resistance","Escherichia coli|Aminoglycosides","Total tested isolates","N","2007","CY","Cyprus",109.000000000,""
"Antimicrobial resistance","Escherichia coli|Aminoglycosides","Total tested isolates","N","2007","CZ","Czechia",2407.000000000,""
"Antimicrobial resistance","Escherichia coli|Aminoglycosides","Total tested isolates","N","2007","DE","Germany",972.000000000,""
"Antimicrobial resistance","Escherichia coli|Aminoglycosides","Total tested isolates","N","2007","DK","Denmark",3019.000000000,""
"Antimicrobial resistance","Escherichia coli|Aminoglycosides","Total tested isolates","N","2007","EE","Estonia",215.000000000,""
"Antimicrobial resistance","Escherichia coli|Aminoglycosides","Total tested isolates","N","2007","EL","Greece",1232.000000000,""
"Antimicrobial resistance","Escherichia coli|Aminoglycosides","Total tested isolates","N","2007","ES","Spain",3678.000000000,""
"Antimicrobial resistance","Escherichia coli|Aminoglycosides","Total tested isolates","N","2007","FI","Finland",1859.000000000,""
"Antimicrobial resistance","Escherichia coli|Aminoglycosides","Total tested isolates","N","2007","FR","France",8078.000000000,""
"Antimicrobial resistance","Escherichia coli|Aminoglycosides","Total tested isolates","N","2007","HR","Croatia",860.000000000,""
"Antimicrobial resistance","Escherichia coli|Aminoglycosides","Total tested isolates","N","2007","HU","Hungary",1174.000000000,""
"Antimicrobial resistance","Escherichia coli|Aminoglycosides","Total tested isolates","N","2007","IE","Ireland",1743.000000000,""
"Antimicrobial resistance","Escherichia coli|Aminoglycosides","Total tested isolates","N","2007","IS","Iceland",105.000000000,""
"Antimicrobial resistance","Escherichia coli|Aminoglycosides","Total tested isolates","N","2007","IT","Italy",977.000000000,""
"Antimicrobial resistance","Escherichia coli|Aminoglycosides","Total tested isolates","N","2007","LT","Lithuania",235.000000000,""
"Antimicrobial resistance","Escherichia coli|Aminoglycosides","Total tested isolates","N","2007","LU","Luxembourg",272.000000000,""
"Antimicrobial resistance","Escherichia coli|Aminoglycosides","Total tested isolates","N","2007","LV","Latvia",76.000000000,""
"Antimicrobial resistance","Escherichia coli|Aminoglycosides","Total tested isolates","N","2007","MT","Malta",117.000000000,""
"Antimicrobial resistance","Escherichia coli|Aminoglycosides","Total tested isolates","N","2007","NL","Netherlands",2724.000000000,""
"Antimicrobial resistance","Escherichia coli|Aminoglycosides","Total tested isolates","N","2007","NO","Norway",1711.000000000,""
"Antimicrobial resistance","Escherichia coli|Aminoglycosides","Total tested isolates","N","2007","PL","Poland",256.000000000,""
"Antimicrobial resistance","Escherichia coli|Aminoglycosides","Total tested isolates","N","2007","PT","Portugal",1429.000000000,""
"Antimicrobial resistance","Escherichia coli|Aminoglycosides","Total tested isolates","N","2007","RO","Romania",61.000000000,""
"Antimicrobial resistance","Escherichia coli|Aminoglycosides","Total tested isolates","N","2007","SE","Sweden",3743.000000000,""
"Antimicrobial resistance","Escherichia coli|Aminoglycosides","Total tested isolates","N","2007","SI","Slovenia",851.000000000,""
"Antimicrobial resistance","Escherichia coli|Aminoglycosides","Total tested isolates","N","2007","SK","Slovakia",0.000000000,""
"Antimicrobial resistance","Escherichia coli|Aminoglycosides","Total tested isolates","N","2007","UK","United Kingdom",2035.000000000,""
"Antimicrobial resistance","Escherichia coli|Aminoglycosides","Total tested isolates","N","2008","AT","Austria",2982.000000000,""
"Antimicrobial resistance","Escherichia coli|Aminoglycosides","Total tested isolates","N","2008","BE","Belgium",1011.000000000,""
"Antimicrobial resistance","Escherichia coli|Aminoglycosides","Total tested isolates","N","2008","BG","Bulgaria",147.000000000,""
"Antimicrobial resistance","Escherichia coli|Aminoglycosides","Total tested isolates","N","2008","CY","Cyprus",119.000000000,""
"Antimicrobial resistance","Escherichia coli|Aminoglycosides","Total tested isolates","N","2008","CZ","Czechia",2738.000000000,""
"Antimicrobial resistance","Escherichia coli|Aminoglycosides","Total tested isolates","N","2008","DE","Germany",1615.000000000,""
"Antimicrobial resistance","Escherichia coli|Aminoglycosides","Total tested isolates","N","2008","DK","Denmark",3278.000000000,""
"Antimicrobial resistance","Escherichia coli|Aminoglycosides","Total tested isolates","N","2008","EE","Estonia",262.000000000,""
"Antimicrobial resistance","Escherichia coli|Aminoglycosides","Total tested isolates","N","2008","EL","Greece",1451.000000000,""
"Antimicrobial resistance","Escherichia coli|Aminoglycosides","Total tested isolates","N","2008","ES","Spain",3621.000000000,""
"Antimicrobial resistance","Escherichia coli|Aminoglycosides","Total tested isolates","N","2008","FI","Finland",2056.000000000,""
"Antimicrobial resistance","Escherichia coli|Aminoglycosides","Total tested isolates","N","2008","FR","France",7609.000000000,""
"Antimicrobial resistance","Escherichia coli|Aminoglycosides","Total tested isolates","N","2008","HR","Croatia",914.000000000,""
"Antimicrobial resistance","Escherichia coli|Aminoglycosides","Total tested isolates","N","2008","HU","Hungary",1052.000000000,""
"Antimicrobial resistance","Escherichia coli|Aminoglycosides","Total tested isolates","N","2008","IE","Ireland",1867.000000000,""
"Antimicrobial resistance","Escherichia coli|Aminoglycosides","Total tested isolates","N","2008","IS","Iceland",123.000000000,""
"Antimicrobial resistance","Escherichia coli|Aminoglycosides","Total tested isolates","N","2008","IT","Italy",937.000000000,""
"Antimicrobial resistance","Escherichia coli|Aminoglycosides","Total tested isolates","N","2008","LT","Lithuania",302.000000000,""
"Antimicrobial resistance","Escherichia coli|Aminoglycosides","Total tested isolates","N","2008","LU","Luxembourg",303.000000000,""
"Antimicrobial resistance","Escherichia coli|Aminoglycosides","Total tested isolates","N","2008","LV","Latvia",90.000000000,""
"Antimicrobial resistance","Escherichia coli|Aminoglycosides","Total tested isolates","N","2008","MT","Malta",128.000000000,""
"Antimicrobial resistance","Escherichia coli|Aminoglycosides","Total tested isolates","N","2008","NL","Netherlands",2280.000000000,""
"Antimicrobial resistance","Escherichia coli|Aminoglycosides","Total tested isolates","N","2008","NO","Norway",1797.000000000,""
"Antimicrobial resistance","Escherichia coli|Aminoglycosides","Total tested isolates","N","2008","PL","Poland",84.000000000,""
"Antimicrobial resistance","Escherichia coli|Aminoglycosides","Total tested isolates","N","2008","PT","Portugal",1624.000000000,""
"Antimicrobial resistance","Escherichia coli|Aminoglycosides","Total tested isolates","N","2008","RO","Romania",51.000000000,""
"Antimicrobial resistance","Escherichia coli|Aminoglycosides","Total tested isolates","N","2008","SE","Sweden",4027.000000000,""
"Antimicrobial resistance","Escherichia coli|Aminoglycosides","Total tested isolates","N","2008","SI","Slovenia",874.000000000,""
"Antimicrobial resistance","Escherichia coli|Aminoglycosides","Total tested isolates","N","2008","SK","Slovakia",0.000000000,""
"Antimicrobial resistance","Escherichia coli|Aminoglycosides","Total tested isolates","N","2008","UK","United Kingdom",1923.000000000,""
"Antimicrobial resistance","Escherichia coli|Aminoglycosides","Total tested isolates","N","2009","AT","Austria",2561.000000000,""
"Antimicrobial resistance","Escherichia coli|Aminoglycosides","Total tested isolates","N","2009","BE","Belgium",1195.000000000,""
"Antimicrobial resistance","Escherichia coli|Aminoglycosides","Total tested isolates","N","2009","BG","Bulgaria",192.000000000,""
"Antimicrobial resistance","Escherichia coli|Aminoglycosides","Total tested isolates","N","2009","CY","Cyprus",136.000000000,""
"Antimicrobial resistance","Escherichia coli|Aminoglycosides","Total tested isolates","N","2009","CZ","Czechia",2739.000000000,""
"Antimicrobial resistance","Escherichia coli|Aminoglycosides","Total tested isolates","N","2009","DE","Germany",2795.000000000,""
"Antimicrobial resistance","Escherichia coli|Aminoglycosides","Total tested isolates","N","2009","DK","Denmark",3530.000000000,""
"Antimicrobial resistance","Escherichia coli|Aminoglycosides","Total tested isolates","N","2009","EE","Estonia",319.000000000,""
"Antimicrobial resistance","Escherichia coli|Aminoglycosides","Total tested isolates","N","2009","EL","Greece",1821.000000000,""
"Antimicrobial resistance","Escherichia coli|Aminoglycosides","Total tested isolates","N","2009","ES","Spain",3818.000000000,""
"Antimicrobial resistance","Escherichia coli|Aminoglycosides","Total tested isolates","N","2009","FI","Finland",2033.000000000,""
"Antimicrobial resistance","Escherichia coli|Aminoglycosides","Total tested isolates","N","2009","FR","France",8448.000000000,""
"Antimicrobial resistance","Escherichia coli|Aminoglycosides","Total tested isolates","N","2009","HU","Hungary",1052.000000000,""
"Antimicrobial resistance","Escherichia coli|Aminoglycosides","Total tested isolates","N","2009","IE","Ireland",2009.000000000,""
"Antimicrobial resistance","Escherichia coli|Aminoglycosides","Total tested isolates","N","2009","IS","Iceland",110.000000000,""
"Antimicrobial resistance","Escherichia coli|Aminoglycosides","Total tested isolates","N","2009","IT","Italy",760.000000000,""
"Antimicrobial resistance","Escherichia coli|Aminoglycosides","Total tested isolates","N","2009","LT","Lithuania",297.000000000,""
"Antimicrobial resistance","Escherichia coli|Aminoglycosides","Total tested isolates","N","2009","LU","Luxembourg",301.000000000,""
"Antimicrobial resistance","Escherichia coli|Aminoglycosides","Total tested isolates","N","2009","LV","Latvia",86.000000000,""
"Antimicrobial resistance","Escherichia coli|Aminoglycosides","Total tested isolates","N","2009","MT","Malta",158.000000000,""
"Antimicrobial resistance","Escherichia coli|Aminoglycosides","Total tested isolates","N","2009","NL","Netherlands",2386.000000000,""
"Antimicrobial resistance","Escherichia coli|Aminoglycosides","Total tested isolates","N","2009","NO","Norway",1841.000000000,""
"Antimicrobial resistance","Escherichia coli|Aminoglycosides","Total tested isolates","N","2009","PL","Poland",555.000000000,""
"Antimicrobial resistance","Escherichia coli|Aminoglycosides","Total tested isolates","N","2009","PT","Portugal",2033.000000000,""
"Antimicrobial resistance","Escherichia coli|Aminoglycosides","Total tested isolates","N","2009","RO","Romania",57.000000000,""
"Antimicrobial resistance","Escherichia coli|Aminoglycosides","Total tested isolates","N","2009","SE","Sweden",1.000000000,""
"Antimicrobial resistance","Escherichia coli|Aminoglycosides","Total tested isolates","N","2009","SI","Slovenia",893.000000000,""
"Antimicrobial resistance","Escherichia coli|Aminoglycosides","Total tested isolates","N","2009","UK","United Kingdom",4311.000000000,""
"Antimicrobial resistance","Escherichia coli|Aminoglycosides","Total tested isolates","N","2010","AT","Austria",2910.000000000,""
"Antimicrobial resistance","Escherichia coli|Aminoglycosides","Total tested isolates","N","2010","BE","Belgium",1584.000000000,""
"Antimicrobial resistance","Escherichia coli|Aminoglycosides","Total tested isolates","N","2010","BG","Bulgaria",150.000000000,""
"Antimicrobial resistance","Escherichia coli|Aminoglycosides","Total tested isolates","N","2010","CY","Cyprus",138.000000000,""
"Antimicrobial resistance","Escherichia coli|Aminoglycosides","Total tested isolates","N","2010","CZ","Czechia",2447.000000000,""
"Antimicrobial resistance","Escherichia coli|Aminoglycosides","Total tested isolates","N","2010","DE","Germany",3021.000000000,""
"Antimicrobial resistance","Escherichia coli|Aminoglycosides","Total tested isolates","N","2010","DK","Denmark",3412.000000000,""
"Antimicrobial resistance","Escherichia coli|Aminoglycosides","Total tested isolates","N","2010","EE","Estonia",265.000000000,""
"Antimicrobial resistance","Escherichia coli|Aminoglycosides","Total tested isolates","N","2010","EL","Greece",1519.000000000,""
"Antimicrobial resistance","Escherichia coli|Aminoglycosides","Total tested isolates","N","2010","ES","Spain",5696.000000000,""
"Antimicrobial resistance","Escherichia coli|Aminoglycosides","Total tested isolates","N","2010","FI","Finland",2356.000000000,""
"Antimicrobial resistance","Escherichia coli|Aminoglycosides","Total tested isolates","N","2010","FR","France",9024.000000000,""
"Antimicrobial resistance","Escherichia coli|Aminoglycosides","Total tested isolates","N","2010","HR","Croatia",879.000000000,""
"Antimicrobial resistance","Escherichia coli|Aminoglycosides","Total tested isolates","N","2010","HU","Hungary",1379.000000000,""
"Antimicrobial resistance","Escherichia coli|Aminoglycosides","Total tested isolates","N","2010","IE","Ireland",2116.000000000,""
"Antimicrobial resistance","Escherichia coli|Aminoglycosides","Total tested isolates","N","2010","IS","Iceland",104.000000000,""
"Antimicrobial resistance","Escherichia coli|Aminoglycosides","Total tested isolates","N","2010","IT","Italy",2432.000000000,""
"Antimicrobial resistance","Escherichia coli|Aminoglycosides","Total tested isolates","N","2010","LT","Lithuania",331.000000000,""
"Antimicrobial resistance","Escherichia coli|Aminoglycosides","Total tested isolates","N","2010","LU","Luxembourg",354.000000000,""
"Antimicrobial resistance","Escherichia coli|Aminoglycosides","Total tested isolates","N","2010","LV","Latvia",97.000000000,""
"Antimicrobial resistance","Escherichia coli|Aminoglycosides","Total tested isolates","N","2010","MT","Malta",192.000000000,""
"Antimicrobial resistance","Escherichia coli|Aminoglycosides","Total tested isolates","N","2010","NL","Netherlands",4865.000000000,""
"Antimicrobial resistance","Escherichia coli|Aminoglycosides","Total tested isolates","N","2010","NO","Norway",2246.000000000,""
"Antimicrobial resistance","Escherichia coli|Aminoglycosides","Total tested isolates","N","2010","PL","Poland",652.000000000,""
"Antimicrobial resistance","Escherichia coli|Aminoglycosides","Total tested isolates","N","2010","PT","Portugal",1979.000000000,""
"Antimicrobial resistance","Escherichia coli|Aminoglycosides","Total tested isolates","N","2010","RO","Romania",33.000000000,""
"Antimicrobial resistance","Escherichia coli|Aminoglycosides","Total tested isolates","N","2010","SE","Sweden",4239.000000000,""
"Antimicrobial resistance","Escherichia coli|Aminoglycosides","Total tested isolates","N","2010","SI","Slovenia",952.000000000,""
"Antimicrobial resistance","Escherichia coli|Aminoglycosides","Total tested isolates","N","2010","UK","United Kingdom",4929.000000000,""
"Antimicrobial resistance","Escherichia coli|Aminoglycosides","Total tested isolates","N","2011","AT","Austria",3137.000000000,""
"Antimicrobial resistance","Escherichia coli|Aminoglycosides","Total tested isolates","N","2011","BE","Belgium",2867.000000000,""
"Antimicrobial resistance","Escherichia coli|Aminoglycosides","Total tested isolates","N","2011","BG","Bulgaria",176.000000000,""
"Antimicrobial resistance","Escherichia coli|Aminoglycosides","Total tested isolates","N","2011","CY","Cyprus",138.000000000,""
"Antimicrobial resistance","Escherichia coli|Aminoglycosides","Total tested isolates","N","2011","CZ","Czechia",2670.000000000,""
"Antimicrobial resistance","Escherichia coli|Aminoglycosides","Total tested isolates","N","2011","DE","Germany",3645.000000000,""
"Antimicrobial resistance","Escherichia coli|Aminoglycosides","Total tested isolates","N","2011","DK","Denmark",3638.000000000,""
"Antimicrobial resistance","Escherichia coli|Aminoglycosides","Total tested isolates","N","2011","EE","Estonia",310.000000000,""
"Antimicrobial resistance","Escherichia coli|Aminoglycosides","Total tested isolates","N","2011","EL","Greece",1434.000000000,""
"Antimicrobial resistance","Escherichia coli|Aminoglycosides","Total tested isolates","N","2011","ES","Spain",5603.000000000,""
"Antimicrobial resistance","Escherichia coli|Aminoglycosides","Total tested isolates","N","2011","FI","Finland",3020.000000000,""
"Antimicrobial resistance","Escherichia coli|Aminoglycosides","Total tested isolates","N","2011","FR","France",8742.000000000,""
"Antimicrobial resistance","Escherichia coli|Aminoglycosides","Total tested isolates","N","2011","HR","Croatia",971.000000000,""
"Antimicrobial resistance","Escherichia coli|Aminoglycosides","Total tested isolates","N","2011","HU","Hungary",1223.000000000,""
"Antimicrobial resistance","Escherichia coli|Aminoglycosides","Total tested isolates","N","2011","IE","Ireland",2155.000000000,""
"Antimicrobial resistance","Escherichia coli|Aminoglycosides","Total tested isolates","N","2011","IS","Iceland",129.000000000,""
"Antimicrobial resistance","Escherichia coli|Aminoglycosides","Total tested isolates","N","2011","IT","Italy",1716.000000000,""
"Antimicrobial resistance","Escherichia coli|Aminoglycosides","Total tested isolates","N","2011","LT","Lithuania",382.000000000,""
"Antimicrobial resistance","Escherichia coli|Aminoglycosides","Total tested isolates","N","2011","LU","Luxembourg",354.000000000,""
"Antimicrobial resistance","Escherichia coli|Aminoglycosides","Total tested isolates","N","2011","LV","Latvia",131.000000000,""
"Antimicrobial resistance","Escherichia coli|Aminoglycosides","Total tested isolates","N","2011","MT","Malta",219.000000000,""
"Antimicrobial resistance","Escherichia coli|Aminoglycosides","Total tested isolates","N","2011","NL","Netherlands",5430.000000000,""
"Antimicrobial resistance","Escherichia coli|Aminoglycosides","Total tested isolates","N","2011","NO","Norway",2470.000000000,""
"Antimicrobial resistance","Escherichia coli|Aminoglycosides","Total tested isolates","N","2011","PL","Poland",1114.000000000,""
"Antimicrobial resistance","Escherichia coli|Aminoglycosides","Total tested isolates","N","2011","PT","Portugal",1962.000000000,""
"Antimicrobial resistance","Escherichia coli|Aminoglycosides","Total tested isolates","N","2011","RO","Romania",50.000000000,""
"Antimicrobial resistance","Escherichia coli|Aminoglycosides","Total tested isolates","N","2011","SE","Sweden",4829.000000000,""
"Antimicrobial resistance","Escherichia coli|Aminoglycosides","Total tested isolates","N","2011","SI","Slovenia",1002.000000000,""
"Antimicrobial resistance","Escherichia coli|Aminoglycosides","Total tested isolates","N","2011","SK","Slovakia",740.000000000,""
"Antimicrobial resistance","Escherichia coli|Aminoglycosides","Total tested isolates","N","2011","UK","United Kingdom",5661.000000000,""
"Antimicrobial resistance","Escherichia coli|Aminoglycosides","Total tested isolates","N","2012","AT","Austria",3702.000000000,""
"Antimicrobial resistance","Escherichia coli|Aminoglycosides","Total tested isolates","N","2012","BE","Belgium",3010.000000000,""
"Antimicrobial resistance","Escherichia coli|Aminoglycosides","Total tested isolates","N","2012","BG","Bulgaria",219.000000000,""
"Antimicrobial resistance","Escherichia coli|Aminoglycosides","Total tested isolates","N","2012","CY","Cyprus",176.000000000,""
"Antimicrobial resistance","Escherichia coli|Aminoglycosides","Total tested isolates","N","2012","CZ","Czechia",2812.000000000,""
"Antimicrobial resistance","Escherichia coli|Aminoglycosides","Total tested isolates","N","2012","DE","Germany",4190.000000000,""
"Antimicrobial resistance","Escherichia coli|Aminoglycosides","Total tested isolates","N","2012","DK","Denmark",3687.000000000,""
"Antimicrobial resistance","Escherichia coli|Aminoglycosides","Total tested isolates","N","2012","EE","Estonia",304.000000000,""
"Antimicrobial resistance","Escherichia coli|Aminoglycosides","Total tested isolates","N","2012","EL","Greece",1372.000000000,""
"Antimicrobial resistance","Escherichia coli|Aminoglycosides","Total tested isolates","N","2012","ES","Spain",5675.000000000,""
"Antimicrobial resistance","Escherichia coli|Aminoglycosides","Total tested isolates","N","2012","FI","Finland",2993.000000000,""
"Antimicrobial resistance","Escherichia coli|Aminoglycosides","Total tested isolates","N","2012","FR","France",5749.000000000,""
"Antimicrobial resistance","Escherichia coli|Aminoglycosides","Total tested isolates","N","2012","HR","Croatia",901.000000000,""
"Antimicrobial resistance","Escherichia coli|Aminoglycosides","Total tested isolates","N","2012","HU","Hungary",1404.000000000,""
"Antimicrobial resistance","Escherichia coli|Aminoglycosides","Total tested isolates","N","2012","IE","Ireland",2375.000000000,""
"Antimicrobial resistance","Escherichia coli|Aminoglycosides","Total tested isolates","N","2012","IS","Iceland",138.000000000,""
"Antimicrobial resistance","Escherichia coli|Aminoglycosides","Total tested isolates","N","2012","IT","Italy",2916.000000000,""
"Antimicrobial resistance","Escherichia coli|Aminoglycosides","Total tested isolates","N","2012","LT","Lithuania",460.000000000,""
"Antimicrobial resistance","Escherichia coli|Aminoglycosides","Total tested isolates","N","2012","LU","Luxembourg",334.000000000,""
"Antimicrobial resistance","Escherichia coli|Aminoglycosides","Total tested isolates","N","2012","LV","Latvia",154.000000000,""
"Antimicrobial resistance","Escherichia coli|Aminoglycosides","Total tested isolates","N","2012","MT","Malta",209.000000000,""
"Antimicrobial resistance","Escherichia coli|Aminoglycosides","Total tested isolates","N","2012","NL","Netherlands",5921.000000000,""
"Antimicrobial resistance","Escherichia coli|Aminoglycosides","Total tested isolates","N","2012","NO","Norway",3023.000000000,""
"Antimicrobial resistance","Escherichia coli|Aminoglycosides","Total tested isolates","N","2012","PL","Poland",1025.000000000,""
"Antimicrobial resistance","Escherichia coli|Aminoglycosides","Total tested isolates","N","2012","PT","Portugal",2154.000000000,""
"Antimicrobial resistance","Escherichia coli|Aminoglycosides","Total tested isolates","N","2012","RO","Romania",185.000000000,""
"Antimicrobial resistance","Escherichia coli|Aminoglycosides","Total tested isolates","N","2012","SE","Sweden",5537.000000000,""
"Antimicrobial resistance","Escherichia coli|Aminoglycosides","Total tested isolates","N","2012","SI","Slovenia",1168.000000000,""
"Antimicrobial resistance","Escherichia coli|Aminoglycosides","Total tested isolates","N","2012","SK","Slovakia",694.000000000,""
"Antimicrobial resistance","Escherichia coli|Aminoglycosides","Total tested isolates","N","2012","UK","United Kingdom",6390.000000000,""
"Antimicrobial resistance","Escherichia coli|Aminoglycosides","Total tested isolates","N","2013","AT","Austria",4367.000000000,""
"Antimicrobial resistance","Escherichia coli|Aminoglycosides","Total tested isolates","N","2013","BE","Belgium",3309.000000000,""
"Antimicrobial resistance","Escherichia coli|Aminoglycosides","Total tested isolates","N","2013","BG","Bulgaria",187.000000000,""
"Antimicrobial resistance","Escherichia coli|Aminoglycosides","Total tested isolates","N","2013","CY","Cyprus",162.000000000,""
"Antimicrobial resistance","Escherichia coli|Aminoglycosides","Total tested isolates","N","2013","CZ","Czechia",2957.000000000,""
"Antimicrobial resistance","Escherichia coli|Aminoglycosides","Total tested isolates","N","2013","DE","Germany",5337.000000000,""
"Antimicrobial resistance","Escherichia coli|Aminoglycosides","Total tested isolates","N","2013","DK","Denmark",3887.000000000,""
"Antimicrobial resistance","Escherichia coli|Aminoglycosides","Total tested isolates","N","2013","EE","Estonia",341.000000000,""
"Antimicrobial resistance","Escherichia coli|Aminoglycosides","Total tested isolates","N","2013","EL","Greece",1239.000000000,""
"Antimicrobial resistance","Escherichia coli|Aminoglycosides","Total tested isolates","N","2013","ES","Spain",5929.000000000,""
"Antimicrobial resistance","Escherichia coli|Aminoglycosides","Total tested isolates","N","2013","FI","Finland",3561.000000000,""
"Antimicrobial resistance","Escherichia coli|Aminoglycosides","Total tested isolates","N","2013","FR","France",10156.000000000,""
"Antimicrobial resistance","Escherichia coli|Aminoglycosides","Total tested isolates","N","2013","HR","Croatia",1016.000000000,""
"Antimicrobial resistance","Escherichia coli|Aminoglycosides","Total tested isolates","N","2013","HU","Hungary",1427.000000000,""
"Antimicrobial resistance","Escherichia coli|Aminoglycosides","Total tested isolates","N","2013","IE","Ireland",2481.000000000,""
"Antimicrobial resistance","Escherichia coli|Aminoglycosides","Total tested isolates","N","2013","IS","Iceland",121.000000000,""
"Antimicrobial resistance","Escherichia coli|Aminoglycosides","Total tested isolates","N","2013","IT","Italy",3802.000000000,""
"Antimicrobial resistance","Escherichia coli|Aminoglycosides","Total tested isolates","N","2013","LT","Lithuania",429.000000000,""
"Antimicrobial resistance","Escherichia coli|Aminoglycosides","Total tested isolates","N","2013","LU","Luxembourg",299.000000000,""
"Antimicrobial resistance","Escherichia coli|Aminoglycosides","Total tested isolates","N","2013","LV","Latvia",134.000000000,""
"Antimicrobial resistance","Escherichia coli|Aminoglycosides","Total tested isolates","N","2013","MT","Malta",242.000000000,""
"Antimicrobial resistance","Escherichia coli|Aminoglycosides","Total tested isolates","N","2013","NL","Netherlands",6671.000000000,""
"Antimicrobial resistance","Escherichia coli|Aminoglycosides","Total tested isolates","N","2013","NO","Norway",3079.000000000,""
"Antimicrobial resistance","Escherichia coli|Aminoglycosides","Total tested isolates","N","2013","PL","Poland",1049.000000000,""
"Antimicrobial resistance","Escherichia coli|Aminoglycosides","Total tested isolates","N","2013","PT","Portugal",2684.000000000,""
"Antimicrobial resistance","Escherichia coli|Aminoglycosides","Total tested isolates","N","2013","RO","Romania",298.000000000,""
"Antimicrobial resistance","Escherichia coli|Aminoglycosides","Total tested isolates","N","2013","SE","Sweden",7100.000000000,""
"Antimicrobial resistance","Escherichia coli|Aminoglycosides","Total tested isolates","N","2013","SI","Slovenia",1224.000000000,""
"Antimicrobial resistance","Escherichia coli|Aminoglycosides","Total tested isolates","N","2013","SK","Slovakia",807.000000000,""
"Antimicrobial resistance","Escherichia coli|Aminoglycosides","Total tested isolates","N","2013","UK","United Kingdom",7166.000000000,""
"Antimicrobial resistance","Escherichia coli|Aminoglycosides","Total tested isolates","N","2014","AT","Austria",4726.000000000,""
"Antimicrobial resistance","Escherichia coli|Aminoglycosides","Total tested isolates","N","2014","BE","Belgium",2045.000000000,""
"Antimicrobial resistance","Escherichia coli|Aminoglycosides","Total tested isolates","N","2014","BG","Bulgaria",189.000000000,""
"Antimicrobial resistance","Escherichia coli|Aminoglycosides","Total tested isolates","N","2014","CY","Cyprus",153.000000000,""
"Antimicrobial resistance","Escherichia coli|Aminoglycosides","Total tested isolates","N","2014","CZ","Czechia",2979.000000000,""
"Antimicrobial resistance","Escherichia coli|Aminoglycosides","Total tested isolates","N","2014","DE","Germany",6244.000000000,""
"Antimicrobial resistance","Escherichia coli|Aminoglycosides","Total tested isolates","N","2014","DK","Denmark",4493.000000000,""
"Antimicrobial resistance","Escherichia coli|Aminoglycosides","Total tested isolates","N","2014","EE","Estonia",411.000000000,""
"Antimicrobial resistance","Escherichia coli|Aminoglycosides","Total tested isolates","N","2014","EL","Greece",1110.000000000,""
"Antimicrobial resistance","Escherichia coli|Aminoglycosides","Total tested isolates","N","2014","ES","Spain",5820.000000000,""
"Antimicrobial resistance","Escherichia coli|Aminoglycosides","Total tested isolates","N","2014","FI","Finland",3817.000000000,""
"Antimicrobial resistance","Escherichia coli|Aminoglycosides","Total tested isolates","N","2014","FR","France",10341.000000000,""
"Antimicrobial resistance","Escherichia coli|Aminoglycosides","Total tested isolates","N","2014","HR","Croatia",1077.000000000,""
"Antimicrobial resistance","Escherichia coli|Aminoglycosides","Total tested isolates","N","2014","HU","Hungary",1610.000000000,""
"Antimicrobial resistance","Escherichia coli|Aminoglycosides","Total tested isolates","N","2014","IE","Ireland",2705.000000000,""
"Antimicrobial resistance","Escherichia coli|Aminoglycosides","Total tested isolates","N","2014","IS","Iceland",152.000000000,""
"Antimicrobial resistance","Escherichia coli|Aminoglycosides","Total tested isolates","N","2014","IT","Italy",3493.000000000,""
"Antimicrobial resistance","Escherichia coli|Aminoglycosides","Total tested isolates","N","2014","LT","Lithuania",584.000000000,""
"Antimicrobial resistance","Escherichia coli|Aminoglycosides","Total tested isolates","N","2014","LU","Luxembourg",367.000000000,""
"Antimicrobial resistance","Escherichia coli|Aminoglycosides","Total tested isolates","N","2014","LV","Latvia",181.000000000,""
"Antimicrobial resistance","Escherichia coli|Aminoglycosides","Total tested isolates","N","2014","MT","Malta",268.000000000,""
"Antimicrobial resistance","Escherichia coli|Aminoglycosides","Total tested isolates","N","2014","NL","Netherlands",7127.000000000,""
"Antimicrobial resistance","Escherichia coli|Aminoglycosides","Total tested isolates","N","2014","NO","Norway",3419.000000000,""
"Antimicrobial resistance","Escherichia coli|Aminoglycosides","Total tested isolates","N","2014","PL","Poland",1068.000000000,""
"Antimicrobial resistance","Escherichia coli|Aminoglycosides","Total tested isolates","N","2014","PT","Portugal",4991.000000000,""
"Antimicrobial resistance","Escherichia coli|Aminoglycosides","Total tested isolates","N","2014","RO","Romania",303.000000000,""
"Antimicrobial resistance","Escherichia coli|Aminoglycosides","Total tested isolates","N","2014","SE","Sweden",5606.000000000,""
"Antimicrobial resistance","Escherichia coli|Aminoglycosides","Total tested isolates","N","2014","SI","Slovenia",1216.000000000,""
"Antimicrobial resistance","Escherichia coli|Aminoglycosides","Total tested isolates","N","2014","SK","Slovakia",888.000000000,""
"Antimicrobial resistance","Escherichia coli|Aminoglycosides","Total tested isolates","N","2014","UK","United Kingdom",7274.000000000,""
"Antimicrobial resistance","Escherichia coli|Aminoglycosides","Total tested isolates","N","2015","AT","Austria",4884.000000000,""
"Antimicrobial resistance","Escherichia coli|Aminoglycosides","Total tested isolates","N","2015","BE","Belgium",2286.000000000,""
"Antimicrobial resistance","Escherichia coli|Aminoglycosides","Total tested isolates","N","2015","BG","Bulgaria",182.000000000,""
"Antimicrobial resistance","Escherichia coli|Aminoglycosides","Total tested isolates","N","2015","CY","Cyprus",123.000000000,""
"Antimicrobial resistance","Escherichia coli|Aminoglycosides","Total tested isolates","N","2015","CZ","Czechia",3172.000000000,""
"Antimicrobial resistance","Escherichia coli|Aminoglycosides","Total tested isolates","N","2015","DE","Germany",9029.000000000,""
"Antimicrobial resistance","Escherichia coli|Aminoglycosides","Total tested isolates","N","2015","DK","Denmark",4591.000000000,""
"Antimicrobial resistance","Escherichia coli|Aminoglycosides","Total tested isolates","N","2015","EE","Estonia",257.000000000,""
"Antimicrobial resistance","Escherichia coli|Aminoglycosides","Total tested isolates","N","2015","EL","Greece",1200.000000000,""
"Antimicrobial resistance","Escherichia coli|Aminoglycosides","Total tested isolates","N","2015","ES","Spain",6489.000000000,""
"Antimicrobial resistance","Escherichia coli|Aminoglycosides","Total tested isolates","N","2015","FI","Finland",4135.000000000,""
"Antimicrobial resistance","Escherichia coli|Aminoglycosides","Total tested isolates","N","2015","FR","France",11055.000000000,""
"Antimicrobial resistance","Escherichia coli|Aminoglycosides","Total tested isolates","N","2015","HR","Croatia",1008.000000000,""
"Antimicrobial resistance","Escherichia coli|Aminoglycosides","Total tested isolates","N","2015","HU","Hungary",2020.000000000,""
"Antimicrobial resistance","Escherichia coli|Aminoglycosides","Total tested isolates","N","2015","IE","Ireland",2646.000000000,""
"Antimicrobial resistance","Escherichia coli|Aminoglycosides","Total tested isolates","N","2015","IS","Iceland",173.000000000,""
"Antimicrobial resistance","Escherichia coli|Aminoglycosides","Total tested isolates","N","2015","IT","Italy",5408.000000000,""
"Antimicrobial resistance","Escherichia coli|Aminoglycosides","Total tested isolates","N","2015","LT","Lithuania",583.000000000,""
"Antimicrobial resistance","Escherichia coli|Aminoglycosides","Total tested isolates","N","2015","LU","Luxembourg",347.000000000,""
"Antimicrobial resistance","Escherichia coli|Aminoglycosides","Total tested isolates","N","2015","LV","Latvia",191.000000000,""
"Antimicrobial resistance","Escherichia coli|Aminoglycosides","Total tested isolates","N","2015","MT","Malta",238.000000000,""
"Antimicrobial resistance","Escherichia coli|Aminoglycosides","Total tested isolates","N","2015","NL","Netherlands",7074.000000000,""
"Antimicrobial resistance","Escherichia coli|Aminoglycosides","Total tested isolates","N","2015","NO","Norway",3301.000000000,""
"Antimicrobial resistance","Escherichia coli|Aminoglycosides","Total tested isolates","N","2015","PL","Poland",1581.000000000,""
"Antimicrobial resistance","Escherichia coli|Aminoglycosides","Total tested isolates","N","2015","PT","Portugal",5372.000000000,""
"Antimicrobial resistance","Escherichia coli|Aminoglycosides","Total tested isolates","N","2015","RO","Romania",366.000000000,""
"Antimicrobial resistance","Escherichia coli|Aminoglycosides","Total tested isolates","N","2015","SE","Sweden",5761.000000000,""
"Antimicrobial resistance","Escherichia coli|Aminoglycosides","Total tested isolates","N","2015","SI","Slovenia",1326.000000000,""
"Antimicrobial resistance","Escherichia coli|Aminoglycosides","Total tested isolates","N","2015","SK","Slovakia",896.000000000,""
"Antimicrobial resistance","Escherichia coli|Aminoglycosides","Total tested isolates","N","2015","UK","United Kingdom",6052.000000000,""
"Antimicrobial resistance","Escherichia coli|Aminoglycosides","Total tested isolates","N","2016","AT","Austria",5248.000000000,""
"Antimicrobial resistance","Escherichia coli|Aminoglycosides","Total tested isolates","N","2016","BE","Belgium",3499.000000000,""
"Antimicrobial resistance","Escherichia coli|Aminoglycosides","Total tested isolates","N","2016","BG","Bulgaria",210.000000000,""
"Antimicrobial resistance","Escherichia coli|Aminoglycosides","Total tested isolates","N","2016","CY","Cyprus",149.000000000,""
"Antimicrobial resistance","Escherichia coli|Aminoglycosides","Total tested isolates","N","2016","CZ","Czechia",3061.000000000,""
"Antimicrobial resistance","Escherichia coli|Aminoglycosides","Total tested isolates","N","2016","DE","Germany",17023.000000000,""
"Antimicrobial resistance","Escherichia coli|Aminoglycosides","Total tested isolates","N","2016","DK","Denmark",4846.000000000,""
"Antimicrobial resistance","Escherichia coli|Aminoglycosides","Total tested isolates","N","2016","EE","Estonia",702.000000000,""
"Antimicrobial resistance","Escherichia coli|Aminoglycosides","Total tested isolates","N","2016","EL","Greece",1301.000000000,""
"Antimicrobial resistance","Escherichia coli|Aminoglycosides","Total tested isolates","N","2016","ES","Spain",6800.000000000,""
"Antimicrobial resistance","Escherichia coli|Aminoglycosides","Total tested isolates","N","2016","FI","Finland",4519.000000000,""
"Antimicrobial resistance","Escherichia coli|Aminoglycosides","Total tested isolates","N","2016","FR","France",11135.000000000,""
"Antimicrobial resistance","Escherichia coli|Aminoglycosides","Total tested isolates","N","2016","HR","Croatia",1027.000000000,""
"Antimicrobial resistance","Escherichia coli|Aminoglycosides","Total tested isolates","N","2016","HU","Hungary",1992.000000000,""
"Antimicrobial resistance","Escherichia coli|Aminoglycosides","Total tested isolates","N","2016","IE","Ireland",2991.000000000,""
"Antimicrobial resistance","Escherichia coli|Aminoglycosides","Total tested isolates","N","2016","IS","Iceland",192.000000000,""
"Antimicrobial resistance","Escherichia coli|Aminoglycosides","Total tested isolates","N","2016","IT","Italy",6079.000000000,""
"Antimicrobial resistance","Escherichia coli|Aminoglycosides","Total tested isolates","N","2016","LT","Lithuania",791.000000000,""
"Antimicrobial resistance","Escherichia coli|Aminoglycosides","Total tested isolates","N","2016","LU","Luxembourg",418.000000000,""
"Antimicrobial resistance","Escherichia coli|Aminoglycosides","Total tested isolates","N","2016","LV","Latvia",244.000000000,""
"Antimicrobial resistance","Escherichia coli|Aminoglycosides","Total tested isolates","N","2016","MT","Malta",328.000000000,""
"Antimicrobial resistance","Escherichia coli|Aminoglycosides","Total tested isolates","N","2016","NL","Netherlands",7248.000000000,""
"Antimicrobial resistance","Escherichia coli|Aminoglycosides","Total tested isolates","N","2016","NO","Norway",3614.000000000,""
"Antimicrobial resistance","Escherichia coli|Aminoglycosides","Total tested isolates","N","2016","PL","Poland",2521.000000000,""
"Antimicrobial resistance","Escherichia coli|Aminoglycosides","Total tested isolates","N","2016","PT","Portugal",5765.000000000,""
"Antimicrobial resistance","Escherichia coli|Aminoglycosides","Total tested isolates","N","2016","RO","Romania",414.000000000,""
"Antimicrobial resistance","Escherichia coli|Aminoglycosides","Total tested isolates","N","2016","SE","Sweden",6949.000000000,""
"Antimicrobial resistance","Escherichia coli|Aminoglycosides","Total tested isolates","N","2016","SI","Slovenia",1420.000000000,""
"Antimicrobial resistance","Escherichia coli|Aminoglycosides","Total tested isolates","N","2016","SK","Slovakia",828.000000000,""
"Antimicrobial resistance","Escherichia coli|Aminoglycosides","Total tested isolates","N","2016","UK","United Kingdom",23166.000000000,""
"Antimicrobial resistance","Escherichia coli|Aminoglycosides","Total tested isolates","N","2017","AT","Austria",5318.000000000,""
"Antimicrobial resistance","Escherichia coli|Aminoglycosides","Total tested isolates","N","2017","BE","Belgium",3769.000000000,""
"Antimicrobial resistance","Escherichia coli|Aminoglycosides","Total tested isolates","N","2017","BG","Bulgaria",229.000000000,""
"Antimicrobial resistance","Escherichia coli|Aminoglycosides","Total tested isolates","N","2017","CY","Cyprus",156.000000000,""
"Antimicrobial resistance","Escherichia coli|Aminoglycosides","Total tested isolates","N","2017","CZ","Czechia",3199.000000000,""
"Antimicrobial resistance","Escherichia coli|Aminoglycosides","Total tested isolates","N","2017","DE","Germany",22478.000000000,""
"Antimicrobial resistance","Escherichia coli|Aminoglycosides","Total tested isolates","N","2017","DK","Denmark",5122.000000000,""
"Antimicrobial resistance","Escherichia coli|Aminoglycosides","Total tested isolates","N","2017","EE","Estonia",786.000000000,""
"Antimicrobial resistance","Escherichia coli|Aminoglycosides","Total tested isolates","N","2017","EL","Greece",1467.000000000,""
"Antimicrobial resistance","Escherichia coli|Aminoglycosides","Total tested isolates","N","2017","ES","Spain",6029.000000000,""
"Antimicrobial resistance","Escherichia coli|Aminoglycosides","Total tested isolates","N","2017","FI","Finland",4982.000000000,""
"Antimicrobial resistance","Escherichia coli|Aminoglycosides","Total tested isolates","N","2017","FR","France",13103.000000000,""
"Antimicrobial resistance","Escherichia coli|Aminoglycosides","Total tested isolates","N","2017","HR","Croatia",1154.000000000,""
"Antimicrobial resistance","Escherichia coli|Aminoglycosides","Total tested isolates","N","2017","HU","Hungary",2060.000000000,""
"Antimicrobial resistance","Escherichia coli|Aminoglycosides","Total tested isolates","N","2017","IE","Ireland",3123.000000000,""
"Antimicrobial resistance","Escherichia coli|Aminoglycosides","Total tested isolates","N","2017","IS","Iceland",213.000000000,""
"Antimicrobial resistance","Escherichia coli|Aminoglycosides","Total tested isolates","N","2017","IT","Italy",7134.000000000,""
"Antimicrobial resistance","Escherichia coli|Aminoglycosides","Total tested isolates","N","2017","LT","Lithuania",848.000000000,""
"Antimicrobial resistance","Escherichia coli|Aminoglycosides","Total tested isolates","N","2017","LU","Luxembourg",433.000000000,""
"Antimicrobial resistance","Escherichia coli|Aminoglycosides","Total tested isolates","N","2017","LV","Latvia",21.000000000,""
"Antimicrobial resistance","Escherichia coli|Aminoglycosides","Total tested isolates","N","2017","MT","Malta",314.000000000,""
"Antimicrobial resistance","Escherichia coli|Aminoglycosides","Total tested isolates","N","2017","NL","Netherlands",7512.000000000,""
"Antimicrobial resistance","Escherichia coli|Aminoglycosides","Total tested isolates","N","2017","NO","Norway",3732.000000000,""
"Antimicrobial resistance","Escherichia coli|Aminoglycosides","Total tested isolates","N","2017","PL","Poland",2719.000000000,""
"Antimicrobial resistance","Escherichia coli|Aminoglycosides","Total tested isolates","N","2017","PT","Portugal",6387.000000000,""
"Antimicrobial resistance","Escherichia coli|Aminoglycosides","Total tested isolates","N","2017","RO","Romania",513.000000000,""
"Antimicrobial resistance","Escherichia coli|Aminoglycosides","Total tested isolates","N","2017","SE","Sweden",5758.000000000,""
"Antimicrobial resistance","Escherichia coli|Aminoglycosides","Total tested isolates","N","2017","SI","Slovenia",1435.000000000,""
"Antimicrobial resistance","Escherichia coli|Aminoglycosides","Total tested isolates","N","2017","SK","Slovakia",875.000000000,""
"Antimicrobial resistance","Escherichia coli|Aminoglycosides","Total tested isolates","N","2017","UK","United Kingdom",30739.000000000,""
"Antimicrobial resistance","Escherichia coli|Aminoglycosides","Total tested isolates","N","2018","AT","Austria",5616.000000000,""
"Antimicrobial resistance","Escherichia coli|Aminoglycosides","Total tested isolates","N","2018","BE","Belgium",3822.000000000,""
"Antimicrobial resistance","Escherichia coli|Aminoglycosides","Total tested isolates","N","2018","BG","Bulgaria",275.000000000,""
"Antimicrobial resistance","Escherichia coli|Aminoglycosides","Total tested isolates","N","2018","CY","Cyprus",151.000000000,""
"Antimicrobial resistance","Escherichia coli|Aminoglycosides","Total tested isolates","N","2018","CZ","Czechia",3643.000000000,""
"Antimicrobial resistance","Escherichia coli|Aminoglycosides","Total tested isolates","N","2018","DE","Germany",21634.000000000,""
"Antimicrobial resistance","Escherichia coli|Aminoglycosides","Total tested isolates","N","2018","DK","Denmark",5393.000000000,""
"Antimicrobial resistance","Escherichia coli|Aminoglycosides","Total tested isolates","N","2018","EE","Estonia",849.000000000,""
"Antimicrobial resistance","Escherichia coli|Aminoglycosides","Total tested isolates","N","2018","EL","Greece",1633.000000000,""
"Antimicrobial resistance","Escherichia coli|Aminoglycosides","Total tested isolates","N","2018","ES","Spain",7924.000000000,""
"Antimicrobial resistance","Escherichia coli|Aminoglycosides","Total tested isolates","N","2018","FI","Finland",4815.000000000,""
"Antimicrobial resistance","Escherichia coli|Aminoglycosides","Total tested isolates","N","2018","FR","France",12283.000000000,""
"Antimicrobial resistance","Escherichia coli|Aminoglycosides","Total tested isolates","N","2018","HR","Croatia",1210.000000000,""
"Antimicrobial resistance","Escherichia coli|Aminoglycosides","Total tested isolates","N","2018","HU","Hungary",2264.000000000,""
"Antimicrobial resistance","Escherichia coli|Aminoglycosides","Total tested isolates","N","2018","IE","Ireland",3238.000000000,""
"Antimicrobial resistance","Escherichia coli|Aminoglycosides","Total tested isolates","N","2018","IS","Iceland",197.000000000,""
"Antimicrobial resistance","Escherichia coli|Aminoglycosides","Total tested isolates","N","2018","IT","Italy",15901.000000000,""
"Antimicrobial resistance","Escherichia coli|Aminoglycosides","Total tested isolates","N","2018","LT","Lithuania",1103.000000000,""
"Antimicrobial resistance","Escherichia coli|Aminoglycosides","Total tested isolates","N","2018","LU","Luxembourg",423.000000000,""
"Antimicrobial resistance","Escherichia coli|Aminoglycosides","Total tested isolates","N","2018","LV","Latvia",348.000000000,""
"Antimicrobial resistance","Escherichia coli|Aminoglycosides","Total tested isolates","N","2018","MT","Malta",332.000000000,""
"Antimicrobial resistance","Escherichia coli|Aminoglycosides","Total tested isolates","N","2018","NL","Netherlands",8275.000000000,""
"Antimicrobial resistance","Escherichia coli|Aminoglycosides","Total tested isolates","N","2018","NO","Norway",3880.000000000,""
"Antimicrobial resistance","Escherichia coli|Aminoglycosides","Total tested isolates","N","2018","PL","Poland",2449.000000000,""
"Antimicrobial resistance","Escherichia coli|Aminoglycosides","Total tested isolates","N","2018","PT","Portugal",5825.000000000,""
"Antimicrobial resistance","Escherichia coli|Aminoglycosides","Total tested isolates","N","2018","RO","Romania",649.000000000,""
"Antimicrobial resistance","Escherichia coli|Aminoglycosides","Total tested isolates","N","2018","SE","Sweden",5378.000000000,""
"Antimicrobial resistance","Escherichia coli|Aminoglycosides","Total tested isolates","N","2018","SI","Slovenia",1668.000000000,""
"Antimicrobial resistance","Escherichia coli|Aminoglycosides","Total tested isolates","N","2018","SK","Slovakia",969.000000000,""
"Antimicrobial resistance","Escherichia coli|Aminoglycosides","Total tested isolates","N","2018","UK","United Kingdom",32119.000000000,""
"Antimicrobial resistance","Escherichia coli|Aminoglycosides","Total tested isolates","N","2019","AT","Austria",6102.000000000,""
"Antimicrobial resistance","Escherichia coli|Aminoglycosides","Total tested isolates","N","2019","BE","Belgium",3922.000000000,""
"Antimicrobial resistance","Escherichia coli|Aminoglycosides","Total tested isolates","N","2019","BG","Bulgaria",352.000000000,""
"Antimicrobial resistance","Escherichia coli|Aminoglycosides","Total tested isolates","N","2019","CY","Cyprus",92.000000000,""
"Antimicrobial resistance","Escherichia coli|Aminoglycosides","Total tested isolates","N","2019","CZ","Czechia",3559.000000000,""
"Antimicrobial resistance","Escherichia coli|Aminoglycosides","Total tested isolates","N","2019","DE","Germany",22990.000000000,""
"Antimicrobial resistance","Escherichia coli|Aminoglycosides","Total tested isolates","N","2019","DK","Denmark",5599.000000000,""
"Antimicrobial resistance","Escherichia coli|Aminoglycosides","Total tested isolates","N","2019","EE","Estonia",907.000000000,""
"Antimicrobial resistance","Escherichia coli|Aminoglycosides","Total tested isolates","N","2019","EL","Greece",201.000000000,""
"Antimicrobial resistance","Escherichia coli|Aminoglycosides","Total tested isolates","N","2019","ES","Spain",8304.000000000,""
"Antimicrobial resistance","Escherichia coli|Aminoglycosides","Total tested isolates","N","2019","FI","Finland",5159.000000000,""
"Antimicrobial resistance","Escherichia coli|Aminoglycosides","Total tested isolates","N","2019","FR","France",13133.000000000,""
"Antimicrobial resistance","Escherichia coli|Aminoglycosides","Total tested isolates","N","2019","HR","Croatia",1112.000000000,""
"Antimicrobial resistance","Escherichia coli|Aminoglycosides","Total tested isolates","N","2019","HU","Hungary",2411.000000000,""
"Antimicrobial resistance","Escherichia coli|Aminoglycosides","Total tested isolates","N","2019","IE","Ireland",3232.000000000,""
"Antimicrobial resistance","Escherichia coli|Aminoglycosides","Total tested isolates","N","2019","IS","Iceland",256.000000000,""
"Antimicrobial resistance","Escherichia coli|Aminoglycosides","Total tested isolates","N","2019","IT","Italy",18382.000000000,""
"Antimicrobial resistance","Escherichia coli|Aminoglycosides","Total tested isolates","N","2019","LT","Lithuania",1129.000000000,""
"Antimicrobial resistance","Escherichia coli|Aminoglycosides","Total tested isolates","N","2019","LU","Luxembourg",492.000000000,""
"Antimicrobial resistance","Escherichia coli|Aminoglycosides","Total tested isolates","N","2019","LV","Latvia",440.000000000,""
"Antimicrobial resistance","Escherichia coli|Aminoglycosides","Total tested isolates","N","2019","MT","Malta",332.000000000,""
"Antimicrobial resistance","Escherichia coli|Aminoglycosides","Total tested isolates","N","2019","NL","Netherlands",7301.000000000,""
"Antimicrobial resistance","Escherichia coli|Aminoglycosides","Total tested isolates","N","2019","NO","Norway",4074.000000000,""
"Antimicrobial resistance","Escherichia coli|Aminoglycosides","Total tested isolates","N","2019","PL","Poland",2614.000000000,""
"Antimicrobial resistance","Escherichia coli|Aminoglycosides","Total tested isolates","N","2019","PT","Portugal",6428.000000000,""
"Antimicrobial resistance","Escherichia coli|Aminoglycosides","Total tested isolates","N","2019","RO","Romania",594.000000000,""
"Antimicrobial resistance","Escherichia coli|Aminoglycosides","Total tested isolates","N","2019","SE","Sweden",9410.000000000,""
"Antimicrobial resistance","Escherichia coli|Aminoglycosides","Total tested isolates","N","2019","SI","Slovenia",1610.000000000,""
"Antimicrobial resistance","Escherichia coli|Aminoglycosides","Total tested isolates","N","2019","SK","Slovakia",847.000000000,""
"Antimicrobial resistance","Escherichia coli|Aminoglycosides","Total tested isolates","N","2019","UK","United Kingdom",30448.000000000,""
"Antimicrobial resistance","Escherichia coli|Aminoglycosides","Total tested isolates","N","2020","AT","Austria",5219.000000000,""
"Antimicrobial resistance","Escherichia coli|Aminoglycosides","Total tested isolates","N","2020","BE","Belgium",4312.000000000,""
"Antimicrobial resistance","Escherichia coli|Aminoglycosides","Total tested isolates","N","2020","BG","Bulgaria",219.000000000,""
"Antimicrobial resistance","Escherichia coli|Aminoglycosides","Total tested isolates","N","2020","CY","Cyprus",228.000000000,""
"Antimicrobial resistance","Escherichia coli|Aminoglycosides","Total tested isolates","N","2020","CZ","Czechia",2999.000000000,""
"Antimicrobial resistance","Escherichia coli|Aminoglycosides","Total tested isolates","N","2020","DE","Germany",26358.000000000,""
"Antimicrobial resistance","Escherichia coli|Aminoglycosides","Total tested isolates","N","2020","DK","Denmark",5870.000000000,""
"Antimicrobial resistance","Escherichia coli|Aminoglycosides","Total tested isolates","N","2020","EE","Estonia",968.000000000,""
"Antimicrobial resistance","Escherichia coli|Aminoglycosides","Total tested isolates","N","2020","EL","Greece",562.000000000,""
"Antimicrobial resistance","Escherichia coli|Aminoglycosides","Total tested isolates","N","2020","ES","Spain",7778.000000000,""
"Antimicrobial resistance","Escherichia coli|Aminoglycosides","Total tested isolates","N","2020","FI","Finland",5373.000000000,""
"Antimicrobial resistance","Escherichia coli|Aminoglycosides","Total tested isolates","N","2020","FR","France",17786.000000000,""
"Antimicrobial resistance","Escherichia coli|Aminoglycosides","Total tested isolates","N","2020","HR","Croatia",828.000000000,""
"Antimicrobial resistance","Escherichia coli|Aminoglycosides","Total tested isolates","N","2020","HU","Hungary",1954.000000000,""
"Antimicrobial resistance","Escherichia coli|Aminoglycosides","Total tested isolates","N","2020","IE","Ireland",2134.000000000,""
"Antimicrobial resistance","Escherichia coli|Aminoglycosides","Total tested isolates","N","2020","IS","Iceland",245.000000000,""
"Antimicrobial resistance","Escherichia coli|Aminoglycosides","Total tested isolates","N","2020","IT","Italy",17994.000000000,""
"Antimicrobial resistance","Escherichia coli|Aminoglycosides","Total tested isolates","N","2020","LT","Lithuania",1141.000000000,""
"Antimicrobial resistance","Escherichia coli|Aminoglycosides","Total tested isolates","N","2020","LU","Luxembourg",428.000000000,""
"Antimicrobial resistance","Escherichia coli|Aminoglycosides","Total tested isolates","N","2020","LV","Latvia",377.000000000,""
"Antimicrobial resistance","Escherichia coli|Aminoglycosides","Total tested isolates","N","2020","MT","Malta",277.000000000,""
"Antimicrobial resistance","Escherichia coli|Aminoglycosides","Total tested isolates","N","2020","NL","Netherlands",7495.000000000,""
"Antimicrobial resistance","Escherichia coli|Aminoglycosides","Total tested isolates","N","2020","NO","Norway",3763.000000000,""
"Antimicrobial resistance","Escherichia coli|Aminoglycosides","Total tested isolates","N","2020","PL","Poland",2033.000000000,""
"Antimicrobial resistance","Escherichia coli|Aminoglycosides","Total tested isolates","N","2020","PT","Portugal",5788.000000000,""
"Antimicrobial resistance","Escherichia coli|Aminoglycosides","Total tested isolates","N","2020","RO","Romania",367.000000000,""
"Antimicrobial resistance","Escherichia coli|Aminoglycosides","Total tested isolates","N","2020","SE","Sweden",9840.000000000,""
"Antimicrobial resistance","Escherichia coli|Aminoglycosides","Total tested isolates","N","2020","SI","Slovenia",1616.000000000,""
"Antimicrobial resistance","Escherichia coli|Aminoglycosides","Total tested isolates","N","2020","SK","Slovakia",731.000000000,""
