"HealthTopic","Population","Indicator","Unit","Time","RegionCode","RegionName","NumValue","TxtValue"
"Antimicrobial resistance","Escherichia coli|Aminopenicillins","Total tested isolates","N","2000","AT","Austria",0.000000000,""
"Antimicrobial resistance","Escherichia coli|Aminopenicillins","Total tested isolates","N","2000","BE","Belgium",0.000000000,""
"Antimicrobial resistance","Escherichia coli|Aminopenicillins","Total tested isolates","N","2000","DE","Germany",180.000000000,""
"Antimicrobial resistance","Escherichia coli|Aminopenicillins","Total tested isolates","N","2000","DK","Denmark",0.000000000,""
"Antimicrobial resistance","Escherichia coli|Aminopenicillins","Total tested isolates","N","2000","EE","Estonia",1.000000000,""
"Antimicrobial resistance","Escherichia coli|Aminopenicillins","Total tested isolates","N","2000","EL","Greece",355.000000000,""
"Antimicrobial resistance","Escherichia coli|Aminopenicillins","Total tested isolates","N","2000","ES","Spain",0.000000000,""
"Antimicrobial resistance","Escherichia coli|Aminopenicillins","Total tested isolates","N","2000","FI","Finland",0.000000000,""
"Antimicrobial resistance","Escherichia coli|Aminopenicillins","Total tested isolates","N","2000","IE","Ireland",0.000000000,""
"Antimicrobial resistance","Escherichia coli|Aminopenicillins","Total tested isolates","N","2000","IS","Iceland",0.000000000,""
"Antimicrobial resistance","Escherichia coli|Aminopenicillins","Total tested isolates","N","2000","IT","Italy",0.000000000,""
"Antimicrobial resistance","Escherichia coli|Aminopenicillins","Total tested isolates","N","2000","LU","Luxembourg",0.000000000,""
"Antimicrobial resistance","Escherichia coli|Aminopenicillins","Total tested isolates","N","2000","NL","Netherlands",1309.000000000,""
"Antimicrobial resistance","Escherichia coli|Aminopenicillins","Total tested isolates","N","2000","NO","Norway",818.000000000,""
"Antimicrobial resistance","Escherichia coli|Aminopenicillins","Total tested isolates","N","2000","PT","Portugal",0.000000000,""
"Antimicrobial resistance","Escherichia coli|Aminopenicillins","Total tested isolates","N","2000","SE","Sweden",1.000000000,""
"Antimicrobial resistance","Escherichia coli|Aminopenicillins","Total tested isolates","N","2000","UK","United Kingdom",0.000000000,""
"Antimicrobial resistance","Escherichia coli|Aminopenicillins","Total tested isolates","N","2001","AT","Austria",259.000000000,""
"Antimicrobial resistance","Escherichia coli|Aminopenicillins","Total tested isolates","N","2001","BE","Belgium",220.000000000,""
"Antimicrobial resistance","Escherichia coli|Aminopenicillins","Total tested isolates","N","2001","BG","Bulgaria",86.000000000,""
"Antimicrobial resistance","Escherichia coli|Aminopenicillins","Total tested isolates","N","2001","CZ","Czechia",1157.000000000,""
"Antimicrobial resistance","Escherichia coli|Aminopenicillins","Total tested isolates","N","2001","DE","Germany",1260.000000000,""
"Antimicrobial resistance","Escherichia coli|Aminopenicillins","Total tested isolates","N","2001","DK","Denmark",0.000000000,""
"Antimicrobial resistance","Escherichia coli|Aminopenicillins","Total tested isolates","N","2001","EE","Estonia",46.000000000,""
"Antimicrobial resistance","Escherichia coli|Aminopenicillins","Total tested isolates","N","2001","EL","Greece",523.000000000,""
"Antimicrobial resistance","Escherichia coli|Aminopenicillins","Total tested isolates","N","2001","ES","Spain",1655.000000000,""
"Antimicrobial resistance","Escherichia coli|Aminopenicillins","Total tested isolates","N","2001","FI","Finland",1136.000000000,""
"Antimicrobial resistance","Escherichia coli|Aminopenicillins","Total tested isolates","N","2001","FR","France",0.000000000,""
"Antimicrobial resistance","Escherichia coli|Aminopenicillins","Total tested isolates","N","2001","HR","Croatia",181.000000000,""
"Antimicrobial resistance","Escherichia coli|Aminopenicillins","Total tested isolates","N","2001","HU","Hungary",194.000000000,""
"Antimicrobial resistance","Escherichia coli|Aminopenicillins","Total tested isolates","N","2001","IE","Ireland",0.000000000,""
"Antimicrobial resistance","Escherichia coli|Aminopenicillins","Total tested isolates","N","2001","IS","Iceland",86.000000000,""
"Antimicrobial resistance","Escherichia coli|Aminopenicillins","Total tested isolates","N","2001","IT","Italy",0.000000000,""
"Antimicrobial resistance","Escherichia coli|Aminopenicillins","Total tested isolates","N","2001","LU","Luxembourg",187.000000000,""
"Antimicrobial resistance","Escherichia coli|Aminopenicillins","Total tested isolates","N","2001","MT","Malta",65.000000000,""
"Antimicrobial resistance","Escherichia coli|Aminopenicillins","Total tested isolates","N","2001","NL","Netherlands",1834.000000000,""
"Antimicrobial resistance","Escherichia coli|Aminopenicillins","Total tested isolates","N","2001","NO","Norway",821.000000000,""
"Antimicrobial resistance","Escherichia coli|Aminopenicillins","Total tested isolates","N","2001","PL","Poland",100.000000000,""
"Antimicrobial resistance","Escherichia coli|Aminopenicillins","Total tested isolates","N","2001","PT","Portugal",417.000000000,""
"Antimicrobial resistance","Escherichia coli|Aminopenicillins","Total tested isolates","N","2001","SE","Sweden",1513.000000000,""
"Antimicrobial resistance","Escherichia coli|Aminopenicillins","Total tested isolates","N","2001","SI","Slovenia",398.000000000,""
"Antimicrobial resistance","Escherichia coli|Aminopenicillins","Total tested isolates","N","2001","SK","Slovakia",44.000000000,""
"Antimicrobial resistance","Escherichia coli|Aminopenicillins","Total tested isolates","N","2001","UK","United Kingdom",1384.000000000,""
"Antimicrobial resistance","Escherichia coli|Aminopenicillins","Total tested isolates","N","2002","AT","Austria",474.000000000,""
"Antimicrobial resistance","Escherichia coli|Aminopenicillins","Total tested isolates","N","2002","BE","Belgium",1167.000000000,""
"Antimicrobial resistance","Escherichia coli|Aminopenicillins","Total tested isolates","N","2002","BG","Bulgaria",131.000000000,""
"Antimicrobial resistance","Escherichia coli|Aminopenicillins","Total tested isolates","N","2002","CZ","Czechia",1587.000000000,""
"Antimicrobial resistance","Escherichia coli|Aminopenicillins","Total tested isolates","N","2002","DE","Germany",1066.000000000,""
"Antimicrobial resistance","Escherichia coli|Aminopenicillins","Total tested isolates","N","2002","DK","Denmark",0.000000000,""
"Antimicrobial resistance","Escherichia coli|Aminopenicillins","Total tested isolates","N","2002","EE","Estonia",57.000000000,""
"Antimicrobial resistance","Escherichia coli|Aminopenicillins","Total tested isolates","N","2002","EL","Greece",549.000000000,""
"Antimicrobial resistance","Escherichia coli|Aminopenicillins","Total tested isolates","N","2002","ES","Spain",2484.000000000,""
"Antimicrobial resistance","Escherichia coli|Aminopenicillins","Total tested isolates","N","2002","FI","Finland",1143.000000000,""
"Antimicrobial resistance","Escherichia coli|Aminopenicillins","Total tested isolates","N","2002","FR","France",2492.000000000,""
"Antimicrobial resistance","Escherichia coli|Aminopenicillins","Total tested isolates","N","2002","HR","Croatia",490.000000000,""
"Antimicrobial resistance","Escherichia coli|Aminopenicillins","Total tested isolates","N","2002","HU","Hungary",351.000000000,""
"Antimicrobial resistance","Escherichia coli|Aminopenicillins","Total tested isolates","N","2002","IE","Ireland",733.000000000,""
"Antimicrobial resistance","Escherichia coli|Aminopenicillins","Total tested isolates","N","2002","IS","Iceland",54.000000000,""
"Antimicrobial resistance","Escherichia coli|Aminopenicillins","Total tested isolates","N","2002","IT","Italy",564.000000000,""
"Antimicrobial resistance","Escherichia coli|Aminopenicillins","Total tested isolates","N","2002","LU","Luxembourg",189.000000000,""
"Antimicrobial resistance","Escherichia coli|Aminopenicillins","Total tested isolates","N","2002","MT","Malta",74.000000000,""
"Antimicrobial resistance","Escherichia coli|Aminopenicillins","Total tested isolates","N","2002","NL","Netherlands",2391.000000000,""
"Antimicrobial resistance","Escherichia coli|Aminopenicillins","Total tested isolates","N","2002","NO","Norway",1000.000000000,""
"Antimicrobial resistance","Escherichia coli|Aminopenicillins","Total tested isolates","N","2002","PL","Poland",134.000000000,""
"Antimicrobial resistance","Escherichia coli|Aminopenicillins","Total tested isolates","N","2002","PT","Portugal",443.000000000,""
"Antimicrobial resistance","Escherichia coli|Aminopenicillins","Total tested isolates","N","2002","RO","Romania",28.000000000,""
"Antimicrobial resistance","Escherichia coli|Aminopenicillins","Total tested isolates","N","2002","SE","Sweden",1753.000000000,""
"Antimicrobial resistance","Escherichia coli|Aminopenicillins","Total tested isolates","N","2002","SI","Slovenia",409.000000000,""
"Antimicrobial resistance","Escherichia coli|Aminopenicillins","Total tested isolates","N","2002","SK","Slovakia",215.000000000,""
"Antimicrobial resistance","Escherichia coli|Aminopenicillins","Total tested isolates","N","2002","UK","United Kingdom",1914.000000000,""
"Antimicrobial resistance","Escherichia coli|Aminopenicillins","Total tested isolates","N","2003","AT","Austria",979.000000000,""
"Antimicrobial resistance","Escherichia coli|Aminopenicillins","Total tested isolates","N","2003","BE","Belgium",1309.000000000,""
"Antimicrobial resistance","Escherichia coli|Aminopenicillins","Total tested isolates","N","2003","BG","Bulgaria",156.000000000,""
"Antimicrobial resistance","Escherichia coli|Aminopenicillins","Total tested isolates","N","2003","CY","Cyprus",19.000000000,""
"Antimicrobial resistance","Escherichia coli|Aminopenicillins","Total tested isolates","N","2003","CZ","Czechia",1766.000000000,""
"Antimicrobial resistance","Escherichia coli|Aminopenicillins","Total tested isolates","N","2003","DE","Germany",983.000000000,""
"Antimicrobial resistance","Escherichia coli|Aminopenicillins","Total tested isolates","N","2003","DK","Denmark",0.000000000,""
"Antimicrobial resistance","Escherichia coli|Aminopenicillins","Total tested isolates","N","2003","EE","Estonia",92.000000000,""
"Antimicrobial resistance","Escherichia coli|Aminopenicillins","Total tested isolates","N","2003","EL","Greece",981.000000000,""
"Antimicrobial resistance","Escherichia coli|Aminopenicillins","Total tested isolates","N","2003","ES","Spain",2650.000000000,""
"Antimicrobial resistance","Escherichia coli|Aminopenicillins","Total tested isolates","N","2003","FI","Finland",1230.000000000,""
"Antimicrobial resistance","Escherichia coli|Aminopenicillins","Total tested isolates","N","2003","FR","France",2178.000000000,""
"Antimicrobial resistance","Escherichia coli|Aminopenicillins","Total tested isolates","N","2003","HR","Croatia",570.000000000,""
"Antimicrobial resistance","Escherichia coli|Aminopenicillins","Total tested isolates","N","2003","HU","Hungary",835.000000000,""
"Antimicrobial resistance","Escherichia coli|Aminopenicillins","Total tested isolates","N","2003","IE","Ireland",977.000000000,""
"Antimicrobial resistance","Escherichia coli|Aminopenicillins","Total tested isolates","N","2003","IS","Iceland",99.000000000,""
"Antimicrobial resistance","Escherichia coli|Aminopenicillins","Total tested isolates","N","2003","IT","Italy",906.000000000,""
"Antimicrobial resistance","Escherichia coli|Aminopenicillins","Total tested isolates","N","2003","LU","Luxembourg",227.000000000,""
"Antimicrobial resistance","Escherichia coli|Aminopenicillins","Total tested isolates","N","2003","MT","Malta",88.000000000,""
"Antimicrobial resistance","Escherichia coli|Aminopenicillins","Total tested isolates","N","2003","NL","Netherlands",2035.000000000,""
"Antimicrobial resistance","Escherichia coli|Aminopenicillins","Total tested isolates","N","2003","NO","Norway",1045.000000000,""
"Antimicrobial resistance","Escherichia coli|Aminopenicillins","Total tested isolates","N","2003","PL","Poland",123.000000000,""
"Antimicrobial resistance","Escherichia coli|Aminopenicillins","Total tested isolates","N","2003","PT","Portugal",784.000000000,""
"Antimicrobial resistance","Escherichia coli|Aminopenicillins","Total tested isolates","N","2003","RO","Romania",46.000000000,""
"Antimicrobial resistance","Escherichia coli|Aminopenicillins","Total tested isolates","N","2003","SE","Sweden",1953.000000000,""
"Antimicrobial resistance","Escherichia coli|Aminopenicillins","Total tested isolates","N","2003","SI","Slovenia",401.000000000,""
"Antimicrobial resistance","Escherichia coli|Aminopenicillins","Total tested isolates","N","2003","SK","Slovakia",239.000000000,""
"Antimicrobial resistance","Escherichia coli|Aminopenicillins","Total tested isolates","N","2003","UK","United Kingdom",2171.000000000,""
"Antimicrobial resistance","Escherichia coli|Aminopenicillins","Total tested isolates","N","2004","AT","Austria",1843.000000000,""
"Antimicrobial resistance","Escherichia coli|Aminopenicillins","Total tested isolates","N","2004","BE","Belgium",1585.000000000,""
"Antimicrobial resistance","Escherichia coli|Aminopenicillins","Total tested isolates","N","2004","BG","Bulgaria",161.000000000,""
"Antimicrobial resistance","Escherichia coli|Aminopenicillins","Total tested isolates","N","2004","CY","Cyprus",46.000000000,""
"Antimicrobial resistance","Escherichia coli|Aminopenicillins","Total tested isolates","N","2004","CZ","Czechia",1965.000000000,""
"Antimicrobial resistance","Escherichia coli|Aminopenicillins","Total tested isolates","N","2004","DE","Germany",1204.000000000,""
"Antimicrobial resistance","Escherichia coli|Aminopenicillins","Total tested isolates","N","2004","DK","Denmark",0.000000000,""
"Antimicrobial resistance","Escherichia coli|Aminopenicillins","Total tested isolates","N","2004","EE","Estonia",165.000000000,""
"Antimicrobial resistance","Escherichia coli|Aminopenicillins","Total tested isolates","N","2004","EL","Greece",986.000000000,""
"Antimicrobial resistance","Escherichia coli|Aminopenicillins","Total tested isolates","N","2004","ES","Spain",3469.000000000,""
"Antimicrobial resistance","Escherichia coli|Aminopenicillins","Total tested isolates","N","2004","FI","Finland",1400.000000000,""
"Antimicrobial resistance","Escherichia coli|Aminopenicillins","Total tested isolates","N","2004","FR","France",5595.000000000,""
"Antimicrobial resistance","Escherichia coli|Aminopenicillins","Total tested isolates","N","2004","HR","Croatia",535.000000000,""
"Antimicrobial resistance","Escherichia coli|Aminopenicillins","Total tested isolates","N","2004","HU","Hungary",953.000000000,""
"Antimicrobial resistance","Escherichia coli|Aminopenicillins","Total tested isolates","N","2004","IE","Ireland",1228.000000000,""
"Antimicrobial resistance","Escherichia coli|Aminopenicillins","Total tested isolates","N","2004","IS","Iceland",118.000000000,""
"Antimicrobial resistance","Escherichia coli|Aminopenicillins","Total tested isolates","N","2004","IT","Italy",640.000000000,""
"Antimicrobial resistance","Escherichia coli|Aminopenicillins","Total tested isolates","N","2004","LU","Luxembourg",216.000000000,""
"Antimicrobial resistance","Escherichia coli|Aminopenicillins","Total tested isolates","N","2004","MT","Malta",90.000000000,""
"Antimicrobial resistance","Escherichia coli|Aminopenicillins","Total tested isolates","N","2004","NL","Netherlands",1893.000000000,""
"Antimicrobial resistance","Escherichia coli|Aminopenicillins","Total tested isolates","N","2004","NO","Norway",1185.000000000,""
"Antimicrobial resistance","Escherichia coli|Aminopenicillins","Total tested isolates","N","2004","PL","Poland",191.000000000,""
"Antimicrobial resistance","Escherichia coli|Aminopenicillins","Total tested isolates","N","2004","PT","Portugal",756.000000000,""
"Antimicrobial resistance","Escherichia coli|Aminopenicillins","Total tested isolates","N","2004","RO","Romania",43.000000000,""
"Antimicrobial resistance","Escherichia coli|Aminopenicillins","Total tested isolates","N","2004","SE","Sweden",2020.000000000,""
"Antimicrobial resistance","Escherichia coli|Aminopenicillins","Total tested isolates","N","2004","SI","Slovenia",573.000000000,""
"Antimicrobial resistance","Escherichia coli|Aminopenicillins","Total tested isolates","N","2004","SK","Slovakia",282.000000000,""
"Antimicrobial resistance","Escherichia coli|Aminopenicillins","Total tested isolates","N","2004","UK","United Kingdom",1918.000000000,""
"Antimicrobial resistance","Escherichia coli|Aminopenicillins","Total tested isolates","N","2005","AT","Austria",2050.000000000,""
"Antimicrobial resistance","Escherichia coli|Aminopenicillins","Total tested isolates","N","2005","BE","Belgium",1579.000000000,""
"Antimicrobial resistance","Escherichia coli|Aminopenicillins","Total tested isolates","N","2005","BG","Bulgaria",189.000000000,""
"Antimicrobial resistance","Escherichia coli|Aminopenicillins","Total tested isolates","N","2005","CY","Cyprus",75.000000000,""
"Antimicrobial resistance","Escherichia coli|Aminopenicillins","Total tested isolates","N","2005","CZ","Czechia",2234.000000000,""
"Antimicrobial resistance","Escherichia coli|Aminopenicillins","Total tested isolates","N","2005","DE","Germany",959.000000000,""
"Antimicrobial resistance","Escherichia coli|Aminopenicillins","Total tested isolates","N","2005","DK","Denmark",1283.000000000,""
"Antimicrobial resistance","Escherichia coli|Aminopenicillins","Total tested isolates","N","2005","EE","Estonia",151.000000000,""
"Antimicrobial resistance","Escherichia coli|Aminopenicillins","Total tested isolates","N","2005","EL","Greece",1039.000000000,""
"Antimicrobial resistance","Escherichia coli|Aminopenicillins","Total tested isolates","N","2005","ES","Spain",2995.000000000,""
"Antimicrobial resistance","Escherichia coli|Aminopenicillins","Total tested isolates","N","2005","FI","Finland",1519.000000000,""
"Antimicrobial resistance","Escherichia coli|Aminopenicillins","Total tested isolates","N","2005","FR","France",5722.000000000,""
"Antimicrobial resistance","Escherichia coli|Aminopenicillins","Total tested isolates","N","2005","HR","Croatia",637.000000000,""
"Antimicrobial resistance","Escherichia coli|Aminopenicillins","Total tested isolates","N","2005","HU","Hungary",1030.000000000,""
"Antimicrobial resistance","Escherichia coli|Aminopenicillins","Total tested isolates","N","2005","IE","Ireland",1422.000000000,""
"Antimicrobial resistance","Escherichia coli|Aminopenicillins","Total tested isolates","N","2005","IS","Iceland",128.000000000,""
"Antimicrobial resistance","Escherichia coli|Aminopenicillins","Total tested isolates","N","2005","IT","Italy",1176.000000000,""
"Antimicrobial resistance","Escherichia coli|Aminopenicillins","Total tested isolates","N","2005","LU","Luxembourg",188.000000000,""
"Antimicrobial resistance","Escherichia coli|Aminopenicillins","Total tested isolates","N","2005","LV","Latvia",0.000000000,""
"Antimicrobial resistance","Escherichia coli|Aminopenicillins","Total tested isolates","N","2005","MT","Malta",85.000000000,""
"Antimicrobial resistance","Escherichia coli|Aminopenicillins","Total tested isolates","N","2005","NL","Netherlands",2142.000000000,""
"Antimicrobial resistance","Escherichia coli|Aminopenicillins","Total tested isolates","N","2005","NO","Norway",1326.000000000,""
"Antimicrobial resistance","Escherichia coli|Aminopenicillins","Total tested isolates","N","2005","PL","Poland",176.000000000,""
"Antimicrobial resistance","Escherichia coli|Aminopenicillins","Total tested isolates","N","2005","PT","Portugal",1171.000000000,""
"Antimicrobial resistance","Escherichia coli|Aminopenicillins","Total tested isolates","N","2005","RO","Romania",81.000000000,""
"Antimicrobial resistance","Escherichia coli|Aminopenicillins","Total tested isolates","N","2005","SE","Sweden",1906.000000000,""
"Antimicrobial resistance","Escherichia coli|Aminopenicillins","Total tested isolates","N","2005","SI","Slovenia",656.000000000,""
"Antimicrobial resistance","Escherichia coli|Aminopenicillins","Total tested isolates","N","2005","SK","Slovakia",97.000000000,""
"Antimicrobial resistance","Escherichia coli|Aminopenicillins","Total tested isolates","N","2005","UK","United Kingdom",1987.000000000,""
"Antimicrobial resistance","Escherichia coli|Aminopenicillins","Total tested isolates","N","2006","AT","Austria",2469.000000000,""
"Antimicrobial resistance","Escherichia coli|Aminopenicillins","Total tested isolates","N","2006","BE","Belgium",1618.000000000,""
"Antimicrobial resistance","Escherichia coli|Aminopenicillins","Total tested isolates","N","2006","BG","Bulgaria",177.000000000,""
"Antimicrobial resistance","Escherichia coli|Aminopenicillins","Total tested isolates","N","2006","CY","Cyprus",90.000000000,""
"Antimicrobial resistance","Escherichia coli|Aminopenicillins","Total tested isolates","N","2006","CZ","Czechia",2155.000000000,""
"Antimicrobial resistance","Escherichia coli|Aminopenicillins","Total tested isolates","N","2006","DE","Germany",849.000000000,""
"Antimicrobial resistance","Escherichia coli|Aminopenicillins","Total tested isolates","N","2006","DK","Denmark",2722.000000000,""
"Antimicrobial resistance","Escherichia coli|Aminopenicillins","Total tested isolates","N","2006","EE","Estonia",215.000000000,""
"Antimicrobial resistance","Escherichia coli|Aminopenicillins","Total tested isolates","N","2006","EL","Greece",1199.000000000,""
"Antimicrobial resistance","Escherichia coli|Aminopenicillins","Total tested isolates","N","2006","ES","Spain",3363.000000000,""
"Antimicrobial resistance","Escherichia coli|Aminopenicillins","Total tested isolates","N","2006","FI","Finland",1460.000000000,""
"Antimicrobial resistance","Escherichia coli|Aminopenicillins","Total tested isolates","N","2006","FR","France",6363.000000000,""
"Antimicrobial resistance","Escherichia coli|Aminopenicillins","Total tested isolates","N","2006","HR","Croatia",780.000000000,""
"Antimicrobial resistance","Escherichia coli|Aminopenicillins","Total tested isolates","N","2006","HU","Hungary",1125.000000000,""
"Antimicrobial resistance","Escherichia coli|Aminopenicillins","Total tested isolates","N","2006","IE","Ireland",1632.000000000,""
"Antimicrobial resistance","Escherichia coli|Aminopenicillins","Total tested isolates","N","2006","IS","Iceland",128.000000000,""
"Antimicrobial resistance","Escherichia coli|Aminopenicillins","Total tested isolates","N","2006","IT","Italy",896.000000000,""
"Antimicrobial resistance","Escherichia coli|Aminopenicillins","Total tested isolates","N","2006","LT","Lithuania",167.000000000,""
"Antimicrobial resistance","Escherichia coli|Aminopenicillins","Total tested isolates","N","2006","LU","Luxembourg",167.000000000,""
"Antimicrobial resistance","Escherichia coli|Aminopenicillins","Total tested isolates","N","2006","LV","Latvia",62.000000000,""
"Antimicrobial resistance","Escherichia coli|Aminopenicillins","Total tested isolates","N","2006","MT","Malta",94.000000000,""
"Antimicrobial resistance","Escherichia coli|Aminopenicillins","Total tested isolates","N","2006","NL","Netherlands",2897.000000000,""
"Antimicrobial resistance","Escherichia coli|Aminopenicillins","Total tested isolates","N","2006","NO","Norway",1573.000000000,""
"Antimicrobial resistance","Escherichia coli|Aminopenicillins","Total tested isolates","N","2006","PL","Poland",206.000000000,""
"Antimicrobial resistance","Escherichia coli|Aminopenicillins","Total tested isolates","N","2006","PT","Portugal",1330.000000000,""
"Antimicrobial resistance","Escherichia coli|Aminopenicillins","Total tested isolates","N","2006","RO","Romania",33.000000000,""
"Antimicrobial resistance","Escherichia coli|Aminopenicillins","Total tested isolates","N","2006","SE","Sweden",2038.000000000,""
"Antimicrobial resistance","Escherichia coli|Aminopenicillins","Total tested isolates","N","2006","SI","Slovenia",717.000000000,""
"Antimicrobial resistance","Escherichia coli|Aminopenicillins","Total tested isolates","N","2006","SK","Slovakia",0.000000000,""
"Antimicrobial resistance","Escherichia coli|Aminopenicillins","Total tested isolates","N","2006","UK","United Kingdom",2141.000000000,""
"Antimicrobial resistance","Escherichia coli|Aminopenicillins","Total tested isolates","N","2007","AT","Austria",2542.000000000,""
"Antimicrobial resistance","Escherichia coli|Aminopenicillins","Total tested isolates","N","2007","BE","Belgium",1446.000000000,""
"Antimicrobial resistance","Escherichia coli|Aminopenicillins","Total tested isolates","N","2007","BG","Bulgaria",127.000000000,""
"Antimicrobial resistance","Escherichia coli|Aminopenicillins","Total tested isolates","N","2007","CY","Cyprus",109.000000000,""
"Antimicrobial resistance","Escherichia coli|Aminopenicillins","Total tested isolates","N","2007","CZ","Czechia",2407.000000000,""
"Antimicrobial resistance","Escherichia coli|Aminopenicillins","Total tested isolates","N","2007","DE","Germany",975.000000000,""
"Antimicrobial resistance","Escherichia coli|Aminopenicillins","Total tested isolates","N","2007","DK","Denmark",2876.000000000,""
"Antimicrobial resistance","Escherichia coli|Aminopenicillins","Total tested isolates","N","2007","EE","Estonia",215.000000000,""
"Antimicrobial resistance","Escherichia coli|Aminopenicillins","Total tested isolates","N","2007","EL","Greece",1166.000000000,""
"Antimicrobial resistance","Escherichia coli|Aminopenicillins","Total tested isolates","N","2007","ES","Spain",3672.000000000,""
"Antimicrobial resistance","Escherichia coli|Aminopenicillins","Total tested isolates","N","2007","FI","Finland",1516.000000000,""
"Antimicrobial resistance","Escherichia coli|Aminopenicillins","Total tested isolates","N","2007","FR","France",8068.000000000,""
"Antimicrobial resistance","Escherichia coli|Aminopenicillins","Total tested isolates","N","2007","HR","Croatia",860.000000000,""
"Antimicrobial resistance","Escherichia coli|Aminopenicillins","Total tested isolates","N","2007","HU","Hungary",1169.000000000,""
"Antimicrobial resistance","Escherichia coli|Aminopenicillins","Total tested isolates","N","2007","IE","Ireland",1748.000000000,""
"Antimicrobial resistance","Escherichia coli|Aminopenicillins","Total tested isolates","N","2007","IS","Iceland",104.000000000,""
"Antimicrobial resistance","Escherichia coli|Aminopenicillins","Total tested isolates","N","2007","IT","Italy",1049.000000000,""
"Antimicrobial resistance","Escherichia coli|Aminopenicillins","Total tested isolates","N","2007","LT","Lithuania",234.000000000,""
"Antimicrobial resistance","Escherichia coli|Aminopenicillins","Total tested isolates","N","2007","LU","Luxembourg",275.000000000,""
"Antimicrobial resistance","Escherichia coli|Aminopenicillins","Total tested isolates","N","2007","LV","Latvia",76.000000000,""
"Antimicrobial resistance","Escherichia coli|Aminopenicillins","Total tested isolates","N","2007","MT","Malta",116.000000000,""
"Antimicrobial resistance","Escherichia coli|Aminopenicillins","Total tested isolates","N","2007","NL","Netherlands",2789.000000000,""
"Antimicrobial resistance","Escherichia coli|Aminopenicillins","Total tested isolates","N","2007","NO","Norway",1712.000000000,""
"Antimicrobial resistance","Escherichia coli|Aminopenicillins","Total tested isolates","N","2007","PL","Poland",256.000000000,""
"Antimicrobial resistance","Escherichia coli|Aminopenicillins","Total tested isolates","N","2007","PT","Portugal",1432.000000000,""
"Antimicrobial resistance","Escherichia coli|Aminopenicillins","Total tested isolates","N","2007","RO","Romania",49.000000000,""
"Antimicrobial resistance","Escherichia coli|Aminopenicillins","Total tested isolates","N","2007","SE","Sweden",2041.000000000,""
"Antimicrobial resistance","Escherichia coli|Aminopenicillins","Total tested isolates","N","2007","SI","Slovenia",851.000000000,""
"Antimicrobial resistance","Escherichia coli|Aminopenicillins","Total tested isolates","N","2007","SK","Slovakia",0.000000000,""
"Antimicrobial resistance","Escherichia coli|Aminopenicillins","Total tested isolates","N","2007","UK","United Kingdom",2105.000000000,""
"Antimicrobial resistance","Escherichia coli|Aminopenicillins","Total tested isolates","N","2008","AT","Austria",2979.000000000,""
"Antimicrobial resistance","Escherichia coli|Aminopenicillins","Total tested isolates","N","2008","BE","Belgium",1425.000000000,""
"Antimicrobial resistance","Escherichia coli|Aminopenicillins","Total tested isolates","N","2008","BG","Bulgaria",128.000000000,""
"Antimicrobial resistance","Escherichia coli|Aminopenicillins","Total tested isolates","N","2008","CY","Cyprus",119.000000000,""
"Antimicrobial resistance","Escherichia coli|Aminopenicillins","Total tested isolates","N","2008","CZ","Czechia",2738.000000000,""
"Antimicrobial resistance","Escherichia coli|Aminopenicillins","Total tested isolates","N","2008","DE","Germany",1000.000000000,""
"Antimicrobial resistance","Escherichia coli|Aminopenicillins","Total tested isolates","N","2008","DK","Denmark",3282.000000000,""
"Antimicrobial resistance","Escherichia coli|Aminopenicillins","Total tested isolates","N","2008","EE","Estonia",266.000000000,""
"Antimicrobial resistance","Escherichia coli|Aminopenicillins","Total tested isolates","N","2008","EL","Greece",1428.000000000,""
"Antimicrobial resistance","Escherichia coli|Aminopenicillins","Total tested isolates","N","2008","ES","Spain",3621.000000000,""
"Antimicrobial resistance","Escherichia coli|Aminopenicillins","Total tested isolates","N","2008","FI","Finland",1768.000000000,""
"Antimicrobial resistance","Escherichia coli|Aminopenicillins","Total tested isolates","N","2008","FR","France",7979.000000000,""
"Antimicrobial resistance","Escherichia coli|Aminopenicillins","Total tested isolates","N","2008","HR","Croatia",914.000000000,""
"Antimicrobial resistance","Escherichia coli|Aminopenicillins","Total tested isolates","N","2008","HU","Hungary",1043.000000000,""
"Antimicrobial resistance","Escherichia coli|Aminopenicillins","Total tested isolates","N","2008","IE","Ireland",1869.000000000,""
"Antimicrobial resistance","Escherichia coli|Aminopenicillins","Total tested isolates","N","2008","IS","Iceland",123.000000000,""
"Antimicrobial resistance","Escherichia coli|Aminopenicillins","Total tested isolates","N","2008","IT","Italy",943.000000000,""
"Antimicrobial resistance","Escherichia coli|Aminopenicillins","Total tested isolates","N","2008","LT","Lithuania",228.000000000,""
"Antimicrobial resistance","Escherichia coli|Aminopenicillins","Total tested isolates","N","2008","LU","Luxembourg",302.000000000,""
"Antimicrobial resistance","Escherichia coli|Aminopenicillins","Total tested isolates","N","2008","LV","Latvia",90.000000000,""
"Antimicrobial resistance","Escherichia coli|Aminopenicillins","Total tested isolates","N","2008","MT","Malta",128.000000000,""
"Antimicrobial resistance","Escherichia coli|Aminopenicillins","Total tested isolates","N","2008","NL","Netherlands",2274.000000000,""
"Antimicrobial resistance","Escherichia coli|Aminopenicillins","Total tested isolates","N","2008","NO","Norway",1798.000000000,""
"Antimicrobial resistance","Escherichia coli|Aminopenicillins","Total tested isolates","N","2008","PL","Poland",84.000000000,""
"Antimicrobial resistance","Escherichia coli|Aminopenicillins","Total tested isolates","N","2008","PT","Portugal",1620.000000000,""
"Antimicrobial resistance","Escherichia coli|Aminopenicillins","Total tested isolates","N","2008","RO","Romania",31.000000000,""
"Antimicrobial resistance","Escherichia coli|Aminopenicillins","Total tested isolates","N","2008","SE","Sweden",2229.000000000,""
"Antimicrobial resistance","Escherichia coli|Aminopenicillins","Total tested isolates","N","2008","SI","Slovenia",874.000000000,""
"Antimicrobial resistance","Escherichia coli|Aminopenicillins","Total tested isolates","N","2008","SK","Slovakia",0.000000000,""
"Antimicrobial resistance","Escherichia coli|Aminopenicillins","Total tested isolates","N","2008","UK","United Kingdom",1763.000000000,""
"Antimicrobial resistance","Escherichia coli|Aminopenicillins","Total tested isolates","N","2009","AT","Austria",2605.000000000,""
"Antimicrobial resistance","Escherichia coli|Aminopenicillins","Total tested isolates","N","2009","BE","Belgium",1607.000000000,""
"Antimicrobial resistance","Escherichia coli|Aminopenicillins","Total tested isolates","N","2009","BG","Bulgaria",181.000000000,""
"Antimicrobial resistance","Escherichia coli|Aminopenicillins","Total tested isolates","N","2009","CY","Cyprus",136.000000000,""
"Antimicrobial resistance","Escherichia coli|Aminopenicillins","Total tested isolates","N","2009","CZ","Czechia",2759.000000000,""
"Antimicrobial resistance","Escherichia coli|Aminopenicillins","Total tested isolates","N","2009","DE","Germany",2158.000000000,""
"Antimicrobial resistance","Escherichia coli|Aminopenicillins","Total tested isolates","N","2009","DK","Denmark",3531.000000000,""
"Antimicrobial resistance","Escherichia coli|Aminopenicillins","Total tested isolates","N","2009","EE","Estonia",319.000000000,""
"Antimicrobial resistance","Escherichia coli|Aminopenicillins","Total tested isolates","N","2009","EL","Greece",1694.000000000,""
"Antimicrobial resistance","Escherichia coli|Aminopenicillins","Total tested isolates","N","2009","ES","Spain",3821.000000000,""
"Antimicrobial resistance","Escherichia coli|Aminopenicillins","Total tested isolates","N","2009","FI","Finland",1906.000000000,""
"Antimicrobial resistance","Escherichia coli|Aminopenicillins","Total tested isolates","N","2009","FR","France",8436.000000000,""
"Antimicrobial resistance","Escherichia coli|Aminopenicillins","Total tested isolates","N","2009","HU","Hungary",1047.000000000,""
"Antimicrobial resistance","Escherichia coli|Aminopenicillins","Total tested isolates","N","2009","IE","Ireland",1987.000000000,""
"Antimicrobial resistance","Escherichia coli|Aminopenicillins","Total tested isolates","N","2009","IS","Iceland",109.000000000,""
"Antimicrobial resistance","Escherichia coli|Aminopenicillins","Total tested isolates","N","2009","IT","Italy",764.000000000,""
"Antimicrobial resistance","Escherichia coli|Aminopenicillins","Total tested isolates","N","2009","LT","Lithuania",291.000000000,""
"Antimicrobial resistance","Escherichia coli|Aminopenicillins","Total tested isolates","N","2009","LU","Luxembourg",299.000000000,""
"Antimicrobial resistance","Escherichia coli|Aminopenicillins","Total tested isolates","N","2009","LV","Latvia",86.000000000,""
"Antimicrobial resistance","Escherichia coli|Aminopenicillins","Total tested isolates","N","2009","MT","Malta",158.000000000,""
"Antimicrobial resistance","Escherichia coli|Aminopenicillins","Total tested isolates","N","2009","NL","Netherlands",2359.000000000,""
"Antimicrobial resistance","Escherichia coli|Aminopenicillins","Total tested isolates","N","2009","NO","Norway",1845.000000000,""
"Antimicrobial resistance","Escherichia coli|Aminopenicillins","Total tested isolates","N","2009","PL","Poland",487.000000000,""
"Antimicrobial resistance","Escherichia coli|Aminopenicillins","Total tested isolates","N","2009","PT","Portugal",1919.000000000,""
"Antimicrobial resistance","Escherichia coli|Aminopenicillins","Total tested isolates","N","2009","RO","Romania",20.000000000,""
"Antimicrobial resistance","Escherichia coli|Aminopenicillins","Total tested isolates","N","2009","SE","Sweden",0.000000000,""
"Antimicrobial resistance","Escherichia coli|Aminopenicillins","Total tested isolates","N","2009","SI","Slovenia",893.000000000,""
"Antimicrobial resistance","Escherichia coli|Aminopenicillins","Total tested isolates","N","2009","UK","United Kingdom",3824.000000000,""
"Antimicrobial resistance","Escherichia coli|Aminopenicillins","Total tested isolates","N","2010","AT","Austria",2928.000000000,""
"Antimicrobial resistance","Escherichia coli|Aminopenicillins","Total tested isolates","N","2010","BE","Belgium",1957.000000000,""
"Antimicrobial resistance","Escherichia coli|Aminopenicillins","Total tested isolates","N","2010","BG","Bulgaria",142.000000000,""
"Antimicrobial resistance","Escherichia coli|Aminopenicillins","Total tested isolates","N","2010","CY","Cyprus",137.000000000,""
"Antimicrobial resistance","Escherichia coli|Aminopenicillins","Total tested isolates","N","2010","CZ","Czechia",2481.000000000,""
"Antimicrobial resistance","Escherichia coli|Aminopenicillins","Total tested isolates","N","2010","DE","Germany",3022.000000000,""
"Antimicrobial resistance","Escherichia coli|Aminopenicillins","Total tested isolates","N","2010","DK","Denmark",3412.000000000,""
"Antimicrobial resistance","Escherichia coli|Aminopenicillins","Total tested isolates","N","2010","EE","Estonia",259.000000000,""
"Antimicrobial resistance","Escherichia coli|Aminopenicillins","Total tested isolates","N","2010","EL","Greece",1474.000000000,""
"Antimicrobial resistance","Escherichia coli|Aminopenicillins","Total tested isolates","N","2010","ES","Spain",5696.000000000,""
"Antimicrobial resistance","Escherichia coli|Aminopenicillins","Total tested isolates","N","2010","FI","Finland",2165.000000000,""
"Antimicrobial resistance","Escherichia coli|Aminopenicillins","Total tested isolates","N","2010","FR","France",9017.000000000,""
"Antimicrobial resistance","Escherichia coli|Aminopenicillins","Total tested isolates","N","2010","HR","Croatia",625.000000000,""
"Antimicrobial resistance","Escherichia coli|Aminopenicillins","Total tested isolates","N","2010","HU","Hungary",1328.000000000,""
"Antimicrobial resistance","Escherichia coli|Aminopenicillins","Total tested isolates","N","2010","IE","Ireland",2121.000000000,""
"Antimicrobial resistance","Escherichia coli|Aminopenicillins","Total tested isolates","N","2010","IS","Iceland",100.000000000,""
"Antimicrobial resistance","Escherichia coli|Aminopenicillins","Total tested isolates","N","2010","IT","Italy",2288.000000000,""
"Antimicrobial resistance","Escherichia coli|Aminopenicillins","Total tested isolates","N","2010","LT","Lithuania",329.000000000,""
"Antimicrobial resistance","Escherichia coli|Aminopenicillins","Total tested isolates","N","2010","LU","Luxembourg",353.000000000,""
"Antimicrobial resistance","Escherichia coli|Aminopenicillins","Total tested isolates","N","2010","LV","Latvia",98.000000000,""
"Antimicrobial resistance","Escherichia coli|Aminopenicillins","Total tested isolates","N","2010","MT","Malta",192.000000000,""
"Antimicrobial resistance","Escherichia coli|Aminopenicillins","Total tested isolates","N","2010","NL","Netherlands",4788.000000000,""
"Antimicrobial resistance","Escherichia coli|Aminopenicillins","Total tested isolates","N","2010","NO","Norway",2268.000000000,""
"Antimicrobial resistance","Escherichia coli|Aminopenicillins","Total tested isolates","N","2010","PL","Poland",616.000000000,""
"Antimicrobial resistance","Escherichia coli|Aminopenicillins","Total tested isolates","N","2010","PT","Portugal",1976.000000000,""
"Antimicrobial resistance","Escherichia coli|Aminopenicillins","Total tested isolates","N","2010","RO","Romania",23.000000000,""
"Antimicrobial resistance","Escherichia coli|Aminopenicillins","Total tested isolates","N","2010","SE","Sweden",940.000000000,""
"Antimicrobial resistance","Escherichia coli|Aminopenicillins","Total tested isolates","N","2010","SI","Slovenia",941.000000000,""
"Antimicrobial resistance","Escherichia coli|Aminopenicillins","Total tested isolates","N","2010","UK","United Kingdom",4429.000000000,""
"Antimicrobial resistance","Escherichia coli|Aminopenicillins","Total tested isolates","N","2011","AT","Austria",3148.000000000,""
"Antimicrobial resistance","Escherichia coli|Aminopenicillins","Total tested isolates","N","2011","BE","Belgium",3507.000000000,""
"Antimicrobial resistance","Escherichia coli|Aminopenicillins","Total tested isolates","N","2011","BG","Bulgaria",152.000000000,""
"Antimicrobial resistance","Escherichia coli|Aminopenicillins","Total tested isolates","N","2011","CY","Cyprus",134.000000000,""
"Antimicrobial resistance","Escherichia coli|Aminopenicillins","Total tested isolates","N","2011","CZ","Czechia",2683.000000000,""
"Antimicrobial resistance","Escherichia coli|Aminopenicillins","Total tested isolates","N","2011","DE","Germany",3638.000000000,""
"Antimicrobial resistance","Escherichia coli|Aminopenicillins","Total tested isolates","N","2011","DK","Denmark",3638.000000000,""
"Antimicrobial resistance","Escherichia coli|Aminopenicillins","Total tested isolates","N","2011","EE","Estonia",0.000000000,""
"Antimicrobial resistance","Escherichia coli|Aminopenicillins","Total tested isolates","N","2011","EL","Greece",1297.000000000,""
"Antimicrobial resistance","Escherichia coli|Aminopenicillins","Total tested isolates","N","2011","ES","Spain",5592.000000000,""
"Antimicrobial resistance","Escherichia coli|Aminopenicillins","Total tested isolates","N","2011","FI","Finland",2264.000000000,""
"Antimicrobial resistance","Escherichia coli|Aminopenicillins","Total tested isolates","N","2011","FR","France",8784.000000000,""
"Antimicrobial resistance","Escherichia coli|Aminopenicillins","Total tested isolates","N","2011","HR","Croatia",975.000000000,""
"Antimicrobial resistance","Escherichia coli|Aminopenicillins","Total tested isolates","N","2011","HU","Hungary",991.000000000,""
"Antimicrobial resistance","Escherichia coli|Aminopenicillins","Total tested isolates","N","2011","IE","Ireland",2118.000000000,""
"Antimicrobial resistance","Escherichia coli|Aminopenicillins","Total tested isolates","N","2011","IS","Iceland",129.000000000,""
"Antimicrobial resistance","Escherichia coli|Aminopenicillins","Total tested isolates","N","2011","IT","Italy",1530.000000000,""
"Antimicrobial resistance","Escherichia coli|Aminopenicillins","Total tested isolates","N","2011","LT","Lithuania",383.000000000,""
"Antimicrobial resistance","Escherichia coli|Aminopenicillins","Total tested isolates","N","2011","LU","Luxembourg",353.000000000,""
"Antimicrobial resistance","Escherichia coli|Aminopenicillins","Total tested isolates","N","2011","LV","Latvia",130.000000000,""
"Antimicrobial resistance","Escherichia coli|Aminopenicillins","Total tested isolates","N","2011","MT","Malta",219.000000000,""
"Antimicrobial resistance","Escherichia coli|Aminopenicillins","Total tested isolates","N","2011","NL","Netherlands",5352.000000000,""
"Antimicrobial resistance","Escherichia coli|Aminopenicillins","Total tested isolates","N","2011","NO","Norway",2617.000000000,""
"Antimicrobial resistance","Escherichia coli|Aminopenicillins","Total tested isolates","N","2011","PL","Poland",934.000000000,""
"Antimicrobial resistance","Escherichia coli|Aminopenicillins","Total tested isolates","N","2011","PT","Portugal",1963.000000000,""
"Antimicrobial resistance","Escherichia coli|Aminopenicillins","Total tested isolates","N","2011","RO","Romania",24.000000000,""
"Antimicrobial resistance","Escherichia coli|Aminopenicillins","Total tested isolates","N","2011","SE","Sweden",352.000000000,""
"Antimicrobial resistance","Escherichia coli|Aminopenicillins","Total tested isolates","N","2011","SI","Slovenia",1002.000000000,""
"Antimicrobial resistance","Escherichia coli|Aminopenicillins","Total tested isolates","N","2011","SK","Slovakia",610.000000000,""
"Antimicrobial resistance","Escherichia coli|Aminopenicillins","Total tested isolates","N","2011","UK","United Kingdom",5074.000000000,""
"Antimicrobial resistance","Escherichia coli|Aminopenicillins","Total tested isolates","N","2012","AT","Austria",3625.000000000,""
"Antimicrobial resistance","Escherichia coli|Aminopenicillins","Total tested isolates","N","2012","BE","Belgium",3898.000000000,""
"Antimicrobial resistance","Escherichia coli|Aminopenicillins","Total tested isolates","N","2012","BG","Bulgaria",207.000000000,""
"Antimicrobial resistance","Escherichia coli|Aminopenicillins","Total tested isolates","N","2012","CY","Cyprus",176.000000000,""
"Antimicrobial resistance","Escherichia coli|Aminopenicillins","Total tested isolates","N","2012","CZ","Czechia",2811.000000000,""
"Antimicrobial resistance","Escherichia coli|Aminopenicillins","Total tested isolates","N","2012","DE","Germany",4162.000000000,""
"Antimicrobial resistance","Escherichia coli|Aminopenicillins","Total tested isolates","N","2012","DK","Denmark",3708.000000000,""
"Antimicrobial resistance","Escherichia coli|Aminopenicillins","Total tested isolates","N","2012","EE","Estonia",216.000000000,""
"Antimicrobial resistance","Escherichia coli|Aminopenicillins","Total tested isolates","N","2012","EL","Greece",1270.000000000,""
"Antimicrobial resistance","Escherichia coli|Aminopenicillins","Total tested isolates","N","2012","ES","Spain",5672.000000000,""
"Antimicrobial resistance","Escherichia coli|Aminopenicillins","Total tested isolates","N","2012","FI","Finland",2090.000000000,""
"Antimicrobial resistance","Escherichia coli|Aminopenicillins","Total tested isolates","N","2012","FR","France",9599.000000000,""
"Antimicrobial resistance","Escherichia coli|Aminopenicillins","Total tested isolates","N","2012","HR","Croatia",904.000000000,""
"Antimicrobial resistance","Escherichia coli|Aminopenicillins","Total tested isolates","N","2012","HU","Hungary",1328.000000000,""
"Antimicrobial resistance","Escherichia coli|Aminopenicillins","Total tested isolates","N","2012","IE","Ireland",2329.000000000,""
"Antimicrobial resistance","Escherichia coli|Aminopenicillins","Total tested isolates","N","2012","IS","Iceland",131.000000000,""
"Antimicrobial resistance","Escherichia coli|Aminopenicillins","Total tested isolates","N","2012","IT","Italy",2123.000000000,""
"Antimicrobial resistance","Escherichia coli|Aminopenicillins","Total tested isolates","N","2012","LT","Lithuania",461.000000000,""
"Antimicrobial resistance","Escherichia coli|Aminopenicillins","Total tested isolates","N","2012","LU","Luxembourg",335.000000000,""
"Antimicrobial resistance","Escherichia coli|Aminopenicillins","Total tested isolates","N","2012","LV","Latvia",153.000000000,""
"Antimicrobial resistance","Escherichia coli|Aminopenicillins","Total tested isolates","N","2012","MT","Malta",200.000000000,""
"Antimicrobial resistance","Escherichia coli|Aminopenicillins","Total tested isolates","N","2012","NL","Netherlands",5911.000000000,""
"Antimicrobial resistance","Escherichia coli|Aminopenicillins","Total tested isolates","N","2012","NO","Norway",2995.000000000,""
"Antimicrobial resistance","Escherichia coli|Aminopenicillins","Total tested isolates","N","2012","PL","Poland",736.000000000,""
"Antimicrobial resistance","Escherichia coli|Aminopenicillins","Total tested isolates","N","2012","PT","Portugal",2152.000000000,""
"Antimicrobial resistance","Escherichia coli|Aminopenicillins","Total tested isolates","N","2012","RO","Romania",185.000000000,""
"Antimicrobial resistance","Escherichia coli|Aminopenicillins","Total tested isolates","N","2012","SE","Sweden",230.000000000,""
"Antimicrobial resistance","Escherichia coli|Aminopenicillins","Total tested isolates","N","2012","SI","Slovenia",1168.000000000,""
"Antimicrobial resistance","Escherichia coli|Aminopenicillins","Total tested isolates","N","2012","SK","Slovakia",596.000000000,""
"Antimicrobial resistance","Escherichia coli|Aminopenicillins","Total tested isolates","N","2012","UK","United Kingdom",5846.000000000,""
"Antimicrobial resistance","Escherichia coli|Aminopenicillins","Total tested isolates","N","2013","AT","Austria",4379.000000000,""
"Antimicrobial resistance","Escherichia coli|Aminopenicillins","Total tested isolates","N","2013","BE","Belgium",4350.000000000,""
"Antimicrobial resistance","Escherichia coli|Aminopenicillins","Total tested isolates","N","2013","BG","Bulgaria",160.000000000,""
"Antimicrobial resistance","Escherichia coli|Aminopenicillins","Total tested isolates","N","2013","CY","Cyprus",162.000000000,""
"Antimicrobial resistance","Escherichia coli|Aminopenicillins","Total tested isolates","N","2013","CZ","Czechia",2954.000000000,""
"Antimicrobial resistance","Escherichia coli|Aminopenicillins","Total tested isolates","N","2013","DE","Germany",5306.000000000,""
"Antimicrobial resistance","Escherichia coli|Aminopenicillins","Total tested isolates","N","2013","DK","Denmark",3965.000000000,""
"Antimicrobial resistance","Escherichia coli|Aminopenicillins","Total tested isolates","N","2013","EE","Estonia",235.000000000,""
"Antimicrobial resistance","Escherichia coli|Aminopenicillins","Total tested isolates","N","2013","EL","Greece",1149.000000000,""
"Antimicrobial resistance","Escherichia coli|Aminopenicillins","Total tested isolates","N","2013","ES","Spain",5720.000000000,""
"Antimicrobial resistance","Escherichia coli|Aminopenicillins","Total tested isolates","N","2013","FI","Finland",2124.000000000,""
"Antimicrobial resistance","Escherichia coli|Aminopenicillins","Total tested isolates","N","2013","FR","France",10146.000000000,""
"Antimicrobial resistance","Escherichia coli|Aminopenicillins","Total tested isolates","N","2013","HR","Croatia",1036.000000000,""
"Antimicrobial resistance","Escherichia coli|Aminopenicillins","Total tested isolates","N","2013","HU","Hungary",1411.000000000,""
"Antimicrobial resistance","Escherichia coli|Aminopenicillins","Total tested isolates","N","2013","IE","Ireland",2465.000000000,""
"Antimicrobial resistance","Escherichia coli|Aminopenicillins","Total tested isolates","N","2013","IS","Iceland",121.000000000,""
"Antimicrobial resistance","Escherichia coli|Aminopenicillins","Total tested isolates","N","2013","IT","Italy",2356.000000000,""
"Antimicrobial resistance","Escherichia coli|Aminopenicillins","Total tested isolates","N","2013","LT","Lithuania",434.000000000,""
"Antimicrobial resistance","Escherichia coli|Aminopenicillins","Total tested isolates","N","2013","LU","Luxembourg",299.000000000,""
"Antimicrobial resistance","Escherichia coli|Aminopenicillins","Total tested isolates","N","2013","LV","Latvia",135.000000000,""
"Antimicrobial resistance","Escherichia coli|Aminopenicillins","Total tested isolates","N","2013","MT","Malta",242.000000000,""
"Antimicrobial resistance","Escherichia coli|Aminopenicillins","Total tested isolates","N","2013","NL","Netherlands",6666.000000000,""
"Antimicrobial resistance","Escherichia coli|Aminopenicillins","Total tested isolates","N","2013","NO","Norway",3016.000000000,""
"Antimicrobial resistance","Escherichia coli|Aminopenicillins","Total tested isolates","N","2013","PL","Poland",277.000000000,""
"Antimicrobial resistance","Escherichia coli|Aminopenicillins","Total tested isolates","N","2013","PT","Portugal",2677.000000000,""
"Antimicrobial resistance","Escherichia coli|Aminopenicillins","Total tested isolates","N","2013","RO","Romania",279.000000000,""
"Antimicrobial resistance","Escherichia coli|Aminopenicillins","Total tested isolates","N","2013","SE","Sweden",452.000000000,""
"Antimicrobial resistance","Escherichia coli|Aminopenicillins","Total tested isolates","N","2013","SI","Slovenia",1224.000000000,""
"Antimicrobial resistance","Escherichia coli|Aminopenicillins","Total tested isolates","N","2013","SK","Slovakia",786.000000000,""
"Antimicrobial resistance","Escherichia coli|Aminopenicillins","Total tested isolates","N","2013","UK","United Kingdom",6648.000000000,""
"Antimicrobial resistance","Escherichia coli|Aminopenicillins","Total tested isolates","N","2014","AT","Austria",4742.000000000,""
"Antimicrobial resistance","Escherichia coli|Aminopenicillins","Total tested isolates","N","2014","BE","Belgium",2876.000000000,""
"Antimicrobial resistance","Escherichia coli|Aminopenicillins","Total tested isolates","N","2014","BG","Bulgaria",159.000000000,""
"Antimicrobial resistance","Escherichia coli|Aminopenicillins","Total tested isolates","N","2014","CY","Cyprus",153.000000000,""
"Antimicrobial resistance","Escherichia coli|Aminopenicillins","Total tested isolates","N","2014","CZ","Czechia",2978.000000000,""
"Antimicrobial resistance","Escherichia coli|Aminopenicillins","Total tested isolates","N","2014","DE","Germany",5543.000000000,""
"Antimicrobial resistance","Escherichia coli|Aminopenicillins","Total tested isolates","N","2014","DK","Denmark",4490.000000000,""
"Antimicrobial resistance","Escherichia coli|Aminopenicillins","Total tested isolates","N","2014","EE","Estonia",261.000000000,""
"Antimicrobial resistance","Escherichia coli|Aminopenicillins","Total tested isolates","N","2014","EL","Greece",1057.000000000,""
"Antimicrobial resistance","Escherichia coli|Aminopenicillins","Total tested isolates","N","2014","ES","Spain",5817.000000000,""
"Antimicrobial resistance","Escherichia coli|Aminopenicillins","Total tested isolates","N","2014","FI","Finland",2365.000000000,""
"Antimicrobial resistance","Escherichia coli|Aminopenicillins","Total tested isolates","N","2014","FR","France",10325.000000000,""
"Antimicrobial resistance","Escherichia coli|Aminopenicillins","Total tested isolates","N","2014","HR","Croatia",1077.000000000,""
"Antimicrobial resistance","Escherichia coli|Aminopenicillins","Total tested isolates","N","2014","HU","Hungary",1603.000000000,""
"Antimicrobial resistance","Escherichia coli|Aminopenicillins","Total tested isolates","N","2014","IE","Ireland",2694.000000000,""
"Antimicrobial resistance","Escherichia coli|Aminopenicillins","Total tested isolates","N","2014","IS","Iceland",151.000000000,""
"Antimicrobial resistance","Escherichia coli|Aminopenicillins","Total tested isolates","N","2014","IT","Italy",2178.000000000,""
"Antimicrobial resistance","Escherichia coli|Aminopenicillins","Total tested isolates","N","2014","LT","Lithuania",590.000000000,""
"Antimicrobial resistance","Escherichia coli|Aminopenicillins","Total tested isolates","N","2014","LU","Luxembourg",371.000000000,""
"Antimicrobial resistance","Escherichia coli|Aminopenicillins","Total tested isolates","N","2014","LV","Latvia",182.000000000,""
"Antimicrobial resistance","Escherichia coli|Aminopenicillins","Total tested isolates","N","2014","MT","Malta",268.000000000,""
"Antimicrobial resistance","Escherichia coli|Aminopenicillins","Total tested isolates","N","2014","NL","Netherlands",7126.000000000,""
"Antimicrobial resistance","Escherichia coli|Aminopenicillins","Total tested isolates","N","2014","NO","Norway",3404.000000000,""
"Antimicrobial resistance","Escherichia coli|Aminopenicillins","Total tested isolates","N","2014","PL","Poland",268.000000000,""
"Antimicrobial resistance","Escherichia coli|Aminopenicillins","Total tested isolates","N","2014","PT","Portugal",4899.000000000,""
"Antimicrobial resistance","Escherichia coli|Aminopenicillins","Total tested isolates","N","2014","RO","Romania",253.000000000,""
"Antimicrobial resistance","Escherichia coli|Aminopenicillins","Total tested isolates","N","2014","SE","Sweden",0.000000000,""
"Antimicrobial resistance","Escherichia coli|Aminopenicillins","Total tested isolates","N","2014","SI","Slovenia",1216.000000000,""
"Antimicrobial resistance","Escherichia coli|Aminopenicillins","Total tested isolates","N","2014","SK","Slovakia",866.000000000,""
"Antimicrobial resistance","Escherichia coli|Aminopenicillins","Total tested isolates","N","2014","UK","United Kingdom",6637.000000000,""
"Antimicrobial resistance","Escherichia coli|Aminopenicillins","Total tested isolates","N","2015","AT","Austria",4880.000000000,""
"Antimicrobial resistance","Escherichia coli|Aminopenicillins","Total tested isolates","N","2015","BE","Belgium",2674.000000000,""
"Antimicrobial resistance","Escherichia coli|Aminopenicillins","Total tested isolates","N","2015","BG","Bulgaria",143.000000000,""
"Antimicrobial resistance","Escherichia coli|Aminopenicillins","Total tested isolates","N","2015","CY","Cyprus",123.000000000,""
"Antimicrobial resistance","Escherichia coli|Aminopenicillins","Total tested isolates","N","2015","CZ","Czechia",3172.000000000,""
"Antimicrobial resistance","Escherichia coli|Aminopenicillins","Total tested isolates","N","2015","DE","Germany",8358.000000000,""
"Antimicrobial resistance","Escherichia coli|Aminopenicillins","Total tested isolates","N","2015","DK","Denmark",4594.000000000,""
"Antimicrobial resistance","Escherichia coli|Aminopenicillins","Total tested isolates","N","2015","EE","Estonia",196.000000000,""
"Antimicrobial resistance","Escherichia coli|Aminopenicillins","Total tested isolates","N","2015","EL","Greece",1079.000000000,""
"Antimicrobial resistance","Escherichia coli|Aminopenicillins","Total tested isolates","N","2015","ES","Spain",6427.000000000,""
"Antimicrobial resistance","Escherichia coli|Aminopenicillins","Total tested isolates","N","2015","FI","Finland",2472.000000000,""
"Antimicrobial resistance","Escherichia coli|Aminopenicillins","Total tested isolates","N","2015","FR","France",10946.000000000,""
"Antimicrobial resistance","Escherichia coli|Aminopenicillins","Total tested isolates","N","2015","HR","Croatia",1042.000000000,""
"Antimicrobial resistance","Escherichia coli|Aminopenicillins","Total tested isolates","N","2015","HU","Hungary",1970.000000000,""
"Antimicrobial resistance","Escherichia coli|Aminopenicillins","Total tested isolates","N","2015","IE","Ireland",2646.000000000,""
"Antimicrobial resistance","Escherichia coli|Aminopenicillins","Total tested isolates","N","2015","IS","Iceland",173.000000000,""
"Antimicrobial resistance","Escherichia coli|Aminopenicillins","Total tested isolates","N","2015","IT","Italy",3385.000000000,""
"Antimicrobial resistance","Escherichia coli|Aminopenicillins","Total tested isolates","N","2015","LT","Lithuania",582.000000000,""
"Antimicrobial resistance","Escherichia coli|Aminopenicillins","Total tested isolates","N","2015","LU","Luxembourg",347.000000000,""
"Antimicrobial resistance","Escherichia coli|Aminopenicillins","Total tested isolates","N","2015","LV","Latvia",192.000000000,""
"Antimicrobial resistance","Escherichia coli|Aminopenicillins","Total tested isolates","N","2015","MT","Malta",238.000000000,""
"Antimicrobial resistance","Escherichia coli|Aminopenicillins","Total tested isolates","N","2015","NL","Netherlands",7070.000000000,""
"Antimicrobial resistance","Escherichia coli|Aminopenicillins","Total tested isolates","N","2015","NO","Norway",3299.000000000,""
"Antimicrobial resistance","Escherichia coli|Aminopenicillins","Total tested isolates","N","2015","PL","Poland",346.000000000,""
"Antimicrobial resistance","Escherichia coli|Aminopenicillins","Total tested isolates","N","2015","PT","Portugal",5177.000000000,""
"Antimicrobial resistance","Escherichia coli|Aminopenicillins","Total tested isolates","N","2015","RO","Romania",259.000000000,""
"Antimicrobial resistance","Escherichia coli|Aminopenicillins","Total tested isolates","N","2015","SE","Sweden",396.000000000,""
"Antimicrobial resistance","Escherichia coli|Aminopenicillins","Total tested isolates","N","2015","SI","Slovenia",1326.000000000,""
"Antimicrobial resistance","Escherichia coli|Aminopenicillins","Total tested isolates","N","2015","SK","Slovakia",878.000000000,""
"Antimicrobial resistance","Escherichia coli|Aminopenicillins","Total tested isolates","N","2015","UK","United Kingdom",5117.000000000,""
"Antimicrobial resistance","Escherichia coli|Aminopenicillins","Total tested isolates","N","2016","AT","Austria",5094.000000000,""
"Antimicrobial resistance","Escherichia coli|Aminopenicillins","Total tested isolates","N","2016","BE","Belgium",3736.000000000,""
"Antimicrobial resistance","Escherichia coli|Aminopenicillins","Total tested isolates","N","2016","BG","Bulgaria",186.000000000,""
"Antimicrobial resistance","Escherichia coli|Aminopenicillins","Total tested isolates","N","2016","CY","Cyprus",149.000000000,""
"Antimicrobial resistance","Escherichia coli|Aminopenicillins","Total tested isolates","N","2016","CZ","Czechia",3055.000000000,""
"Antimicrobial resistance","Escherichia coli|Aminopenicillins","Total tested isolates","N","2016","DE","Germany",15957.000000000,""
"Antimicrobial resistance","Escherichia coli|Aminopenicillins","Total tested isolates","N","2016","DK","Denmark",4698.000000000,""
"Antimicrobial resistance","Escherichia coli|Aminopenicillins","Total tested isolates","N","2016","EE","Estonia",471.000000000,""
"Antimicrobial resistance","Escherichia coli|Aminopenicillins","Total tested isolates","N","2016","EL","Greece",1170.000000000,""
"Antimicrobial resistance","Escherichia coli|Aminopenicillins","Total tested isolates","N","2016","ES","Spain",6795.000000000,""
"Antimicrobial resistance","Escherichia coli|Aminopenicillins","Total tested isolates","N","2016","FI","Finland",2690.000000000,""
"Antimicrobial resistance","Escherichia coli|Aminopenicillins","Total tested isolates","N","2016","FR","France",11248.000000000,""
"Antimicrobial resistance","Escherichia coli|Aminopenicillins","Total tested isolates","N","2016","HR","Croatia",1043.000000000,""
"Antimicrobial resistance","Escherichia coli|Aminopenicillins","Total tested isolates","N","2016","HU","Hungary",1969.000000000,""
"Antimicrobial resistance","Escherichia coli|Aminopenicillins","Total tested isolates","N","2016","IE","Ireland",2990.000000000,""
"Antimicrobial resistance","Escherichia coli|Aminopenicillins","Total tested isolates","N","2016","IS","Iceland",192.000000000,""
"Antimicrobial resistance","Escherichia coli|Aminopenicillins","Total tested isolates","N","2016","IT","Italy",3114.000000000,""
"Antimicrobial resistance","Escherichia coli|Aminopenicillins","Total tested isolates","N","2016","LT","Lithuania",794.000000000,""
"Antimicrobial resistance","Escherichia coli|Aminopenicillins","Total tested isolates","N","2016","LU","Luxembourg",419.000000000,""
"Antimicrobial resistance","Escherichia coli|Aminopenicillins","Total tested isolates","N","2016","LV","Latvia",247.000000000,""
"Antimicrobial resistance","Escherichia coli|Aminopenicillins","Total tested isolates","N","2016","MT","Malta",328.000000000,""
"Antimicrobial resistance","Escherichia coli|Aminopenicillins","Total tested isolates","N","2016","NL","Netherlands",7246.000000000,""
"Antimicrobial resistance","Escherichia coli|Aminopenicillins","Total tested isolates","N","2016","NO","Norway",3615.000000000,""
"Antimicrobial resistance","Escherichia coli|Aminopenicillins","Total tested isolates","N","2016","PL","Poland",1034.000000000,""
"Antimicrobial resistance","Escherichia coli|Aminopenicillins","Total tested isolates","N","2016","PT","Portugal",5772.000000000,""
"Antimicrobial resistance","Escherichia coli|Aminopenicillins","Total tested isolates","N","2016","RO","Romania",376.000000000,""
"Antimicrobial resistance","Escherichia coli|Aminopenicillins","Total tested isolates","N","2016","SE","Sweden",0.000000000,""
"Antimicrobial resistance","Escherichia coli|Aminopenicillins","Total tested isolates","N","2016","SI","Slovenia",1420.000000000,""
"Antimicrobial resistance","Escherichia coli|Aminopenicillins","Total tested isolates","N","2016","SK","Slovakia",817.000000000,""
"Antimicrobial resistance","Escherichia coli|Aminopenicillins","Total tested isolates","N","2016","UK","United Kingdom",21614.000000000,""
"Antimicrobial resistance","Escherichia coli|Aminopenicillins","Total tested isolates","N","2017","AT","Austria",5188.000000000,""
"Antimicrobial resistance","Escherichia coli|Aminopenicillins","Total tested isolates","N","2017","BE","Belgium",4669.000000000,""
"Antimicrobial resistance","Escherichia coli|Aminopenicillins","Total tested isolates","N","2017","BG","Bulgaria",203.000000000,""
"Antimicrobial resistance","Escherichia coli|Aminopenicillins","Total tested isolates","N","2017","CY","Cyprus",156.000000000,""
"Antimicrobial resistance","Escherichia coli|Aminopenicillins","Total tested isolates","N","2017","CZ","Czechia",3198.000000000,""
"Antimicrobial resistance","Escherichia coli|Aminopenicillins","Total tested isolates","N","2017","DE","Germany",21646.000000000,""
"Antimicrobial resistance","Escherichia coli|Aminopenicillins","Total tested isolates","N","2017","DK","Denmark",4885.000000000,""
"Antimicrobial resistance","Escherichia coli|Aminopenicillins","Total tested isolates","N","2017","EE","Estonia",439.000000000,""
"Antimicrobial resistance","Escherichia coli|Aminopenicillins","Total tested isolates","N","2017","EL","Greece",1306.000000000,""
"Antimicrobial resistance","Escherichia coli|Aminopenicillins","Total tested isolates","N","2017","ES","Spain",5947.000000000,""
"Antimicrobial resistance","Escherichia coli|Aminopenicillins","Total tested isolates","N","2017","FI","Finland",2874.000000000,""
"Antimicrobial resistance","Escherichia coli|Aminopenicillins","Total tested isolates","N","2017","FR","France",13293.000000000,""
"Antimicrobial resistance","Escherichia coli|Aminopenicillins","Total tested isolates","N","2017","HR","Croatia",1135.000000000,""
"Antimicrobial resistance","Escherichia coli|Aminopenicillins","Total tested isolates","N","2017","HU","Hungary",2021.000000000,""
"Antimicrobial resistance","Escherichia coli|Aminopenicillins","Total tested isolates","N","2017","IE","Ireland",2991.000000000,""
"Antimicrobial resistance","Escherichia coli|Aminopenicillins","Total tested isolates","N","2017","IS","Iceland",213.000000000,""
"Antimicrobial resistance","Escherichia coli|Aminopenicillins","Total tested isolates","N","2017","IT","Italy",4078.000000000,""
"Antimicrobial resistance","Escherichia coli|Aminopenicillins","Total tested isolates","N","2017","LT","Lithuania",845.000000000,""
"Antimicrobial resistance","Escherichia coli|Aminopenicillins","Total tested isolates","N","2017","LU","Luxembourg",433.000000000,""
"Antimicrobial resistance","Escherichia coli|Aminopenicillins","Total tested isolates","N","2017","LV","Latvia",25.000000000,""
"Antimicrobial resistance","Escherichia coli|Aminopenicillins","Total tested isolates","N","2017","MT","Malta",314.000000000,""
"Antimicrobial resistance","Escherichia coli|Aminopenicillins","Total tested isolates","N","2017","NL","Netherlands",7512.000000000,""
"Antimicrobial resistance","Escherichia coli|Aminopenicillins","Total tested isolates","N","2017","NO","Norway",3731.000000000,""
"Antimicrobial resistance","Escherichia coli|Aminopenicillins","Total tested isolates","N","2017","PL","Poland",913.000000000,""
"Antimicrobial resistance","Escherichia coli|Aminopenicillins","Total tested isolates","N","2017","PT","Portugal",6245.000000000,""
"Antimicrobial resistance","Escherichia coli|Aminopenicillins","Total tested isolates","N","2017","RO","Romania",494.000000000,""
"Antimicrobial resistance","Escherichia coli|Aminopenicillins","Total tested isolates","N","2017","SE","Sweden",0.000000000,""
"Antimicrobial resistance","Escherichia coli|Aminopenicillins","Total tested isolates","N","2017","SI","Slovenia",1435.000000000,""
"Antimicrobial resistance","Escherichia coli|Aminopenicillins","Total tested isolates","N","2017","SK","Slovakia",853.000000000,""
"Antimicrobial resistance","Escherichia coli|Aminopenicillins","Total tested isolates","N","2017","UK","United Kingdom",28647.000000000,""
"Antimicrobial resistance","Escherichia coli|Aminopenicillins","Total tested isolates","N","2018","AT","Austria",5456.000000000,""
"Antimicrobial resistance","Escherichia coli|Aminopenicillins","Total tested isolates","N","2018","BE","Belgium",4445.000000000,""
"Antimicrobial resistance","Escherichia coli|Aminopenicillins","Total tested isolates","N","2018","BG","Bulgaria",287.000000000,""
"Antimicrobial resistance","Escherichia coli|Aminopenicillins","Total tested isolates","N","2018","CY","Cyprus",151.000000000,""
"Antimicrobial resistance","Escherichia coli|Aminopenicillins","Total tested isolates","N","2018","CZ","Czechia",3640.000000000,""
"Antimicrobial resistance","Escherichia coli|Aminopenicillins","Total tested isolates","N","2018","DE","Germany",20841.000000000,""
"Antimicrobial resistance","Escherichia coli|Aminopenicillins","Total tested isolates","N","2018","DK","Denmark",5383.000000000,""
"Antimicrobial resistance","Escherichia coli|Aminopenicillins","Total tested isolates","N","2018","EE","Estonia",457.000000000,""
"Antimicrobial resistance","Escherichia coli|Aminopenicillins","Total tested isolates","N","2018","EL","Greece",1444.000000000,""
"Antimicrobial resistance","Escherichia coli|Aminopenicillins","Total tested isolates","N","2018","ES","Spain",7599.000000000,""
"Antimicrobial resistance","Escherichia coli|Aminopenicillins","Total tested isolates","N","2018","FI","Finland",3129.000000000,""
"Antimicrobial resistance","Escherichia coli|Aminopenicillins","Total tested isolates","N","2018","FR","France",12553.000000000,""
"Antimicrobial resistance","Escherichia coli|Aminopenicillins","Total tested isolates","N","2018","HR","Croatia",1214.000000000,""
"Antimicrobial resistance","Escherichia coli|Aminopenicillins","Total tested isolates","N","2018","HU","Hungary",2312.000000000,""
"Antimicrobial resistance","Escherichia coli|Aminopenicillins","Total tested isolates","N","2018","IE","Ireland",3237.000000000,""
"Antimicrobial resistance","Escherichia coli|Aminopenicillins","Total tested isolates","N","2018","IS","Iceland",198.000000000,""
"Antimicrobial resistance","Escherichia coli|Aminopenicillins","Total tested isolates","N","2018","IT","Italy",7533.000000000,""
"Antimicrobial resistance","Escherichia coli|Aminopenicillins","Total tested isolates","N","2018","LT","Lithuania",1106.000000000,""
"Antimicrobial resistance","Escherichia coli|Aminopenicillins","Total tested isolates","N","2018","LU","Luxembourg",420.000000000,""
"Antimicrobial resistance","Escherichia coli|Aminopenicillins","Total tested isolates","N","2018","LV","Latvia",347.000000000,""
"Antimicrobial resistance","Escherichia coli|Aminopenicillins","Total tested isolates","N","2018","MT","Malta",332.000000000,""
"Antimicrobial resistance","Escherichia coli|Aminopenicillins","Total tested isolates","N","2018","NL","Netherlands",8272.000000000,""
"Antimicrobial resistance","Escherichia coli|Aminopenicillins","Total tested isolates","N","2018","NO","Norway",3880.000000000,""
"Antimicrobial resistance","Escherichia coli|Aminopenicillins","Total tested isolates","N","2018","PL","Poland",890.000000000,""
"Antimicrobial resistance","Escherichia coli|Aminopenicillins","Total tested isolates","N","2018","PT","Portugal",5895.000000000,""
"Antimicrobial resistance","Escherichia coli|Aminopenicillins","Total tested isolates","N","2018","RO","Romania",542.000000000,""
"Antimicrobial resistance","Escherichia coli|Aminopenicillins","Total tested isolates","N","2018","SE","Sweden",0.000000000,""
"Antimicrobial resistance","Escherichia coli|Aminopenicillins","Total tested isolates","N","2018","SI","Slovenia",1668.000000000,""
"Antimicrobial resistance","Escherichia coli|Aminopenicillins","Total tested isolates","N","2018","SK","Slovakia",967.000000000,""
"Antimicrobial resistance","Escherichia coli|Aminopenicillins","Total tested isolates","N","2018","UK","United Kingdom",29502.000000000,""
"Antimicrobial resistance","Escherichia coli|Aminopenicillins","Total tested isolates","N","2019","AT","Austria",6042.000000000,""
"Antimicrobial resistance","Escherichia coli|Aminopenicillins","Total tested isolates","N","2019","BE","Belgium",3601.000000000,""
"Antimicrobial resistance","Escherichia coli|Aminopenicillins","Total tested isolates","N","2019","BG","Bulgaria",352.000000000,""
"Antimicrobial resistance","Escherichia coli|Aminopenicillins","Total tested isolates","N","2019","CY","Cyprus",92.000000000,""
"Antimicrobial resistance","Escherichia coli|Aminopenicillins","Total tested isolates","N","2019","CZ","Czechia",3556.000000000,""
"Antimicrobial resistance","Escherichia coli|Aminopenicillins","Total tested isolates","N","2019","DE","Germany",23324.000000000,""
"Antimicrobial resistance","Escherichia coli|Aminopenicillins","Total tested isolates","N","2019","DK","Denmark",5593.000000000,""
"Antimicrobial resistance","Escherichia coli|Aminopenicillins","Total tested isolates","N","2019","EE","Estonia",499.000000000,""
"Antimicrobial resistance","Escherichia coli|Aminopenicillins","Total tested isolates","N","2019","EL","Greece",154.000000000,""
"Antimicrobial resistance","Escherichia coli|Aminopenicillins","Total tested isolates","N","2019","ES","Spain",7831.000000000,""
"Antimicrobial resistance","Escherichia coli|Aminopenicillins","Total tested isolates","N","2019","FI","Finland",3000.000000000,""
"Antimicrobial resistance","Escherichia coli|Aminopenicillins","Total tested isolates","N","2019","FR","France",13415.000000000,""
"Antimicrobial resistance","Escherichia coli|Aminopenicillins","Total tested isolates","N","2019","HR","Croatia",1108.000000000,""
"Antimicrobial resistance","Escherichia coli|Aminopenicillins","Total tested isolates","N","2019","HU","Hungary",2363.000000000,""
"Antimicrobial resistance","Escherichia coli|Aminopenicillins","Total tested isolates","N","2019","IE","Ireland",3201.000000000,""
"Antimicrobial resistance","Escherichia coli|Aminopenicillins","Total tested isolates","N","2019","IS","Iceland",257.000000000,""
"Antimicrobial resistance","Escherichia coli|Aminopenicillins","Total tested isolates","N","2019","IT","Italy",4457.000000000,""
"Antimicrobial resistance","Escherichia coli|Aminopenicillins","Total tested isolates","N","2019","LT","Lithuania",1129.000000000,""
"Antimicrobial resistance","Escherichia coli|Aminopenicillins","Total tested isolates","N","2019","LU","Luxembourg",492.000000000,""
"Antimicrobial resistance","Escherichia coli|Aminopenicillins","Total tested isolates","N","2019","LV","Latvia",438.000000000,""
"Antimicrobial resistance","Escherichia coli|Aminopenicillins","Total tested isolates","N","2019","MT","Malta",332.000000000,""
"Antimicrobial resistance","Escherichia coli|Aminopenicillins","Total tested isolates","N","2019","NL","Netherlands",7301.000000000,""
"Antimicrobial resistance","Escherichia coli|Aminopenicillins","Total tested isolates","N","2019","NO","Norway",4072.000000000,""
"Antimicrobial resistance","Escherichia coli|Aminopenicillins","Total tested isolates","N","2019","PL","Poland",836.000000000,""
"Antimicrobial resistance","Escherichia coli|Aminopenicillins","Total tested isolates","N","2019","PT","Portugal",5933.000000000,""
"Antimicrobial resistance","Escherichia coli|Aminopenicillins","Total tested isolates","N","2019","RO","Romania",538.000000000,""
"Antimicrobial resistance","Escherichia coli|Aminopenicillins","Total tested isolates","N","2019","SE","Sweden",0.000000000,""
"Antimicrobial resistance","Escherichia coli|Aminopenicillins","Total tested isolates","N","2019","SI","Slovenia",1610.000000000,""
"Antimicrobial resistance","Escherichia coli|Aminopenicillins","Total tested isolates","N","2019","SK","Slovakia",849.000000000,""
"Antimicrobial resistance","Escherichia coli|Aminopenicillins","Total tested isolates","N","2019","UK","United Kingdom",28228.000000000,""
"Antimicrobial resistance","Escherichia coli|Aminopenicillins","Total tested isolates","N","2020","AT","Austria",4798.000000000,""
"Antimicrobial resistance","Escherichia coli|Aminopenicillins","Total tested isolates","N","2020","BE","Belgium",4009.000000000,""
"Antimicrobial resistance","Escherichia coli|Aminopenicillins","Total tested isolates","N","2020","BG","Bulgaria",261.000000000,""
"Antimicrobial resistance","Escherichia coli|Aminopenicillins","Total tested isolates","N","2020","CY","Cyprus",228.000000000,""
"Antimicrobial resistance","Escherichia coli|Aminopenicillins","Total tested isolates","N","2020","CZ","Czechia",2997.000000000,""
"Antimicrobial resistance","Escherichia coli|Aminopenicillins","Total tested isolates","N","2020","DE","Germany",27284.000000000,""
"Antimicrobial resistance","Escherichia coli|Aminopenicillins","Total tested isolates","N","2020","DK","Denmark",5864.000000000,""
"Antimicrobial resistance","Escherichia coli|Aminopenicillins","Total tested isolates","N","2020","EE","Estonia",422.000000000,""
"Antimicrobial resistance","Escherichia coli|Aminopenicillins","Total tested isolates","N","2020","EL","Greece",452.000000000,""
"Antimicrobial resistance","Escherichia coli|Aminopenicillins","Total tested isolates","N","2020","ES","Spain",7214.000000000,""
"Antimicrobial resistance","Escherichia coli|Aminopenicillins","Total tested isolates","N","2020","FI","Finland",2928.000000000,""
"Antimicrobial resistance","Escherichia coli|Aminopenicillins","Total tested isolates","N","2020","FR","France",17674.000000000,""
"Antimicrobial resistance","Escherichia coli|Aminopenicillins","Total tested isolates","N","2020","HR","Croatia",827.000000000,""
"Antimicrobial resistance","Escherichia coli|Aminopenicillins","Total tested isolates","N","2020","HU","Hungary",1804.000000000,""
"Antimicrobial resistance","Escherichia coli|Aminopenicillins","Total tested isolates","N","2020","IE","Ireland",2126.000000000,""
"Antimicrobial resistance","Escherichia coli|Aminopenicillins","Total tested isolates","N","2020","IS","Iceland",245.000000000,""
"Antimicrobial resistance","Escherichia coli|Aminopenicillins","Total tested isolates","N","2020","IT","Italy",4214.000000000,""
"Antimicrobial resistance","Escherichia coli|Aminopenicillins","Total tested isolates","N","2020","LT","Lithuania",1138.000000000,""
"Antimicrobial resistance","Escherichia coli|Aminopenicillins","Total tested isolates","N","2020","LU","Luxembourg",427.000000000,""
"Antimicrobial resistance","Escherichia coli|Aminopenicillins","Total tested isolates","N","2020","LV","Latvia",374.000000000,""
"Antimicrobial resistance","Escherichia coli|Aminopenicillins","Total tested isolates","N","2020","MT","Malta",277.000000000,""
"Antimicrobial resistance","Escherichia coli|Aminopenicillins","Total tested isolates","N","2020","NL","Netherlands",7494.000000000,""
"Antimicrobial resistance","Escherichia coli|Aminopenicillins","Total tested isolates","N","2020","NO","Norway",3758.000000000,""
"Antimicrobial resistance","Escherichia coli|Aminopenicillins","Total tested isolates","N","2020","PL","Poland",502.000000000,""
"Antimicrobial resistance","Escherichia coli|Aminopenicillins","Total tested isolates","N","2020","PT","Portugal",5849.000000000,""
"Antimicrobial resistance","Escherichia coli|Aminopenicillins","Total tested isolates","N","2020","RO","Romania",316.000000000,""
"Antimicrobial resistance","Escherichia coli|Aminopenicillins","Total tested isolates","N","2020","SE","Sweden",0.000000000,""
"Antimicrobial resistance","Escherichia coli|Aminopenicillins","Total tested isolates","N","2020","SI","Slovenia",1617.000000000,""
"Antimicrobial resistance","Escherichia coli|Aminopenicillins","Total tested isolates","N","2020","SK","Slovakia",728.000000000,""
